Welcome to Sherpa, Vithyaban Narendran on pplxwn024.physics.ox.ac.uk. Initialization of framework underway.
The local time is Wed Jan 31 14:38:56 2024.
Run_Parameter::Init(): Setting memory limit to 1007.01 GB.
Random::SetSeed(): Seed set to 1234
-----------------------------------------------------------------------------
-----------    Event generation run with SHERPA started .......   -----------
-----------------------------------------------------------------------------
................................................ |       +                   
................................................ ||  |       +  +            
...................................        ....  | |         /   +           
................. ................   _,_ |  ....  ||         +|  +  +        
...............................  __.'  ,\|  ...  ||    /    +|          +    
.............................. (  \    \   ...  | |  |   + + \         +   
.............................  (    \   -/  .... ||       +    |          +  
........ ...................  <S   /()))))~~~~~~~~##     +     /\    +       
............................ (!H   (~~)))))~~~~~~#/     +  +    |  +         
................ ........... (!E   (~~~)))))     /|/    +         +          
............................ (!R   (~~~)))))   |||   + +            +        
..... ...................... (!P    (~~~~)))   /|  + +          +            
............................ (!A>    (~~~~~~~~~##        + +        +        
............................. ~~(!    '~~~~~~~ \       +     + +      +      
...............................  `~~~QQQQQDb //   |         + + +        +   
........................ ..........   IDDDDP||     \  + + + + +             +
....................................  IDDDI||       \                      + 
.................................... IHD HD||         \ + +  + + + + +      +
...................................  IHD ##|            :-) + +\          +  
......... ............... ......... IHI ## /      /   +  + + + +\       +    
................................... IHI/ /       /      + + + +        +     
................................... ## | | /    / + +      + + /      +      
....................... /TT\ .....  ##/ ///  / + + + + + + +/       +        
......................./TTT/T\ ... /TT\/\\\ / + + + + + + +/   \         +   
....................../TTT/TTTT\...|TT/T\\\/   +    ++  + /              
-----------------------------------------------------------------------------

     SHERPA version 3.0.0beta1 (Dhaulagiri)
                                                                             
     Authors:        Enrico Bothmann, Stefan Hoeche, Frank Krauss,           
                     Silvan Kuttimalai, Marek Schoenherr, Holger Schulz,     
                     Steffen Schumann, Frank Siegert, Korinna Zapp           
     Former Authors: Timo Fischer, Tanju Gleisberg, Hendrik Hoeth,           
                     Ralf Kuhn, Thomas Laubrich, Andreas Schaelicke,         
                     Jan Winter                                              
                                                                             
     This program uses a lot of genuine and original research work           
     by other people. Users are encouraged to refer to                       
     the various original publications.                                      
                                                                             
     Users are kindly asked to refer to the documentation                    
     published under JHEP 02(2009)007                                        
                                                                             
     Please visit also our homepage                                          
                                                                             
       http://sherpa.hepforge.org                                            
                                                                             
     for news, bugreports, updates and new releases.                         
                                                                             
-----------------------------------------------------------------------------
WARNING: You are using an unsupported development branch.
Git branch photon-pdf-fitting, revision cbce34ae4e06c58e8cfd6012e9ecf6e43a03c86e.
Hadron_Init::Init(): Initializing kf table for hadrons.
Beam_Spectra_Handler: type = Collider Setup
    for e+ (on = 1, p = (27.5,0,0,27.5))
    and P+ (on = 1, p = (820,0,0,-819.999)).
ISR handling:
    PDFs for hard scattering:              None + NNPDF31_nnlo_as_0118_proton
    PDFs for multiple parton interactions: None + PDF4LHC21_40_pdfas
Remnant_Handlers:
    hard process: P: Intact + P+: Hadron
Standard_Model::FixEWParameters() {
  Input scheme: Gmu
                Gmu scheme, input: GF, m_W, m_Z, m_h, widths
  Ren. scheme:  Gmu
                
  Parameters:   sin^2(\theta_W) = 0.222928 - 0.00110708 i
                vev             = 246.218
}
Running_AlphaQED::PrintSummary() {
  Setting \alpha according to EW scheme
  1/\alpha(0)   = 137.036
  1/\alpha(def) = 132.168
}
[1mOne_Running_AlphaS::One_Running_AlphaS(): [0m[31mOverriding \alpha_s information from PDF. Make sure you know what you are doing![0m
One_Running_AlphaS::PrintSummary() {
  Setting \alpha_s according to PDF
  perturbative order 1
  \alpha_s(M_Z) = 0.1188
}
[1mOne_Running_AlphaS::One_Running_AlphaS(): [0m[31mOverriding \alpha_s information from PDF. Make sure you know what you are doing![0m
One_Running_AlphaS::PrintSummary() {
  Setting \alpha_s according to PDF
  perturbative order 1
  \alpha_s(M_Z) = 0.1188
}
List of Particle Data 
     IDName     kfc            Mass           Width   Stable  Massive   Active          Yukawa
          d       1            0.01               0        1        0        1               0
          u       2           0.005               0        1        0        1               0
          s       3             0.2               0        1        0        1               0
          c       4            1.42               0        1        1        1            1.42
          b       5            4.92               0        1        1        1            4.92
          t       6          173.21             1.5        0        1        1          173.21
         e-      11        0.000511               0        1        0        1               0
         ve      12               0               0        1        0        1               0
        mu-      13           0.105               0        1        0        1               0
        vmu      14               0               0        1        0        1               0
       tau-      15           1.777     2.26735e-12        0        0        1               0
       vtau      16               0               0        1        0        1               0
          G      21               0               0        1        0        1               0
          P      22               0               0        1        0        1               0
          Z      23         91.1876          2.4952        0        1        1         91.1876
         W+      24          80.385           2.085        0        1        1          80.385
         h0      25             125         0.00407        0        1        1             125
     string      95               0               0        1        0        1               0
    cluster      96               0               0        1        0        1               0
  Instanton     999               0               0        0        0        1               0
List of Particle Containers 
     IDName     kfc     Constituents
          l      90     {e-,e+,mu-,mu+,tau-,tau+}
          v      91     {ve,veb,vmu,vmub,vtau,vtaub}
          f      92     {d,db,u,ub,s,sb,e-,e+,mu-,mu+,tau-,tau+,ve,veb,vmu,vmub,vtau,vtaub}
          j      93     {d,db,u,ub,s,sb,G}
          Q      94     {d,db,u,ub,s,sb}
        ewj      98     {d,db,u,ub,s,sb,G,P}
Shower_Handler initialised.

+-----------------------------------------+
|   X   X   X XXXX  XXX  XXX  XXX         |
|  X X  XX XX X    X      X  X     X   X  |
| X   X X X X XXX  X XXX  X  X    XXX XXX |
| XXXXX X   X X    X   X  X  X     X   X  |
| X   X X   X XXXX  XXX  XXX  XXX         |
+-----------------------------------------+
| please cite: JHEP 0202:044,2002         |
+-----------------------------------------+
Matrix_Element_Handler::Matrix_Element_Handler(): Set pilot run mode to 0.
ME_Generator_Base::SetPSMasses(): Massive PS flavours for Comix: (e-,e+,mu-,mu+,tau-,tau+)
+----------------------------------+
|                                  |
|      [31mCCC[0m  [32mOOO[0m  [34mM[0m   [34mM[0m I [33mX[0m   [33mX[0m     |
|     [31mC[0m    [32mO[0m   [32mO[0m [34mMM[0m [34mMM[0m I  [33mX[0m [33mX[0m      |
|     [31mC[0m    [32mO[0m   [32mO[0m [34mM[0m [34mM[0m [34mM[0m I   [33mX[0m       |
|     [31mC[0m    [32mO[0m   [32mO[0m [34mM[0m   [34mM[0m I  [33mX[0m [33mX[0m      |
|      [31mCCC[0m  [32mOOO[0m  [34mM[0m   [34mM[0m I [33mX[0m   [33mX[0m     |
|                                  |
+==================================+
|  Color dressed  Matrix Elements  |
|     http://comix.freacafe.de     |
|   please cite  JHEP12(2008)039   |
+----------------------------------+
ME_Generator_Base::SetPSMasses(): Massive PS flavours for Amegic: (e-,e+,mu-,mu+,tau-,tau+)
Matrix_Element_Handler::BuildProcesses(): 2 ME generators, 1 process blocks.
Matrix_Element_Handler::BuildProcesses(): Setting up processes ........................................ done ( 61 MB, 0s / 0s ).
Matrix_Element_Handler::InitializeProcesses(): Performing tests ........................................ done ( 62 MB, 0s / 0s ).
Matrix_Element_Handler::InitializeProcesses(): Initializing scales done ( 62 MB, 0s / 0s ).
Initialized the Matrix_Element_Handler for the hard processes.
Initialized the Beam_Remnant_Handler.
[1m[31mNormal exit[0m[1m thrown[0m:
[31mInitialization complete.[0m
WARNING: You are using an unsupported development branch.
------------------------------------------------------------------------
[1mPlease cite the publications listed in '[31mReferences.tex[0m[1m'.[0m
  Extract the bibtex list by running 'get_bibtex References.tex'
  or email the file to 'slaclib2@slac.stanford.edu', subject 'generate'.
------------------------------------------------------------------------
[1mTerminator_Object_Handler::Exit: [0m[34mExiting Sherpa with code [0m[1m([31m0[0m[1m)[0m[?25h
Thanks for using LHAPDF 6.5.4. Please make sure to cite the paper:
  Eur.Phys.J. C75 (2015) 3, 132  (http://arxiv.org/abs/1412.7420)
Welcome to Sherpa, Vithyaban Narendran on pplxwn024.physics.ox.ac.uk. Initialization of framework underway.
The local time is Wed Jan 31 14:38:57 2024.
Run_Parameter::Init(): Setting memory limit to 1007.01 GB.
Random::SetSeed(): Seed set to 1234
-----------------------------------------------------------------------------
-----------    Event generation run with SHERPA started .......   -----------
-----------------------------------------------------------------------------
................................................ |       +                   
................................................ ||  |       +  +            
...................................        ....  | |         /   +           
................. ................   _,_ |  ....  ||         +|  +  +        
...............................  __.'  ,\|  ...  ||    /    +|          +    
.............................. (  \    \   ...  | |  |   + + \         +   
.............................  (    \   -/  .... ||       +    |          +  
........ ...................  <S   /()))))~~~~~~~~##     +     /\    +       
............................ (!H   (~~)))))~~~~~~#/     +  +    |  +         
................ ........... (!E   (~~~)))))     /|/    +         +          
............................ (!R   (~~~)))))   |||   + +            +        
..... ...................... (!P    (~~~~)))   /|  + +          +            
............................ (!A>    (~~~~~~~~~##        + +        +        
............................. ~~(!    '~~~~~~~ \       +     + +      +      
...............................  `~~~QQQQQDb //   |         + + +        +   
........................ ..........   IDDDDP||     \  + + + + +             +
....................................  IDDDI||       \                      + 
.................................... IHD HD||         \ + +  + + + + +      +
...................................  IHD ##|            :-) + +\          +  
......... ............... ......... IHI ## /      /   +  + + + +\       +    
................................... IHI/ /       /      + + + +        +     
................................... ## | | /    / + +      + + /      +      
....................... /TT\ .....  ##/ ///  / + + + + + + +/       +        
......................./TTT/T\ ... /TT\/\\\ / + + + + + + +/   \         +   
....................../TTT/TTTT\...|TT/T\\\/   +    ++  + /              
-----------------------------------------------------------------------------

     SHERPA version 3.0.0beta1 (Dhaulagiri)
                                                                             
     Authors:        Enrico Bothmann, Stefan Hoeche, Frank Krauss,           
                     Silvan Kuttimalai, Marek Schoenherr, Holger Schulz,     
                     Steffen Schumann, Frank Siegert, Korinna Zapp           
     Former Authors: Timo Fischer, Tanju Gleisberg, Hendrik Hoeth,           
                     Ralf Kuhn, Thomas Laubrich, Andreas Schaelicke,         
                     Jan Winter                                              
                                                                             
     This program uses a lot of genuine and original research work           
     by other people. Users are encouraged to refer to                       
     the various original publications.                                      
                                                                             
     Users are kindly asked to refer to the documentation                    
     published under JHEP 02(2009)007                                        
                                                                             
     Please visit also our homepage                                          
                                                                             
       http://sherpa.hepforge.org                                            
                                                                             
     for news, bugreports, updates and new releases.                         
                                                                             
-----------------------------------------------------------------------------
WARNING: You are using an unsupported development branch.
Git branch photon-pdf-fitting, revision cbce34ae4e06c58e8cfd6012e9ecf6e43a03c86e.
Hadron_Init::Init(): Initializing kf table for hadrons.
Beam_Spectra_Handler: type = Collider Setup
    for e+ (on = 1, p = (27.5,0,0,27.5))
    and P+ (on = 1, p = (820,0,0,-819.999)).
ISR handling:
    PDFs for hard scattering:              None + NNPDF31_nnlo_as_0118_proton
    PDFs for multiple parton interactions: None + PDF4LHC21_40_pdfas
Remnant_Handlers:
    hard process: P: Intact + P+: Hadron
Standard_Model::FixEWParameters() {
  Input scheme: Gmu
                Gmu scheme, input: GF, m_W, m_Z, m_h, widths
  Ren. scheme:  Gmu
                
  Parameters:   sin^2(\theta_W) = 0.222928 - 0.00110708 i
                vev             = 246.218
}
Running_AlphaQED::PrintSummary() {
  Setting \alpha according to EW scheme
  1/\alpha(0)   = 137.036
  1/\alpha(def) = 132.168
}
[1mOne_Running_AlphaS::One_Running_AlphaS(): [0m[31mOverriding \alpha_s information from PDF. Make sure you know what you are doing![0m
One_Running_AlphaS::PrintSummary() {
  Setting \alpha_s according to PDF
  perturbative order 1
  \alpha_s(M_Z) = 0.1188
}
[1mOne_Running_AlphaS::One_Running_AlphaS(): [0m[31mOverriding \alpha_s information from PDF. Make sure you know what you are doing![0m
One_Running_AlphaS::PrintSummary() {
  Setting \alpha_s according to PDF
  perturbative order 1
  \alpha_s(M_Z) = 0.1188
}
List of Particle Data 
     IDName     kfc            Mass           Width   Stable  Massive   Active          Yukawa
          d       1            0.01               0        1        0        1               0
          u       2           0.005               0        1        0        1               0
          s       3             0.2               0        1        0        1               0
          c       4            1.42               0        1        1        1            1.42
          b       5            4.92               0        1        1        1            4.92
          t       6          173.21             1.5        0        1        1          173.21
         e-      11        0.000511               0        1        0        1               0
         ve      12               0               0        1        0        1               0
        mu-      13           0.105               0        1        0        1               0
        vmu      14               0               0        1        0        1               0
       tau-      15           1.777     2.26735e-12        0        0        1               0
       vtau      16               0               0        1        0        1               0
          G      21               0               0        1        0        1               0
          P      22               0               0        1        0        1               0
          Z      23         91.1876          2.4952        0        1        1         91.1876
         W+      24          80.385           2.085        0        1        1          80.385
         h0      25             125         0.00407        0        1        1             125
     string      95               0               0        1        0        1               0
    cluster      96               0               0        1        0        1               0
  Instanton     999               0               0        0        0        1               0
List of Particle Containers 
     IDName     kfc     Constituents
          l      90     {e-,e+,mu-,mu+,tau-,tau+}
          v      91     {ve,veb,vmu,vmub,vtau,vtaub}
          f      92     {d,db,u,ub,s,sb,e-,e+,mu-,mu+,tau-,tau+,ve,veb,vmu,vmub,vtau,vtaub}
          j      93     {d,db,u,ub,s,sb,G}
          Q      94     {d,db,u,ub,s,sb}
        ewj      98     {d,db,u,ub,s,sb,G,P}
Shower_Handler initialised.

+-----------------------------------------+
|   X   X   X XXXX  XXX  XXX  XXX         |
|  X X  XX XX X    X      X  X     X   X  |
| X   X X X X XXX  X XXX  X  X    XXX XXX |
| XXXXX X   X X    X   X  X  X     X   X  |
| X   X X   X XXXX  XXX  XXX  XXX         |
+-----------------------------------------+
| please cite: JHEP 0202:044,2002         |
+-----------------------------------------+
Matrix_Element_Handler::Matrix_Element_Handler(): Set pilot run mode to 0.
ME_Generator_Base::SetPSMasses(): Massive PS flavours for Comix: (e-,e+,mu-,mu+,tau-,tau+)
+----------------------------------+
|                                  |
|      [31mCCC[0m  [32mOOO[0m  [34mM[0m   [34mM[0m I [33mX[0m   [33mX[0m     |
|     [31mC[0m    [32mO[0m   [32mO[0m [34mMM[0m [34mMM[0m I  [33mX[0m [33mX[0m      |
|     [31mC[0m    [32mO[0m   [32mO[0m [34mM[0m [34mM[0m [34mM[0m I   [33mX[0m       |
|     [31mC[0m    [32mO[0m   [32mO[0m [34mM[0m   [34mM[0m I  [33mX[0m [33mX[0m      |
|      [31mCCC[0m  [32mOOO[0m  [34mM[0m   [34mM[0m I [33mX[0m   [33mX[0m     |
|                                  |
+==================================+
|  Color dressed  Matrix Elements  |
|     http://comix.freacafe.de     |
|   please cite  JHEP12(2008)039   |
+----------------------------------+
ME_Generator_Base::SetPSMasses(): Massive PS flavours for Amegic: (e-,e+,mu-,mu+,tau-,tau+)
Matrix_Element_Handler::BuildProcesses(): 2 ME generators, 1 process blocks.
Matrix_Element_Handler::BuildProcesses(): Setting up processes ........................................ done ( 59 MB, 0s / 0s ).
Matrix_Element_Handler::InitializeProcesses(): Performing tests ........................................ done ( 59 MB, 0s / 0s ).
Matrix_Element_Handler::InitializeProcesses(): Initializing scales done ( 60 MB, 0s / 0s ).
Initialized the Matrix_Element_Handler for the hard processes.
Initialized the Beam_Remnant_Handler.
Beam_Channels::CheckForStructuresFromME for 0: (none)
ISR_Channels::CheckForStructuresFromME for 0: (none)
Process_Group::CalculateTotalXSec(): Calculate xs for '2_2__P__j__j__j' (Comix)
Integration parameters: n_{min} = 5000, N_{opt} = 10, N_{max} = 1, exponent = 0.5
Starting the calculation at 14:38:58. Lean back and enjoy ... .
[34m40824.5 pb[0m +- ( [31m1363.28 pb = 3.33938 %[0m ) 5000 ( 8773 -> 56.9 % )
full optimization:  ( 0s elapsed / 40s left ) [14:38:58]
[34m41033.5 pb[0m +- ( [31m1949.05 pb = 4.7499 %[0m ) 7071 ( 12209 -> 60.2 % )
full optimization:  ( 0s elapsed / 40s left ) [14:38:58]
[34m41718.4 pb[0m +- ( [31m988.251 pb = 2.36886 %[0m ) 9999 ( 16571 -> 67.1 % )
full optimization:  ( 0s elapsed / 40s left ) [14:38:58]
[34m41629.8 pb[0m +- ( [31m600.502 pb = 1.44248 %[0m ) 14140 ( 23199 -> 62.4 % )
full optimization:  ( 1s elapsed / 39s left ) [14:38:59]
[34m41897.3 pb[0m +- ( [31m405.436 pb = 0.96769 %[0m ) 19996 ( 33157 -> 58.8 % )
full optimization:  ( 1s elapsed / 39s left ) [14:38:59]
[34m41895.2 pb[0m +- ( [31m291.301 pb = 0.695308 %[0m ) 28278 ( 48393 -> 54.3 % )
full optimization:  ( 2s elapsed / 36s left ) [14:39:00]
[34m41791.9 pb[0m +- ( [31m219.482 pb = 0.525179 %[0m ) 39991 ( 71368 -> 50.9 % )
full optimization:  ( 2s elapsed / 34s left ) [14:39:00]
[34m41879.3 pb[0m +- ( [31m172.278 pb = 0.411369 %[0m ) 56555 ( 105626 -> 48.3 % )
full optimization:  ( 3s elapsed / 31s left ) [14:39:01]
[34m41919.6 pb[0m +- ( [31m138.598 pb = 0.330629 %[0m ) 79980 ( 156800 -> 45.7 % )
full optimization:  ( 5s elapsed / 28s left ) [14:39:03]
[34m41949.9 pb[0m +- ( [31m113.637 pb = 0.270887 %[0m ) 113108 ( 232877 -> 43.5 % )
full optimization:  ( 7s elapsed / 26s left ) [14:39:05]
[34m41951.3 pb[0m +- ( [31m94.1766 pb = 0.22449 %[0m ) 159958 ( 346426 -> 41.2 % )
integration time:   ( 10s elapsed / 23s left ) [14:39:08]
[1m2_2__P__j__j__j[0m : [34m[1m41951.3 pb[0m +- ( [31m94.1766 pb = 0.22449 %[0m ) [1m exp. eff: [31m2.81948 %[0m
  reduce max for 2_2__P__j__j__j to 1 ( eps = 0.001 -> exp. eff 0.0281948 ) 
Process_Group::CalculateTotalXSec(): Calculate xs for '2_2__P__j__c__cb' (Comix)
Integration parameters: n_{min} = 5000, N_{opt} = 10, N_{max} = 1, exponent = 0.5
Starting the calculation at 14:39:08. Lean back and enjoy ... .
[34m16168 pb[0m +- ( [31m465.743 pb = 2.88064 %[0m ) 5000 ( 38657 -> 12.9 % )
full optimization:  ( 0s elapsed / 24s left ) [14:39:08]
[34m16424.8 pb[0m +- ( [31m593.509 pb = 3.6135 %[0m ) 7071 ( 52208 -> 15.2 % )
full optimization:  ( 0s elapsed / 24s left ) [14:39:08]
[34m16485.9 pb[0m +- ( [31m382.842 pb = 2.32224 %[0m ) 9999 ( 61402 -> 31.8 % )
full optimization:  ( 0s elapsed / 21s left ) [14:39:08]
[34m16314.9 pb[0m +- ( [31m269.421 pb = 1.65138 %[0m ) 14140 ( 72579 -> 37 % )
full optimization:  ( 0s elapsed / 20s left ) [14:39:08]
[34m16301.2 pb[0m +- ( [31m196.95 pb = 1.20819 %[0m ) 19996 ( 87730 -> 38.6 % )
full optimization:  ( 0s elapsed / 19s left ) [14:39:08]
[34m16284.3 pb[0m +- ( [31m147.12 pb = 0.903449 %[0m ) 28278 ( 108890 -> 39.1 % )
full optimization:  ( 0s elapsed / 18s left ) [14:39:09]
[34m16367.1 pb[0m +- ( [31m111.413 pb = 0.680714 %[0m ) 39991 ( 139565 -> 38.1 % )
full optimization:  ( 1s elapsed / 16s left ) [14:39:09]
[34m16376.1 pb[0m +- ( [31m85.1696 pb = 0.520084 %[0m ) 56555 ( 185838 -> 35.7 % )
full optimization:  ( 2s elapsed / 18s left ) [14:39:10]
[34m16418.4 pb[0m +- ( [31m66.675 pb = 0.406099 %[0m ) 79980 ( 254516 -> 34.1 % )
full optimization:  ( 3s elapsed / 18s left ) [14:39:11]
[34m16405 pb[0m +- ( [31m52.9299 pb = 0.322644 %[0m ) 113108 ( 353848 -> 33.3 % )
full optimization:  ( 4s elapsed / 17s left ) [14:39:12]
[34m16392.2 pb[0m +- ( [31m42.6643 pb = 0.260271 %[0m ) 159958 ( 501736 -> 31.6 % )
integration time:   ( 6s elapsed / 14s left ) [14:39:14]
[1m2_2__P__j__c__cb[0m : [34m[1m16392.2 pb[0m +- ( [31m42.6643 pb = 0.260271 %[0m ) [1m exp. eff: [31m1.51394 %[0m
  reduce max for 2_2__P__j__c__cb to 1 ( eps = 0.001 -> exp. eff 0.0151394 ) 
Process_Group::CalculateTotalXSec(): Calculate xs for '2_2__P__j__b__bb' (Comix)
Integration parameters: n_{min} = 5000, N_{opt} = 10, N_{max} = 1, exponent = 0.5
Starting the calculation at 14:39:14. Lean back and enjoy ... .
[34m1360.95 pb[0m +- ( [31m51.8809 pb = 3.81211 %[0m ) 5000 ( 13204 -> 37.8 % )
full optimization:  ( 0s elapsed / 13s left ) [14:39:14]
[34m1402.18 pb[0m +- ( [31m76.8953 pb = 5.48399 %[0m ) 7071 ( 17341 -> 50 % )
full optimization:  ( 0s elapsed / 14s left ) [14:39:14]
[34m1407.3 pb[0m +- ( [31m38.6533 pb = 2.74662 %[0m ) 9999 ( 22931 -> 52.3 % )
full optimization:  ( 0s elapsed / 13s left ) [14:39:14]
[34m1420.39 pb[0m +- ( [31m24.1038 pb = 1.69698 %[0m ) 14140 ( 30279 -> 56.3 % )
full optimization:  ( 0s elapsed / 13s left ) [14:39:14]
[34m1411.28 pb[0m +- ( [31m16.233 pb = 1.15023 %[0m ) 19996 ( 40629 -> 56.5 % )
full optimization:  ( 0s elapsed / 13s left ) [14:39:14]
[34m1409.62 pb[0m +- ( [31m11.661 pb = 0.827244 %[0m ) 28278 ( 53995 -> 61.9 % )
full optimization:  ( 0s elapsed / 14s left ) [14:39:14]
[34m1412.86 pb[0m +- ( [31m8.6444 pb = 0.611835 %[0m ) 39991 ( 72700 -> 62.6 % )
full optimization:  ( 1s elapsed / 13s left ) [14:39:15]
[34m1411.32 pb[0m +- ( [31m6.52154 pb = 0.462087 %[0m ) 56555 ( 99802 -> 61.1 % )
full optimization:  ( 1s elapsed / 12s left ) [14:39:15]
[34m1415.3 pb[0m +- ( [31m5.04219 pb = 0.356262 %[0m ) 79980 ( 137891 -> 61.5 % )
full optimization:  ( 1s elapsed / 11s left ) [14:39:16]
[34m1419.17 pb[0m +- ( [31m3.9703 pb = 0.279761 %[0m ) 113108 ( 192564 -> 60.5 % )
full optimization:  ( 2s elapsed / 9s left ) [14:39:16]
[34m1419.73 pb[0m +- ( [31m3.17604 pb = 0.223708 %[0m ) 159958 ( 271921 -> 59 % )
integration time:   ( 3s elapsed / 8s left ) [14:39:17]
[1m2_2__P__j__b__bb[0m : [34m[1m1419.73 pb[0m +- ( [31m3.17604 pb = 0.223708 %[0m ) [1m exp. eff: [31m8.90072 %[0m
  reduce max for 2_2__P__j__b__bb to 1 ( eps = 0.001 -> exp. eff 0.0890072 ) 
Beam_Channels::CheckForStructuresFromME for 0: (none)
ISR_Channels::CheckForStructuresFromME for 0: (none)
Process_Group::CalculateTotalXSec(): Calculate xs for '2_3__P__j__j__j__j' (Comix)
Integration parameters: n_{min} = 5000, N_{opt} = 10, N_{max} = 1, exponent = 0.5
Starting the calculation at 14:39:17. Lean back and enjoy ... .
[34m274.767 pb[0m +- ( [31m66.8427 pb = 24.327 %[0m ) 5000 ( 23705 -> 21 % )
full optimization:  ( 3s elapsed / 6m 18s left ) [14:39:21]
[34m173.268 pb[0m +- ( [31m22.5688 pb = 13.0254 %[0m ) 7071 ( 32224 -> 24.3 % )
full optimization:  ( 5s elapsed / 6m 16s left ) [14:39:22]
[34m232.955 pb[0m +- ( [31m24.1763 pb = 10.3781 %[0m ) 9999 ( 42244 -> 29.2 % )
full optimization:  ( 7s elapsed / 6m 15s left ) [14:39:24]
[34m265.258 pb[0m +- ( [31m30.5612 pb = 11.5213 %[0m ) 14140 ( 52169 -> 41.7 % )
full optimization:  ( 10s elapsed / 6m 14s left ) [14:39:27]
[34m261.424 pb[0m +- ( [31m22.789 pb = 8.71727 %[0m ) 19996 ( 62674 -> 55.7 % )
full optimization:  ( 15s elapsed / 6m 28s left ) [14:39:32]
[34m285.998 pb[0m +- ( [31m24.0869 pb = 8.42204 %[0m ) 28278 ( 75597 -> 64 % )
full optimization:  ( 22s elapsed / 6m 34s left ) [14:39:39]
[34m316.555 pb[0m +- ( [31m33.4222 pb = 10.5581 %[0m ) 39991 ( 93154 -> 66.7 % )
full optimization:  ( 30s elapsed / 6m 16s left ) [14:39:48]
[34m311.948 pb[0m +- ( [31m25.5072 pb = 8.17677 %[0m ) 56555 ( 115686 -> 73.5 % )
full optimization:  ( 42s elapsed / 6m 3s left ) [14:40:00]
[34m318.754 pb[0m +- ( [31m19.3906 pb = 6.08325 %[0m ) 79980 ( 146435 -> 76.1 % )
full optimization:  ( 1m 4s elapsed / 6m 6s left ) [14:40:22]
Mapping error in Vegas for CDBG_T_8_124_SC24
0: 1.97747e-09<->1.97453e-09 (2.94483e-12)
1: 0.919079<->0.919079 (1.11022e-16)
Mapping error in Vegas for CDBG_T_4_134_SC34
0: 8.23041e-09<->8.22776e-09 (2.65659e-12)
1: 0.0596629<->0.0596629 (6.93889e-18)
[34m357.319 pb[0m +- ( [31m24.0453 pb = 6.72936 %[0m ) 113108 ( 189761 -> 76.4 % )
full optimization:  ( 1m 30s elapsed / 5m 39s left ) [14:40:48]
Mapping error in Vegas for CDBG_T_4_134_SC34
0: 9.60008e-09<->9.60415e-09 (4.06751e-12)
1: 0.246125<->0.246125 (8.32667e-17)
Mapping error in Vegas for CDBG_T_4_134_SC34
0: 5.32567e-09<->5.32204e-09 (3.62379e-12)
1: 0.0613393<->0.0613393 (6.93889e-18)
Mapping error in Vegas for CDBG_T_8_124_SC24
0: 5.45184e-09<->5.44779e-09 (4.05397e-12)
1: 0.170707<->0.170707 (2.77556e-17)
[34m361.799 pb[0m +- ( [31m17.8984 pb = 4.94705 %[0m ) 159958 ( 251743 -> 75.5 % )
integration time:   ( 2m 7s elapsed / 4m 58s left ) [14:41:24]
[1m2_3__P__j__j__j__j[0m : [34m[1m361.799 pb[0m +- ( [31m17.8984 pb = 4.94705 %[0m ) [1m exp. eff: [31m0.0102649 %[0m
  reduce max for 2_3__P__j__j__j__j to 1 ( eps = 0.001 -> exp. eff 0.000102649 ) 
Process_Group::CalculateTotalXSec(): Calculate xs for '2_3__P__j__c__cb__j' (Comix)
Integration parameters: n_{min} = 5000, N_{opt} = 10, N_{max} = 1, exponent = 0.5
Starting the calculation at 14:41:25. Lean back and enjoy ... .
[34m69.4571 pb[0m +- ( [31m4.77719 pb = 6.8779 %[0m ) 5000 ( 420539 -> 1.1 % )
full optimization:  ( 5s elapsed / 10m 17s left ) [14:41:30]
[34m72.437 pb[0m +- ( [31m8.48466 pb = 11.7131 %[0m ) 7071 ( 452624 -> 6.4 % )
full optimization:  ( 6s elapsed / 8m 18s left ) [14:41:31]
[34m67.1836 pb[0m +- ( [31m5.27983 pb = 7.85881 %[0m ) 9999 ( 474071 -> 13.6 % )
full optimization:  ( 7s elapsed / 6m 48s left ) [14:41:32]
[34m75.1417 pb[0m +- ( [31m6.99782 pb = 9.31283 %[0m ) 14140 ( 492761 -> 22.1 % )
full optimization:  ( 9s elapsed / 5m 52s left ) [14:41:34]
[34m72.6497 pb[0m +- ( [31m5.90291 pb = 8.12517 %[0m ) 19996 ( 506465 -> 42.7 % )
full optimization:  ( 12s elapsed / 5m 10s left ) [14:41:37]
[34m73.9583 pb[0m +- ( [31m4.97917 pb = 6.73241 %[0m ) 28278 ( 525858 -> 42.7 % )
full optimization:  ( 15s elapsed / 4m 37s left ) [14:41:40]
[34m73.76 pb[0m +- ( [31m4.16033 pb = 5.64036 %[0m ) 39991 ( 550235 -> 48 % )
full optimization:  ( 18s elapsed / 3m 53s left ) [14:41:43]
[34m75.6514 pb[0m +- ( [31m4.33322 pb = 5.72789 %[0m ) 56555 ( 584495 -> 48.3 % )
full optimization:  ( 23s elapsed / 3m 19s left ) [14:41:48]
[34m76.4647 pb[0m +- ( [31m4.04255 pb = 5.28683 %[0m ) 79980 ( 625852 -> 56.6 % )
full optimization:  ( 30s elapsed / 2m 54s left ) [14:41:55]
Mapping error in Vegas for CDBG_T_16_123_SC23
0: 3.56362e-09<->3.56162e-09 (1.99537e-12)
1: 0.0101846<->0.0101846 (1.73472e-18)
Mapping error in Vegas for CDBG_T_16_123_SC23
0: 6.0462e-10<->6.04932e-10 (3.11759e-13)
1: 0.914623<->0.914623 (1.11022e-16)
Mapping error in Vegas for CDBG_T_16_123_SC23
0: 1.28087e-08<->1.28123e-08 (3.66625e-12)
1: 0.784716<->0.784716 (1.11022e-16)
Mapping error in Vegas for CDBG_T_16_123_SC23
0: 3.11733e-11<->3.05864e-11 (5.86879e-13)
1: 0.188018<->0.188018 (0)
Mapping error in Vegas for CDBG_T_16_123_SC23
0: 1.64492e-08<->1.64453e-08 (3.90512e-12)
1: 0.562637<->0.562637 (1.11022e-16)
Mapping error in Vegas for CDBG_T_16_123_SC23
0: 6.50334e-09<->6.50132e-09 (2.0168e-12)
1: 0.929135<->0.929135 (1.11022e-16)
Mapping error in Vegas for CDBG_T_16_123_SC23
0: 6.59355e-09<->6.59648e-09 (2.92602e-12)
1: 0.593716<->0.593716 (0)
Mapping error in Vegas for CDBG_T_16_123_SC23
0: 2.25508e-08<->2.25558e-08 (4.96022e-12)
1: 0.627052<->0.627052 (0)
Mapping error in Vegas for CDBG_T_16_123_SC23
0: 1.37959e-09<->1.38319e-09 (3.60187e-12)
1: 0.604952<->0.604952 (0)
Mapping error in Vegas for CDBG_T_16_123_SC23
0: 1.34415e-08<->1.34376e-08 (3.80132e-12)
1: 0.0480315<->0.0480315 (6.93889e-18)
Mapping error in Vegas for CDBG_T_16_123_SC23
0: 5.95646e-09<->5.95416e-09 (2.29748e-12)
1: 0.289189<->0.289189 (0)
Mapping error in Vegas for CDBG_T_16_123_SC23
0: 2.09619e-09<->2.09687e-09 (6.80269e-13)
1: 0.646965<->0.646965 (1.11022e-16)
Mapping error in Vegas for CDBG_T_16_123_SC23
0: 6.54748e-09<->6.5523e-09 (4.81704e-12)
1: 0.606447<->0.606447 (0)
Mapping error in Vegas for CDBG_T_16_123_SC23
0: 1.76254e-08<->1.76212e-08 (4.16594e-12)
1: 0.0625596<->0.0625596 (1.38778e-17)
[34m82.862 pb[0m +- ( [31m5.98596 pb = 7.22401 %[0m ) 113108 ( 686304 -> 54.8 % )
full optimization:  ( 39s elapsed / 2m 28s left ) [14:42:04]
Mapping error in Vegas for CDBG_T_16_123_SC23
0: 1.56134e-09<->1.56331e-09 (1.97256e-12)
1: 0.519615<->0.519615 (0)
Mapping error in Vegas for CDBG_T_16_123_SC23
0: 5.18152e-09<->5.1861e-09 (4.58662e-12)
1: 0.861065<->0.861065 (1.11022e-16)
Mapping error in Vegas for CDBG_T_16_123_SC23
0: 1.55685e-08<->1.55719e-08 (3.41108e-12)
1: 0.64081<->0.64081 (0)
Mapping error in Vegas for CDBG_T_16_123_SC23
0: 6.50615e-09<->6.50472e-09 (1.432e-12)
1: 0.825014<->0.825014 (0)
Mapping error in Vegas for CDBG_T_16_123_SC23
0: 3.14865e-09<->3.15041e-09 (1.756e-12)
1: 0.318226<->0.318226 (5.55112e-17)
Mapping error in Vegas for CDBG_T_16_123_SC23
0: 3.48903e-09<->3.49025e-09 (1.22031e-12)
1: 0.916822<->0.916822 (1.11022e-16)
Mapping error in Vegas for CDBG_T_16_123_SC23
0: 7.21487e-09<->7.21161e-09 (3.26634e-12)
1: 0.190791<->0.190791 (0)
Mapping error in Vegas for CDBG_T_16_123_SC23
0: 9.95267e-10<->9.95759e-10 (4.91752e-13)
1: 0.377327<->0.377327 (5.55112e-17)
Mapping error in Vegas for CDBG_T_16_123_SC23
0: 1.09052e-08<->1.09092e-08 (3.96373e-12)
1: 0.929339<->0.929339 (0)
Mapping error in Vegas for CDBG_T_16_123_SC23
0: 1.67942e-09<->1.67886e-09 (5.60477e-13)
1: 0.587745<->0.587745 (0)
Mapping error in Vegas for CDBG_T_16_123_SC23
0: 3.97501e-09<->3.97624e-09 (1.23365e-12)
1: 0.152022<->0.152022 (0)
Mapping error in Vegas for CDBG_T_16_123_SC23
0: 8.74182e-09<->8.74433e-09 (2.50334e-12)
1: 0.217804<->0.217804 (2.77556e-17)
Mapping error in Vegas for CDBG_T_16_123_SC23
0: 1.49659e-08<->1.49704e-08 (4.49941e-12)
1: 0.040367<->0.040367 (2.71076e-12)
Mapping error in Vegas for CDBG_T_16_123_SC23
0: 8.27351e-09<->8.27534e-09 (1.82632e-12)
1: 0.885789<->0.885789 (0)
Mapping error in Vegas for CDBG_T_16_123_SC23
0: 1.99466e-08<->1.99424e-08 (4.26989e-12)
1: 0.831072<->0.831072 (1.11022e-16)
Mapping error in Vegas for CDBG_T_16_123_SC23
0: 6.71723e-09<->6.71883e-09 (1.59693e-12)
1: 0.174261<->0.174261 (2.77556e-17)
Mapping error in Vegas for CDBG_T_16_123_SC23
0: 6.64487e-09<->6.64746e-09 (2.58279e-12)
1: 0.285136<->0.285136 (5.55112e-17)
Mapping error in Vegas for CDBG_T_16_123_SC23
0: 1.51977e-09<->1.51573e-09 (4.03987e-12)
1: 0.806962<->0.806962 (0)
Mapping error in Vegas for CDBG_T_16_123_SC23
0: 3.69682e-09<->3.70096e-09 (4.13791e-12)
1: 0.691868<->0.691868 (1.11022e-16)
Mapping error in Vegas for CDBG_T_16_123_SC23
0: 3.25392e-09<->3.25236e-09 (1.55974e-12)
1: 0.254063<->0.254063 (3.88578e-16)
Mapping error in Vegas for CDBG_T_16_123_SC23
0: 1.44382e-09<->1.44436e-09 (5.40152e-13)
1: 0.128868<->0.128868 (0)
Mapping error in Vegas for CDBG_T_16_123_SC23
0: 1.97761e-09<->1.97453e-09 (3.08093e-12)
1: 0.938582<->0.938582 (1.11022e-16)
Mapping error in Vegas for CDBG_T_16_123_SC23
0: 1.86232e-08<->1.86271e-08 (3.91764e-12)
1: 0.214453<->0.214453 (0)
Mapping error in Vegas for CDBG_T_16_123_SC23
0: 1.93655e-08<->1.93612e-08 (4.28773e-12)
1: 0.5679<->0.5679 (0)
Mapping error in Vegas for CDBG_T_16_123_SC23
0: 7.02635e-09<->7.02469e-09 (1.65748e-12)
1: 0.930267<->0.930267 (1.11022e-16)
Mapping error in Vegas for CDBG_T_16_123_SC23
0: 9.08019e-09<->9.07738e-09 (2.8119e-12)
1: 0.737151<->0.737151 (1.11022e-16)
Mapping error in Vegas for CDBG_T_16_123_SC23
0: 6.77111e-09<->6.7664e-09 (4.70084e-12)
1: 0.0264403<->0.0264403 (3.46945e-18)
Mapping error in Vegas for CDBG_T_16_123_SC23
0: 6.30397e-09<->6.30761e-09 (3.63274e-12)
1: 0.748891<->0.748891 (2.55351e-15)
Mapping error in Vegas for CDBG_T_16_123_SC23
0: 1.45026e-08<->1.4498e-08 (4.64519e-12)
1: 0.291927<->0.291927 (5.55112e-17)
Mapping error in Vegas for CDBG_T_16_123_SC23
0: 2.66365e-09<->2.66442e-09 (7.74418e-13)
1: 0.429149<->0.429149 (5.55112e-17)
Mapping error in Vegas for CDBG_T_16_123_SC23
0: 1.08619e-08<->1.0865e-08 (3.13552e-12)
1: 0.824443<->0.824443 (0)
Mapping error in Vegas for CDBG_T_16_123_SC23
0: 1.34249e-08<->1.34207e-08 (4.2644e-12)
1: 0.828501<->0.828501 (1.11022e-16)
Mapping error in Vegas for CDBG_T_16_123_SC23
0: 7.80076e-09<->7.79615e-09 (4.61187e-12)
1: 0.138438<->0.138438 (0)
Mapping error in Vegas for CDBG_T_16_123_SC23
0: 1.65925e-08<->1.65881e-08 (4.41104e-12)
1: 0.657337<->0.657337 (1.11022e-16)
Mapping error in Vegas for CDBG_T_16_123_SC23
0: 2.78883e-09<->2.79356e-09 (4.7318e-12)
1: 0.910674<->0.910674 (0)
Mapping error in Vegas for CDBG_T_16_123_SC23
0: 1.68703e-09<->1.68226e-09 (4.77413e-12)
1: 0.0473047<->0.0473047 (1.38778e-17)
Mapping error in Vegas for CDBG_T_16_123_SC23
0: 4.96338e-10<->4.9618e-10 (1.57372e-13)
1: 0.650935<->0.650935 (0)
Mapping error in Vegas for CDBG_T_16_123_SC23
0: 6.96466e-09<->6.96012e-09 (4.54225e-12)
1: 0.656442<->0.656442 (1.11022e-16)
Mapping error in Vegas for CDBG_T_16_123_SC23
0: 5.97894e-10<->6.01534e-10 (3.64005e-12)
1: 0.174486<->0.174486 (0)
Mapping error in Vegas for CDBG_T_16_123_SC23
0: 7.3352e-09<->7.33055e-09 (4.64816e-12)
1: 0.751862<->0.751862 (1.33227e-15)
Mapping error in Vegas for CDBG_T_16_123_SC23
0: 1.78561e-08<->1.78523e-08 (3.82757e-12)
1: 0.198224<->0.198224 (5.55112e-17)
Mapping error in Vegas for CDBG_T_16_123_SC23
0: 4.45318e-09<->4.45203e-09 (1.15553e-12)
1: 0.560236<->0.560236 (0)
Mapping error in Vegas for CDBG_T_16_123_SC23
0: 3.86309e-09<->3.86409e-09 (9.95977e-13)
1: 0.151891<->0.151891 (2.77556e-17)
Mapping error in Vegas for CDBG_T_16_123_SC23
0: 1.42801e-08<->1.42839e-08 (3.72443e-12)
1: 0.90917<->0.90917 (0)
Mapping error in Vegas for CDBG_T_16_123_SC23
0: 4.35876e-09<->4.36027e-09 (1.50726e-12)
1: 0.782089<->0.782089 (1.11022e-16)
Mapping error in Vegas for CDBG_T_16_123_SC23
0: 3.76747e-12<->3.39845e-12 (3.69023e-13)
1: 0.181169<->0.181169 (2.77556e-17)
Mapping error in Vegas for CDBG_T_16_123_SC23
0: 1.6297e-08<->1.62924e-08 (4.63317e-12)
1: 0.103592<->0.103592 (1.38778e-17)
Mapping error in Vegas for CDBG_T_16_123_SC23
0: 6.02763e-09<->6.02893e-09 (1.30002e-12)
1: 0.562959<->0.562959 (0)
Mapping error in Vegas for CDBG_T_16_123_SC23
0: 5.21186e-09<->5.21329e-09 (1.43509e-12)
1: 0.0513953<->0.0513953 (0)
Mapping error in Vegas for CDBG_T_16_123_SC23
0: 1.97835e-08<->1.97792e-08 (4.24547e-12)
1: 0.888821<->0.888821 (1.11022e-16)
Mapping error in Vegas for CDBG_T_16_123_SC23
0: 1.61065e-08<->1.61021e-08 (4.40151e-12)
1: 0.895994<->0.895994 (0)
Mapping error in Vegas for CDBG_T_16_123_SC23
0: 4.19736e-09<->4.19374e-09 (3.61871e-12)
1: 0.905625<->0.905625 (0)
Mapping error in Vegas for CDBG_T_16_123_SC23
0: 6.59239e-09<->6.59648e-09 (4.08808e-12)
1: 0.212586<->0.212586 (2.77556e-17)
Mapping error in Vegas for CDBG_T_16_123_SC23
0: 4.96727e-09<->4.972e-09 (4.72606e-12)
1: 0.652166<->0.652166 (1.11022e-16)
Mapping error in Vegas for CDBG_T_16_123_SC23
0: 1.02885e-08<->1.02906e-08 (2.10649e-12)
1: 0.890084<->0.890084 (0)
Mapping error in Vegas for CDBG_T_16_123_SC23
0: 2.06501e-08<->2.06459e-08 (4.25869e-12)
1: 0.826359<->0.826359 (1.11022e-16)
Mapping error in Vegas for CDBG_T_16_123_SC23
0: 1.72429e-09<->1.72304e-09 (1.25251e-12)
1: 0.648205<->0.648205 (0)
Mapping error in Vegas for CDBG_T_16_123_SC23
0: 1.13316e-08<->1.1334e-08 (2.42799e-12)
1: 0.653533<->0.653533 (1.11022e-16)
Mapping error in Vegas for CDBG_T_16_123_SC23
0: 2.16574e-08<->2.1662e-08 (4.59394e-12)
1: 0.806453<->0.806453 (1.11022e-16)
Mapping error in Vegas for CDBG_T_16_123_SC23
0: 9.57472e-09<->9.57696e-09 (2.2356e-12)
1: 0.971316<->0.971316 (0)
Mapping error in Vegas for CDBG_T_16_123_SC23
0: 6.60308e-09<->6.60667e-09 (3.59154e-12)
1: 0.203541<->0.203541 (2.77556e-17)
Mapping error in Vegas for CDBG_T_16_123_SC23
0: 2.36347e-10<->2.37895e-10 (1.54816e-12)
1: 0.609232<->0.609232 (0)
Mapping error in Vegas for CDBG_T_16_123_SC23
0: 4.76309e-09<->4.76809e-09 (5.00002e-12)
1: 0.929391<->0.929391 (1.11022e-16)
Mapping error in Vegas for CDBG_T_16_123_SC23
0: 2.77839e-09<->2.78337e-09 (4.97975e-12)
1: 0.712038<->0.712038 (1.09366e-11)
Mapping error in Vegas for CDBG_T_16_123_SC23
0: 3.50847e-09<->3.50385e-09 (4.62584e-12)
1: 0.905913<->0.905913 (1.11022e-16)
Mapping error in Vegas for CDBG_T_16_123_SC23
0: 4.04518e-09<->4.04081e-09 (4.37352e-12)
1: 0.956742<->0.956742 (0)
Mapping error in Vegas for CDBG_T_16_123_SC23
0: 8.89787e-09<->8.89386e-09 (4.00774e-12)
1: 0.0364166<->0.0364166 (0)
Mapping error in Vegas for CDBG_T_16_123_SC23
0: 3.51258e-09<->3.51404e-09 (1.46497e-12)
1: 0.669406<->0.669406 (0)
Mapping error in Vegas for CDBG_T_16_123_SC23
0: 1.79578e-09<->1.79441e-09 (1.37178e-12)
1: 0.157625<->0.157625 (0)
Mapping error in Vegas for CDBG_T_16_123_SC23
0: 1.30354e-08<->1.304e-08 (4.61908e-12)
1: 0.910982<->0.910982 (0)
Mapping error in Vegas for CDBG_T_16_123_SC23
0: 9.25381e-09<->9.2575e-09 (3.69015e-12)
1: 0.908103<->0.908103 (0)
Mapping error in Vegas for CDBG_T_16_123_SC23
0: 2.74412e-08<->2.74496e-08 (8.46169e-12)
1: 0.928111<->0.928111 (0)
Mapping error in Vegas for CDBG_T_16_123_SC23
0: 3.98149e-09<->3.98304e-09 (1.54868e-12)
1: 0.398836<->0.398836 (0)
Mapping error in Vegas for CDBG_T_16_123_SC23
0: 4.65049e-10<->4.65594e-10 (5.4497e-13)
1: 0.300114<->0.300114 (5.55112e-17)
Mapping error in Vegas for CDBG_T_16_123_SC23
0: 5.85199e-10<->5.84541e-10 (6.57896e-13)
1: 0.0192256<->0.0192256 (0)
Mapping error in Vegas for CDBG_T_16_123_SC23
0: 1.09536e-08<->1.09567e-08 (3.14198e-12)
1: 0.902424<->0.902424 (1.11022e-16)
Mapping error in Vegas for CDBG_T_16_123_SC23
0: 6.40868e-09<->6.41296e-09 (4.27874e-12)
1: 0.461364<->0.461364 (0)
Mapping error in Vegas for CDBG_T_16_123_SC23
0: 5.65177e-11<->5.77744e-11 (1.25671e-12)
1: 0.045305<->0.045305 (0)
Mapping error in Vegas for CDBG_T_16_123_SC23
0: 1.6642e-09<->1.66866e-09 (4.45709e-12)
1: 0.71696<->0.71696 (0)
Mapping error in Vegas for CDBG_T_16_123_SC23
0: 1.60255e-08<->1.60205e-08 (5.02318e-12)
1: 0.896871<->0.896871 (1.11022e-16)
Mapping error in Vegas for CDBG_T_16_123_SC23
0: 6.37931e-09<->6.38237e-09 (3.06721e-12)
1: 0.921283<->0.921283 (0)
Mapping error in Vegas for CDBG_T_16_123_SC23
0: 2.85164e-10<->2.88872e-10 (3.70861e-12)
1: 0.398005<->0.398005 (0)
Mapping error in Vegas for CDBG_T_16_123_SC23
0: 2.07533e-09<->2.07648e-09 (1.1458e-12)
1: 0.552886<->0.552886 (0)
Mapping error in Vegas for CDBG_T_16_123_SC23
0: 4.60303e-09<->4.59816e-09 (4.86945e-12)
1: 0.827697<->0.827697 (1.11022e-16)
Mapping error in Vegas for CDBG_T_16_123_SC23
0: 1.87112e-09<->1.87257e-09 (1.45548e-12)
1: 0.928693<->0.928693 (0)
Mapping error in Vegas for CDBG_T_16_123_SC23
0: 1.39158e-09<->1.38998e-09 (1.59042e-12)
1: 0.0676845<->0.0676845 (0)
Mapping error in Vegas for CDBG_T_16_123_SC23
0: 1.7838e-08<->1.78421e-08 (4.10225e-12)
1: 0.0386196<->0.0386196 (6.93889e-18)
Mapping error in Vegas for CDBG_T_16_123_SC23
0: 1.9741e-08<->1.97453e-08 (4.24593e-12)
1: 0.88229<->0.88229 (1.11022e-16)
Mapping error in Vegas for CDBG_T_16_123_SC23
0: 1.24092e-09<->1.24045e-09 (4.72546e-13)
1: 0.884988<->0.884988 (0)
Mapping error in Vegas for CDBG_T_16_123_SC23
0: 1.07801e-08<->1.07766e-08 (3.46368e-12)
1: 0.142633<->0.142633 (0)
Mapping error in Vegas for CDBG_T_16_123_SC23
0: 2.66339e-10<->2.65083e-10 (1.25676e-12)
1: 0.213687<->0.213687 (8.32667e-17)
Mapping error in Vegas for CDBG_T_16_123_SC23
0: 1.99059e-08<->1.99016e-08 (4.27465e-12)
1: 0.855826<->0.855826 (0)
Mapping error in Vegas for CDBG_T_16_123_SC23
0: 8.7483e-09<->8.74433e-09 (3.97671e-12)
1: 0.0952438<->0.0952438 (0)
Mapping error in Vegas for CDBG_T_16_123_SC23
0: 5.91393e-09<->5.91678e-09 (2.84819e-12)
1: 0.574599<->0.574599 (0)
Mapping error in Vegas for CDBG_T_16_123_SC23
0: 1.54616e-08<->1.54666e-08 (4.92579e-12)
1: 0.0508336<->0.0508336 (6.93889e-18)
Mapping error in Vegas for CDBG_T_16_123_SC23
0: 1.53574e-08<->1.53612e-08 (3.83718e-12)
1: 0.707502<->0.707502 (0)
Mapping error in Vegas for CDBG_T_16_123_SC23
0: 5.57913e-09<->5.58033e-09 (1.20083e-12)
1: 0.859105<->0.859105 (1.11022e-16)
Mapping error in Vegas for CDBG_T_16_123_SC23
0: 1.97262e-08<->1.97215e-08 (4.69406e-12)
1: 0.569371<->0.569371 (1.11022e-16)
Mapping error in Vegas for CDBG_T_16_123_SC23
0: 2.27854e-08<->2.27903e-08 (4.86635e-12)
1: 0.391956<->0.391956 (0)
Mapping error in Vegas for CDBG_T_16_123_SC23
0: 1.31388e-08<->1.3142e-08 (3.2059e-12)
1: 0.601311<->0.601311 (0)
Mapping error in Vegas for CDBG_T_16_123_SC23
0: 1.43584e-08<->1.4362e-08 (3.59235e-12)
1: 0.723374<->0.723374 (1.11022e-16)
Mapping error in Vegas for CDBG_T_16_123_SC23
0: 3.64127e-09<->3.64319e-09 (1.91484e-12)
1: 0.36077<->0.36077 (5.55112e-17)
Mapping error in Vegas for CDBG_T_16_123_SC23
0: 1.22152e-08<->1.22108e-08 (4.45619e-12)
1: 0.573694<->0.573694 (0)
Mapping error in Vegas for CDBG_T_16_123_SC23
0: 1.09884e-08<->1.09839e-08 (4.42125e-12)
1: 0.126331<->0.126331 (2.77556e-17)
Mapping error in Vegas for CDBG_T_16_123_SC23
0: 1.28603e-08<->1.28633e-08 (3.0452e-12)
1: 0.0619293<->0.0619293 (0)
Mapping error in Vegas for CDBG_T_16_123_SC23
0: 1.62559e-08<->1.62516e-08 (4.30633e-12)
1: 0.638367<->0.638367 (0)
Mapping error in Vegas for CDBG_T_16_123_SC23
0: 1.09787e-08<->1.09737e-08 (4.97954e-12)
1: 0.64197<->0.64197 (0)
Mapping error in Vegas for CDBG_T_16_123_SC23
0: 8.28246e-09<->8.28553e-09 (3.07029e-12)
1: 0.298225<->0.298225 (0)
Mapping error in Vegas for CDBG_T_16_123_SC23
0: 9.18827e-10<->9.14195e-10 (4.63211e-12)
1: 0.507745<->0.507745 (0)
Mapping error in Vegas for CDBG_T_16_123_SC23
0: 5.17469e-09<->5.17591e-09 (1.21773e-12)
1: 0.22145<->0.22145 (5.55112e-17)
Mapping error in Vegas for CDBG_T_16_123_SC23
0: 3.84256e-09<->3.8403e-09 (2.25701e-12)
1: 0.695478<->0.695478 (1.11022e-16)
Mapping error in Vegas for CDBG_T_16_123_SC23
0: 5.67713e-09<->5.67549e-09 (1.64261e-12)
1: 0.909653<->0.909653 (1.11022e-16)
Mapping error in Vegas for CDBG_T_16_123_SC23
0: 4.37182e-09<->4.36707e-09 (4.74999e-12)
1: 0.90439<->0.90439 (1.11022e-16)
Mapping error in Vegas for CDBG_T_16_123_SC23
0: 2.05652e-09<->2.05609e-09 (4.26642e-13)
1: 0.839887<->0.839887 (1.11022e-16)
Mapping error in Vegas for CDBG_T_16_123_SC23
0: 9.30412e-09<->9.30848e-09 (4.35485e-12)
1: 0.968408<->0.968408 (1.11022e-16)
Mapping error in Vegas for CDBG_T_16_123_SC23
0: 7.95069e-09<->7.95248e-09 (1.78869e-12)
1: 0.209115<->0.209115 (2.77556e-17)
Mapping error in Vegas for CDBG_T_16_123_SC23
0: 1.20854e-08<->1.20884e-08 (3.00621e-12)
1: 0.0391597<->0.0391597 (6.93889e-18)
Mapping error in Vegas for CDBG_T_16_123_SC23
0: 2.97577e-10<->2.99068e-10 (1.49028e-12)
1: 0.0483229<->0.0483229 (2.0052e-12)
Mapping error in Vegas for CDBG_T_16_123_SC23
0: 3.33123e-10<->3.33053e-10 (7.08586e-14)
1: 0.575497<->0.575497 (0)
Mapping error in Vegas for CDBG_T_16_123_SC23
0: 3.7366e-09<->3.73495e-09 (1.6541e-12)
1: 0.920666<->0.920666 (0)
Mapping error in Vegas for CDBG_T_16_123_SC23
0: 1.14773e-08<->1.14733e-08 (3.99336e-12)
1: 0.891364<->0.891364 (1.11022e-16)
Mapping error in Vegas for CDBG_T_16_123_SC23
0: 9.42064e-09<->9.41723e-09 (3.40795e-12)
1: 0.545988<->0.545988 (1.11022e-16)
Mapping error in Vegas for CDBG_T_16_123_SC23
0: 4.15209e-09<->4.14956e-09 (2.52356e-12)
1: 0.0614276<->0.0614276 (6.93889e-18)
Mapping error in Vegas for CDBG_T_16_123_SC23
0: 6.83046e-09<->6.83437e-09 (3.91074e-12)
1: 0.870009<->0.870009 (0)
Mapping error in Vegas for CDBG_T_16_123_SC23
0: 3.85964e-09<->3.86409e-09 (4.45263e-12)
1: 0.066868<->0.066868 (1.38778e-17)
Mapping error in Vegas for CDBG_T_16_123_SC23
0: 5.33905e-10<->5.30165e-10 (3.73975e-12)
1: 0.905915<->0.905915 (0)
Mapping error in Vegas for CDBG_T_16_123_SC23
0: 2.28051e-09<->2.28379e-09 (3.27951e-12)
1: 0.380929<->0.380929 (0)
Mapping error in Vegas for CDBG_T_16_123_SC23
0: 1.26495e-08<->1.26424e-08 (7.10288e-12)
1: 0.564386<->0.564386 (0)
Mapping error in Vegas for CDBG_T_16_123_SC23
0: 1.92444e-09<->1.92015e-09 (4.29224e-12)
1: 0.497904<->0.497904 (0)
Mapping error in Vegas for CDBG_T_16_123_SC23
0: 1.21834e-08<->1.21802e-08 (3.15475e-12)
1: 0.267877<->0.267877 (5.55112e-17)
[34m84.8023 pb[0m +- ( [31m5.34458 pb = 6.30241 %[0m ) 159958 ( 770733 -> 55.4 % )
integration time:   ( 51s elapsed / 2m 2s left ) [14:42:17]
[1m2_3__P__j__c__cb__j[0m : [34m[1m84.8023 pb[0m +- ( [31m5.34458 pb = 6.30241 %[0m ) [1m exp. eff: [31m0.00588289 %[0m
  reduce max for 2_3__P__j__c__cb__j to 1 ( eps = 0.001 -> exp. eff 5.88289e-05 ) 
Process_Group::CalculateTotalXSec(): Calculate xs for '2_3__P__j__b__bb__j' (Comix)
Integration parameters: n_{min} = 5000, N_{opt} = 10, N_{max} = 1, exponent = 0.5
Starting the calculation at 14:42:17. Lean back and enjoy ... .
[34m46.09 pb[0m +- ( [31m13.334 pb = 28.9304 %[0m ) 5000 ( 239724 -> 2 % )
full optimization:  ( 3s elapsed / 6m 28s left ) [14:42:20]
[34m31.6475 pb[0m +- ( [31m5.02056 pb = 15.864 %[0m ) 7071 ( 270033 -> 6.8 % )
full optimization:  ( 4s elapsed / 5m 38s left ) [14:42:21]
[34m29.5024 pb[0m +- ( [31m3.12378 pb = 10.5882 %[0m ) 9999 ( 289990 -> 14.6 % )
full optimization:  ( 5s elapsed / 4m 47s left ) [14:42:22]
[34m29.3582 pb[0m +- ( [31m2.30222 pb = 7.84183 %[0m ) 14140 ( 309138 -> 21.6 % )
full optimization:  ( 7s elapsed / 4m 42s left ) [14:42:24]
[34m30.5999 pb[0m +- ( [31m1.85263 pb = 6.05434 %[0m ) 19996 ( 328060 -> 30.9 % )
full optimization:  ( 10s elapsed / 4m 27s left ) [14:42:27]
[34m32.0024 pb[0m +- ( [31m1.55117 pb = 4.84704 %[0m ) 28278 ( 351542 -> 35.2 % )
full optimization:  ( 13s elapsed / 4m 2s left ) [14:42:30]
[34m33.5647 pb[0m +- ( [31m1.37879 pb = 4.10786 %[0m ) 39991 ( 380127 -> 40.9 % )
full optimization:  ( 16s elapsed / 3m 27s left ) [14:42:33]
[34m34.5711 pb[0m +- ( [31m1.13641 pb = 3.28716 %[0m ) 56555 ( 424171 -> 37.6 % )
full optimization:  ( 21s elapsed / 2m 58s left ) [14:42:38]
Mapping error in Vegas for CDBG_T_16_123_SC23
0: 2.47059e-09<->2.46731e-09 (3.2867e-12)
1: 0.969551<->0.969551 (0)
[34m37.4584 pb[0m +- ( [31m1.38228 pb = 3.69017 %[0m ) 79980 ( 483782 -> 39.2 % )
full optimization:  ( 27s elapsed / 2m 38s left ) [14:42:44]
Mapping error in Vegas for CDBG_T_16_123_SC23
0: 2.08737e-09<->2.09007e-09 (2.70331e-12)
1: 0.273416<->0.273416 (5.55112e-17)
Mapping error in Vegas for CDBG_T_16_123_SC23
0: 2.24817e-09<->2.2498e-09 (1.6324e-12)
1: 0.715005<->0.715005 (2.34313e-12)
Mapping error in Vegas for CDBG_T_16_123_SC23
0: 5.45115e-10<->5.40361e-10 (4.75377e-12)
1: 0.981336<->0.981336 (0)
Mapping error in Vegas for CDBG_T_16_123_SC23
0: 1.80877e-10<->1.8012e-10 (7.56549e-13)
1: 0.228502<->0.228502 (8.32667e-17)
Mapping error in Vegas for CDBG_T_16_123_SC23
0: 8.86432e-10<->8.87007e-10 (5.75218e-13)
1: 0.0705696<->0.0705696 (1.38778e-17)
Mapping error in Vegas for CDBG_T_16_123_SC23
0: 1.12776e-09<->1.1283e-09 (5.43085e-13)
1: 0.842453<->0.842453 (1.11022e-16)
Mapping error in Vegas for CDBG_T_16_123_SC23
0: 1.4984e-08<->1.49874e-08 (3.36903e-12)
1: 0.717746<->0.717746 (0)
Mapping error in Vegas for CDBG_T_16_123_SC23
0: 8.46984e-09<->8.47245e-09 (2.61261e-12)
1: 0.754538<->0.754538 (3.33067e-16)
Mapping error in Vegas for CDBG_T_16_123_SC23
0: 7.00415e-10<->6.96692e-10 (3.72354e-12)
1: 0.681128<->0.681128 (1.11022e-16)
Mapping error in Vegas for CDBG_T_16_123_SC23
0: 3.10225e-09<->3.10622e-09 (3.97796e-12)
1: 0.0758293<->0.0758293 (7.30015e-12)
Mapping error in Vegas for CDBG_T_16_123_SC23
0: 3.21329e-09<->3.21498e-09 (1.69149e-12)
1: 0.661421<->0.661421 (0)
Mapping error in Vegas for CDBG_T_16_123_SC23
0: 1.71837e-08<->1.71794e-08 (4.29326e-12)
1: 0.43176<->0.43176 (5.55112e-17)
Mapping error in Vegas for CDBG_T_16_123_SC23
0: 1.60276e-08<->1.60239e-08 (3.69789e-12)
1: 0.972548<->0.972548 (1.11022e-16)
[34m39.6345 pb[0m +- ( [31m1.59866 pb = 4.03352 %[0m ) 113108 ( 567404 -> 39.6 % )
full optimization:  ( 37s elapsed / 2m 21s left ) [14:42:54]
Mapping error in Vegas for CDBG_T_16_123_SC23
0: 9.40772e-09<->9.41043e-09 (2.71781e-12)
1: 0.177812<->0.177812 (2.77556e-17)
Mapping error in Vegas for CDBG_T_16_123_SC23
0: 1.40885e-09<->1.40698e-09 (1.87202e-12)
1: 0.822619<->0.822619 (0)
Mapping error in Vegas for CDBG_T_16_123_SC23
0: 5.47661e-09<->5.47837e-09 (1.76499e-12)
1: 0.237989<->0.237989 (1.66533e-16)
Mapping error in Vegas for CDBG_T_16_123_SC23
0: 7.779e-09<->7.78255e-09 (3.55636e-12)
1: 0.813233<->0.813233 (0)
Mapping error in Vegas for CDBG_T_16_123_SC23
0: 7.19352e-09<->7.19122e-09 (2.30718e-12)
1: 0.415054<->0.415054 (0)
Mapping error in Vegas for CDBG_T_16_123_SC23
0: 9.22018e-09<->9.22352e-09 (3.33897e-12)
1: 0.201896<->0.201896 (2.77556e-17)
Mapping error in Vegas for CDBG_T_16_123_SC23
0: 9.48145e-09<->9.4852e-09 (3.74988e-12)
1: 0.30024<->0.30024 (5.55112e-17)
Mapping error in Vegas for CDBG_T_16_123_SC23
0: 2.82464e-09<->2.82755e-09 (2.90558e-12)
1: 0.825632<->0.825632 (0)
Mapping error in Vegas for CDBG_T_16_123_SC23
0: 7.51044e-09<->7.50728e-09 (3.15897e-12)
1: 0.975344<->0.975344 (1.11022e-16)
Mapping error in Vegas for CDBG_T_16_123_SC23
0: 9.85125e-09<->9.85564e-09 (4.3889e-12)
1: 0.672056<->0.672056 (0)
Mapping error in Vegas for CDBG_T_16_123_SC23
0: 3.78686e-09<->3.78592e-09 (9.31736e-13)
1: 0.36705<->0.36705 (0)
Mapping error in Vegas for CDBG_T_16_123_SC23
0: 3.11433e-09<->3.11302e-09 (1.30838e-12)
1: 0.51869<->0.51869 (0)
Mapping error in Vegas for CDBG_T_16_123_SC23
0: 1.09627e-08<->1.09601e-08 (2.59632e-12)
1: 0.0306739<->0.0306739 (6.93889e-18)
Mapping error in Vegas for CDBG_T_16_123_SC23
0: 1.09427e-08<->1.09398e-08 (2.94309e-12)
1: 0.23286<->0.23286 (2.77556e-17)
Mapping error in Vegas for CDBG_T_16_123_SC23
0: 3.41817e-09<->3.41889e-09 (7.16151e-13)
1: 0.356634<->0.356634 (5.55112e-17)
Mapping error in Vegas for CDBG_T_16_123_SC23
0: 1.56549e-08<->1.56501e-08 (4.78484e-12)
1: 0.989077<->0.989077 (1.11022e-16)
Mapping error in Vegas for CDBG_T_16_123_SC23
0: 1.25678e-08<->1.25642e-08 (3.56219e-12)
1: 0.71009<->0.71009 (0)
Mapping error in Vegas for CDBG_T_16_123_SC23
0: 2.46092e-09<->2.46391e-09 (2.98936e-12)
1: 0.986984<->0.986984 (0)
Mapping error in Vegas for CDBG_T_16_123_SC23
0: 1.09563e-08<->1.09601e-08 (3.87923e-12)
1: 0.229437<->0.229437 (1.38778e-16)
Mapping error in Vegas for CDBG_T_16_123_SC23
0: 1.35571e-08<->1.35532e-08 (3.9113e-12)
1: 0.723007<->0.723007 (0)
Mapping error in Vegas for CDBG_T_16_123_SC23
0: 4.57628e-10<->4.55398e-10 (2.22969e-12)
1: 0.590674<->0.590674 (0)
Mapping error in Vegas for CDBG_T_16_123_SC23
0: 8.40926e-09<->8.40448e-09 (4.7836e-12)
1: 0.730821<->0.730821 (2.76923e-12)
Mapping error in Vegas for CDBG_T_16_123_SC23
0: 1.97027e-09<->1.97113e-09 (8.53255e-13)
1: 0.337747<->0.337747 (0)
Mapping error in Vegas for CDBG_T_16_123_SC23
0: 5.21213e-09<->5.21669e-09 (4.5567e-12)
1: 0.39769<->0.39769 (5.55112e-17)
Mapping error in Vegas for CDBG_T_16_123_SC23
0: 2.10236e-09<->2.10367e-09 (1.30405e-12)
1: 0.910328<->0.910328 (0)
Mapping error in Vegas for CDBG_T_16_123_SC23
0: 1.76248e-09<->1.76722e-09 (4.73942e-12)
1: 0.31324<->0.31324 (5.55112e-17)
Mapping error in Vegas for CDBG_T_16_123_SC23
0: 7.36278e-09<->7.36114e-09 (1.64216e-12)
1: 0.355564<->0.355564 (0)
Mapping error in Vegas for CDBG_T_16_123_SC23
0: 4.31489e-09<->4.31609e-09 (1.19965e-12)
1: 0.944795<->0.944795 (0)
Mapping error in Vegas for CDBG_T_16_123_SC23
0: 8.6258e-09<->8.62198e-09 (3.8137e-12)
1: 0.655182<->0.655182 (0)
Mapping error in Vegas for CDBG_T_16_123_SC23
0: 1.62353e-09<->1.62448e-09 (9.50443e-13)
1: 0.401095<->0.401095 (0)
Mapping error in Vegas for CDBG_T_16_123_SC23
0: 8.98603e-09<->8.98222e-09 (3.80981e-12)
1: 0.036264<->0.036264 (0)
Mapping error in Vegas for CDBG_T_16_123_SC23
0: 3.45644e-09<->3.45287e-09 (3.56838e-12)
1: 0.234217<->0.234217 (8.32667e-17)
Mapping error in Vegas for CDBG_T_16_123_SC23
0: 1.8471e-09<->1.84878e-09 (1.67763e-12)
1: 0.353235<->0.353235 (5.55112e-17)
Mapping error in Vegas for CDBG_T_16_123_SC23
0: 2.7954e-09<->2.80036e-09 (4.96003e-12)
1: 0.75101<->0.75101 (1.88738e-15)
Mapping error in Vegas for CDBG_T_16_123_SC23
0: 5.95414e-09<->5.95077e-09 (3.37329e-12)
1: 0.282679<->0.282679 (5.55112e-17)
Mapping error in Vegas for CDBG_T_16_123_SC23
0: 1.4668e-09<->1.46815e-09 (1.34935e-12)
1: 0.536598<->0.536598 (0)
Mapping error in Vegas for CDBG_T_16_123_SC23
0: 8.14519e-10<->8.1224e-10 (2.27833e-12)
1: 0.866265<->0.866265 (0)
Mapping error in Vegas for CDBG_T_16_123_SC23
0: 1.38907e-08<->1.38863e-08 (4.44092e-12)
1: 0.981242<->0.981242 (1.11022e-16)
Mapping error in Vegas for CDBG_T_16_123_SC23
0: 2.10447e-08<->2.10401e-08 (4.63837e-12)
1: 0.99069<->0.99069 (1.11022e-16)
Mapping error in Vegas for CDBG_T_16_123_SC23
0: 4.51828e-09<->4.5166e-09 (1.68091e-12)
1: 0.825464<->0.825464 (1.11022e-16)
Mapping error in Vegas for CDBG_T_16_123_SC23
0: 1.99203e-08<->1.99254e-08 (5.07187e-12)
1: 0.667463<->0.667463 (0)
Mapping error in Vegas for CDBG_T_16_123_SC23
0: 2.77865e-09<->2.77657e-09 (2.07777e-12)
1: 0.303681<->0.303681 (0)
Mapping error in Vegas for CDBG_T_16_123_SC23
0: 6.93676e-10<->6.89895e-10 (3.78095e-12)
1: 0.0332568<->0.0332568 (6.93889e-18)
Mapping error in Vegas for CDBG_T_16_123_SC23
0: 1.32041e-09<->1.32541e-09 (5.0043e-12)
1: 0.976997<->0.976997 (0)
Mapping error in Vegas for CDBG_T_16_123_SC23
0: 2.34719e-08<->2.34768e-08 (4.93712e-12)
1: 0.748598<->0.748598 (1.44329e-15)
Mapping error in Vegas for CDBG_T_16_123_SC23
0: 1.1491e-09<->1.14869e-09 (4.11438e-13)
1: 0.548314<->0.548314 (0)
Mapping error in Vegas for CDBG_T_16_123_SC23
0: 1.21795e-08<->1.21836e-08 (4.12895e-12)
1: 0.209732<->0.209732 (8.32667e-17)
Mapping error in Vegas for CDBG_T_16_123_SC23
0: 4.40329e-09<->4.40105e-09 (2.24173e-12)
1: 0.214983<->0.214983 (0)
Mapping error in Vegas for CDBG_T_16_123_SC23
0: 1.03209e-08<->1.03246e-08 (3.68895e-12)
1: 0.755682<->0.755682 (1.11022e-16)
Mapping error in Vegas for CDBG_T_16_123_SC23
0: 5.6272e-09<->5.63131e-09 (4.10629e-12)
1: 0.966029<->0.966029 (0)
Mapping error in Vegas for CDBG_T_16_123_SC23
0: 1.40324e-09<->1.40358e-09 (3.37682e-13)
1: 0.974423<->0.974423 (1.11022e-16)
Mapping error in Vegas for CDBG_T_16_123_SC23
0: 1.18918e-08<->1.18947e-08 (2.9432e-12)
1: 0.271842<->0.271842 (5.55112e-17)
Mapping error in Vegas for CDBG_T_16_123_SC23
0: 4.73258e-09<->4.7341e-09 (1.52329e-12)
1: 0.236577<->0.236577 (1.94289e-16)
Mapping error in Vegas for CDBG_T_16_123_SC23
0: 7.82185e-09<->7.81994e-09 (1.90773e-12)
1: 0.842979<->0.842979 (1.11022e-16)
Mapping error in Vegas for CDBG_T_16_123_SC23
0: 5.54485e-09<->5.54634e-09 (1.49878e-12)
1: 0.299681<->0.299681 (0)
Mapping error in Vegas for CDBG_T_16_123_SC23
0: 1.5099e-08<->1.51029e-08 (3.88834e-12)
1: 0.086692<->0.086692 (1.38778e-17)
Mapping error in Vegas for CDBG_T_16_123_SC23
0: 2.00863e-11<->2.03909e-11 (3.04671e-13)
1: 0.745035<->0.745035 (1.11022e-16)
Mapping error in Vegas for CDBG_T_16_123_SC23
0: 2.15476e-08<->2.15431e-08 (4.51434e-12)
1: 0.541442<->0.541442 (0)
Mapping error in Vegas for CDBG_T_16_123_SC23
0: 2.09881e-08<->2.09925e-08 (4.39823e-12)
1: 0.984433<->0.984433 (1.11022e-16)
Mapping error in Vegas for CDBG_T_16_123_SC23
0: 6.04898e-10<->6.08331e-10 (3.43227e-12)
1: 0.547962<->0.547962 (0)
Mapping error in Vegas for CDBG_T_16_123_SC23
0: 3.12446e-09<->3.12322e-09 (1.24306e-12)
1: 0.86163<->0.86163 (1.11022e-16)
Mapping error in Vegas for CDBG_T_16_123_SC23
0: 2.31545e-09<->2.31438e-09 (1.07331e-12)
1: 0.537928<->0.537928 (3.35176e-11)
Mapping error in Vegas for CDBG_T_16_123_SC23
0: 1.12618e-08<->1.1266e-08 (4.17183e-12)
1: 0.261376<->0.261376 (2.22045e-16)
Mapping error in Vegas for CDBG_T_16_123_SC23
0: 6.67826e-09<->6.67464e-09 (3.61316e-12)
1: 0.976199<->0.976199 (0)
Mapping error in Vegas for CDBG_T_16_123_SC23
0: 1.28469e-08<->1.28429e-08 (3.9603e-12)
1: 0.0743342<->0.0743342 (1.38778e-17)
Mapping error in Vegas for CDBG_T_16_123_SC23
0: 2.01015e-09<->2.00851e-09 (1.63551e-12)
1: 0.976674<->0.976674 (1.11022e-16)
Mapping error in Vegas for CDBG_T_16_123_SC23
0: 1.15207e-08<->1.15243e-08 (3.57297e-12)
1: 0.259417<->0.259417 (0)
Mapping error in Vegas for CDBG_T_16_123_SC23
0: 9.82908e-09<->9.83185e-09 (2.76564e-12)
1: 0.788593<->0.788593 (1.11022e-16)
Mapping error in Vegas for CDBG_T_16_123_SC23
0: 1.23667e-08<->1.23705e-08 (3.80538e-12)
1: 0.71614<->0.71614 (0)
Mapping error in Vegas for CDBG_T_16_123_SC23
0: 1.55142e-08<->1.55107e-08 (3.45741e-12)
1: 0.267443<->0.267443 (5.55112e-17)
Mapping error in Vegas for CDBG_T_16_123_SC23
0: 3.60927e-09<->3.6058e-09 (3.46412e-12)
1: 0.247518<->0.247518 (5.27356e-16)
Mapping error in Vegas for CDBG_T_16_123_SC23
0: 8.69029e-10<->8.70015e-10 (9.85799e-13)
1: 0.300726<->0.300726 (5.55112e-17)
Mapping error in Vegas for CDBG_T_16_123_SC23
0: 1.31707e-09<->1.31862e-09 (1.54196e-12)
1: 0.977616<->0.977616 (0)
Mapping error in Vegas for CDBG_T_16_123_SC23
0: 6.68322e-09<->6.68484e-09 (1.6253e-12)
1: 0.642763<->0.642763 (0)
Mapping error in Vegas for CDBG_T_16_123_SC23
0: 3.61055e-09<->3.6058e-09 (4.74407e-12)
1: 0.822003<->0.822003 (0)
Mapping error in Vegas for CDBG_T_16_123_SC23
0: 4.11042e-09<->4.10878e-09 (1.63608e-12)
1: 0.732017<->0.732017 (2.22045e-16)
Mapping error in Vegas for CDBG_T_16_123_SC23
0: 1.37027e-08<->1.36993e-08 (3.31732e-12)
1: 0.986557<->0.986557 (0)
Mapping error in Vegas for CDBG_T_16_123_SC23
0: 2.51778e-08<->2.51828e-08 (5.0646e-12)
1: 0.588666<->0.588666 (0)
Mapping error in Vegas for CDBG_T_16_123_SC23
0: 7.56339e-09<->7.56505e-09 (1.66299e-12)
1: 0.98321<->0.98321 (1.11022e-16)
Mapping error in Vegas for CDBG_T_16_123_SC23
0: 2.86726e-10<->2.85474e-10 (1.25266e-12)
1: 0.989708<->0.989708 (0)
[34m40.2338 pb[0m +- ( [31m1.37968 pb = 3.42916 %[0m ) 159958 ( 682536 -> 40.6 % )
integration time:   ( 51s elapsed / 1m 59s left ) [14:43:08]
[1m2_3__P__j__b__bb__j[0m : [34m[1m40.2338 pb[0m +- ( [31m1.37968 pb = 3.42916 %[0m ) [1m exp. eff: [31m0.0099519 %[0m
  reduce max for 2_3__P__j__b__bb__j to 1 ( eps = 0.001 -> exp. eff 9.9519e-05 ) 
Return_Value::PrintStatistics(): Statistics {
  Generated events: 0
}
Blob_List: Momentum Fail Statistics {
}
Decay_Channel: Kinematics max fail statistics {
}
WARNING: You are using an unsupported development branch.
------------------------------------------------------------------------
[1mPlease cite the publications listed in '[31mReferences.tex[0m[1m'.[0m
  Extract the bibtex list by running 'get_bibtex References.tex'
  or email the file to 'slaclib2@slac.stanford.edu', subject 'generate'.
------------------------------------------------------------------------
WARNING: Some settings that have been defined in the input
files and/or the command line have not been used. For more
details, see the Settings Report.
Time: 4m 10s on Wed Jan 31 14:43:08 2024
 (User: 4m 8s, System: 0s, Children User: 0s, Children System: 0s)
Welcome to Sherpa, Vithyaban Narendran on pplxwn024.physics.ox.ac.uk. Initialization of framework underway.
The local time is Wed Jan 31 14:43:08 2024.
Run_Parameter::Init(): Setting memory limit to 1007.01 GB.
Random::SetSeed(): Seed set to 1234
-----------------------------------------------------------------------------
-----------    Event generation run with SHERPA started .......   -----------
-----------------------------------------------------------------------------
................................................ |       +                   
................................................ ||  |       +  +            
...................................        ....  | |         /   +           
................. ................   _,_ |  ....  ||         +|  +  +        
...............................  __.'  ,\|  ...  ||    /    +|          +    
.............................. (  \    \   ...  | |  |   + + \         +   
.............................  (    \   -/  .... ||       +    |          +  
........ ...................  <S   /()))))~~~~~~~~##     +     /\    +       
............................ (!H   (~~)))))~~~~~~#/     +  +    |  +         
................ ........... (!E   (~~~)))))     /|/    +         +          
............................ (!R   (~~~)))))   |||   + +            +        
..... ...................... (!P    (~~~~)))   /|  + +          +            
............................ (!A>    (~~~~~~~~~##        + +        +        
............................. ~~(!    '~~~~~~~ \       +     + +      +      
...............................  `~~~QQQQQDb //   |         + + +        +   
........................ ..........   IDDDDP||     \  + + + + +             +
....................................  IDDDI||       \                      + 
.................................... IHD HD||         \ + +  + + + + +      +
...................................  IHD ##|            :-) + +\          +  
......... ............... ......... IHI ## /      /   +  + + + +\       +    
................................... IHI/ /       /      + + + +        +     
................................... ## | | /    / + +      + + /      +      
....................... /TT\ .....  ##/ ///  / + + + + + + +/       +        
......................./TTT/T\ ... /TT\/\\\ / + + + + + + +/   \         +   
....................../TTT/TTTT\...|TT/T\\\/   +    ++  + /              
-----------------------------------------------------------------------------

     SHERPA version 3.0.0beta1 (Dhaulagiri)
                                                                             
     Authors:        Enrico Bothmann, Stefan Hoeche, Frank Krauss,           
                     Silvan Kuttimalai, Marek Schoenherr, Holger Schulz,     
                     Steffen Schumann, Frank Siegert, Korinna Zapp           
     Former Authors: Timo Fischer, Tanju Gleisberg, Hendrik Hoeth,           
                     Ralf Kuhn, Thomas Laubrich, Andreas Schaelicke,         
                     Jan Winter                                              
                                                                             
     This program uses a lot of genuine and original research work           
     by other people. Users are encouraged to refer to                       
     the various original publications.                                      
                                                                             
     Users are kindly asked to refer to the documentation                    
     published under JHEP 02(2009)007                                        
                                                                             
     Please visit also our homepage                                          
                                                                             
       http://sherpa.hepforge.org                                            
                                                                             
     for news, bugreports, updates and new releases.                         
                                                                             
-----------------------------------------------------------------------------
WARNING: You are using an unsupported development branch.
Git branch photon-pdf-fitting, revision cbce34ae4e06c58e8cfd6012e9ecf6e43a03c86e.
Hadron_Init::Init(): Initializing kf table for hadrons.
Beam_Spectra_Handler: type = Collider Setup
    for e+ (on = 1, p = (27.5,0,0,27.5))
    and P+ (on = 1, p = (820,0,0,-819.999)).
ISR handling:
    PDFs for hard scattering:              None + NNPDF31_nnlo_as_0118_proton
    PDFs for multiple parton interactions: None + PDF4LHC21_40_pdfas
Remnant_Handlers:
    hard process: P: Intact + P+: Hadron
Standard_Model::FixEWParameters() {
  Input scheme: Gmu
                Gmu scheme, input: GF, m_W, m_Z, m_h, widths
  Ren. scheme:  Gmu
                
  Parameters:   sin^2(\theta_W) = 0.222928 - 0.00110708 i
                vev             = 246.218
}
Running_AlphaQED::PrintSummary() {
  Setting \alpha according to EW scheme
  1/\alpha(0)   = 137.036
  1/\alpha(def) = 132.168
}
[1mOne_Running_AlphaS::One_Running_AlphaS(): [0m[31mOverriding \alpha_s information from PDF. Make sure you know what you are doing![0m
One_Running_AlphaS::PrintSummary() {
  Setting \alpha_s according to PDF
  perturbative order 1
  \alpha_s(M_Z) = 0.1188
}
[1mOne_Running_AlphaS::One_Running_AlphaS(): [0m[31mOverriding \alpha_s information from PDF. Make sure you know what you are doing![0m
One_Running_AlphaS::PrintSummary() {
  Setting \alpha_s according to PDF
  perturbative order 1
  \alpha_s(M_Z) = 0.1188
}
List of Particle Data 
     IDName     kfc            Mass           Width   Stable  Massive   Active          Yukawa
          d       1            0.01               0        1        0        1               0
          u       2           0.005               0        1        0        1               0
          s       3             0.2               0        1        0        1               0
          c       4            1.42               0        1        1        1            1.42
          b       5            4.92               0        1        1        1            4.92
          t       6          173.21             1.5        0        1        1          173.21
         e-      11        0.000511               0        1        0        1               0
         ve      12               0               0        1        0        1               0
        mu-      13           0.105               0        1        0        1               0
        vmu      14               0               0        1        0        1               0
       tau-      15           1.777     2.26735e-12        0        0        1               0
       vtau      16               0               0        1        0        1               0
          G      21               0               0        1        0        1               0
          P      22               0               0        1        0        1               0
          Z      23         91.1876          2.4952        0        1        1         91.1876
         W+      24          80.385           2.085        0        1        1          80.385
         h0      25             125         0.00407        0        1        1             125
     string      95               0               0        1        0        1               0
    cluster      96               0               0        1        0        1               0
  Instanton     999               0               0        0        0        1               0
List of Particle Containers 
     IDName     kfc     Constituents
          l      90     {e-,e+,mu-,mu+,tau-,tau+}
          v      91     {ve,veb,vmu,vmub,vtau,vtaub}
          f      92     {d,db,u,ub,s,sb,e-,e+,mu-,mu+,tau-,tau+,ve,veb,vmu,vmub,vtau,vtaub}
          j      93     {d,db,u,ub,s,sb,G}
          Q      94     {d,db,u,ub,s,sb}
        ewj      98     {d,db,u,ub,s,sb,G,P}
Shower_Handler initialised.

+-----------------------------------------+
|   X   X   X XXXX  XXX  XXX  XXX         |
|  X X  XX XX X    X      X  X     X   X  |
| X   X X X X XXX  X XXX  X  X    XXX XXX |
| XXXXX X   X X    X   X  X  X     X   X  |
| X   X X   X XXXX  XXX  XXX  XXX         |
+-----------------------------------------+
| please cite: JHEP 0202:044,2002         |
+-----------------------------------------+
Matrix_Element_Handler::Matrix_Element_Handler(): Set pilot run mode to 0.
ME_Generator_Base::SetPSMasses(): Massive PS flavours for Comix: (e-,e+,mu-,mu+,tau-,tau+)
+----------------------------------+
|                                  |
|      [31mCCC[0m  [32mOOO[0m  [34mM[0m   [34mM[0m I [33mX[0m   [33mX[0m     |
|     [31mC[0m    [32mO[0m   [32mO[0m [34mMM[0m [34mMM[0m I  [33mX[0m [33mX[0m      |
|     [31mC[0m    [32mO[0m   [32mO[0m [34mM[0m [34mM[0m [34mM[0m I   [33mX[0m       |
|     [31mC[0m    [32mO[0m   [32mO[0m [34mM[0m   [34mM[0m I  [33mX[0m [33mX[0m      |
|      [31mCCC[0m  [32mOOO[0m  [34mM[0m   [34mM[0m I [33mX[0m   [33mX[0m     |
|                                  |
+==================================+
|  Color dressed  Matrix Elements  |
|     http://comix.freacafe.de     |
|   please cite  JHEP12(2008)039   |
+----------------------------------+
ME_Generator_Base::SetPSMasses(): Massive PS flavours for Amegic: (e-,e+,mu-,mu+,tau-,tau+)
Matrix_Element_Handler::BuildProcesses(): 2 ME generators, 1 process blocks.
Matrix_Element_Handler::BuildProcesses(): Setting up processes ........................................ done ( 59 MB, 0s / 0s ).
Matrix_Element_Handler::InitializeProcesses(): Performing tests ........................................ done ( 60 MB, 0s / 0s ).
Matrix_Element_Handler::InitializeProcesses(): Initializing scales done ( 60 MB, 0s / 0s ).
Initialized the Matrix_Element_Handler for the hard processes.
Initialized the Beam_Remnant_Handler.
MI_Handler::MI_Handler(id = 2, name = None, type = 0)
Underlying event/multiple interactions handler:
    MI[2]: on = 0 (type = 0, None)
Soft-collision handlers:
Hadron_Init::Init(): Initializing kf table for hadrons.
Initialized the Fragmentation_Handler.
Initialized the Hadron_Decay_Handler, Decay model = HADRONS++
Initialized the Soft_Photon_Handler.
WARNING in Variations::CheckConsistencyWithBeamSpectra: 
   The internal reweighting is only tested
   for hadronic beams of (anti-)protons.
   Will continue and hope for the best.
Initialized the Reweighting.
Beam_Channels::CheckForStructuresFromME for 0: (none)
ISR_Channels::CheckForStructuresFromME for 0: (none)
Read in channels from directory: Results/Comix/MC_2_2__P__j__j__j
Process_Group::CalculateTotalXSec(): Calculate xs for '2_2__P__j__j__j' (Comix)
[1m2_2__P__j__j__j[0m : [34m[1m41951.3 pb[0m +- ( [31m94.1766 pb = 0.22449 %[0m ) [1m exp. eff: [31m2.81948 %[0m
  reduce max for 2_2__P__j__j__j to 1 ( eps = 0.001 -> exp. eff 0.0281948 ) 
Read in channels from directory: Results/Comix/MC_2_2__P__j__c__cb
Process_Group::CalculateTotalXSec(): Calculate xs for '2_2__P__j__c__cb' (Comix)
[1m2_2__P__j__c__cb[0m : [34m[1m16392.2 pb[0m +- ( [31m42.6643 pb = 0.260271 %[0m ) [1m exp. eff: [31m1.51394 %[0m
  reduce max for 2_2__P__j__c__cb to 1 ( eps = 0.001 -> exp. eff 0.0151394 ) 
Read in channels from directory: Results/Comix/MC_2_2__P__j__b__bb
Process_Group::CalculateTotalXSec(): Calculate xs for '2_2__P__j__b__bb' (Comix)
[1m2_2__P__j__b__bb[0m : [34m[1m1419.73 pb[0m +- ( [31m3.17604 pb = 0.223708 %[0m ) [1m exp. eff: [31m8.90072 %[0m
  reduce max for 2_2__P__j__b__bb to 1 ( eps = 0.001 -> exp. eff 0.0890072 ) 
Beam_Channels::CheckForStructuresFromME for 0: (none)
ISR_Channels::CheckForStructuresFromME for 0: (none)
Read in channels from directory: Results/Comix/MC_2_3__P__j__j__j__j
Process_Group::CalculateTotalXSec(): Calculate xs for '2_3__P__j__j__j__j' (Comix)
[1m2_3__P__j__j__j__j[0m : [34m[1m361.799 pb[0m +- ( [31m17.8984 pb = 4.94705 %[0m ) [1m exp. eff: [31m0.0102649 %[0m
  reduce max for 2_3__P__j__j__j__j to 1 ( eps = 0.001 -> exp. eff 0.000102649 ) 
Read in channels from directory: Results/Comix/MC_2_3__P__j__c__cb__j
Process_Group::CalculateTotalXSec(): Calculate xs for '2_3__P__j__c__cb__j' (Comix)
[1m2_3__P__j__c__cb__j[0m : [34m[1m84.8023 pb[0m +- ( [31m5.34458 pb = 6.30241 %[0m ) [1m exp. eff: [31m0.00588289 %[0m
  reduce max for 2_3__P__j__c__cb__j to 1 ( eps = 0.001 -> exp. eff 5.88289e-05 ) 
Read in channels from directory: Results/Comix/MC_2_3__P__j__b__bb__j
Process_Group::CalculateTotalXSec(): Calculate xs for '2_3__P__j__b__bb__j' (Comix)
[1m2_3__P__j__b__bb__j[0m : [34m[1m40.2338 pb[0m +- ( [31m1.37968 pb = 3.42916 %[0m ) [1m exp. eff: [31m0.0099519 %[0m
  reduce max for 2_3__P__j__b__bb__j to 1 ( eps = 0.001 -> exp. eff 9.9519e-05 ) 
----------------------------------------------------------
-- SHERPA generates events with the following structure --
----------------------------------------------------------
Event generation   : Weighted
Perturbative       : Signal_Processes
Perturbative       : Minimum_Bias: None
Perturbative       : Hard_Decays
Perturbative       : Jet_Evolution:CSS
Perturbative       : Lepton_FS_QED_Corrections:Photons
Perturbative       : Multiple_Interactions: None
Hadronization      : Beam_Remnants:Parametrised
Hadronization      : Hadronization:Ahadic
Hadronization      : Hadron_Decays
Userhook           : 
Analysis           : Rivet
---------------------------------------------------------
Rivet.AnalysisHandler: INFO  Using named weights
  Event 1 ( 1s elapsed / 10d 1h 39m 58s left ) -> ETA: Sat Feb 10 16:23  
  XS = 115.624 pb +- ( 115.624 pb = 100 % )  [1A  Event 2 ( 1s elapsed / 5d 49m 58s left ) -> ETA: Mon Feb 05 15:33  
  XS = 34210.6 pb +- ( 34164.4 pb = 99 % )  [1A  Event 3 ( 1s elapsed / 3d 9h 1m 4s left ) -> ETA: Sat Feb 03 23:44  
  XS = 34976.8 pb +- ( 28884.4 pb = 82 % )  [1A  Event 4 ( 1s elapsed / 2d 12h 45m 48s left ) -> ETA: Sat Feb 03 03:28  
  XS = 34070.1 pb +- ( 25031 pb = 73 % )  [1A  Event 5 ( 1s elapsed / 2d 36m 38s left ) -> ETA: Fri Feb 02 15:19  
  XS = 100819 pb +- ( 73324.4 pb = 72 % )  [1A  Event 6 ( 1s elapsed / 1d 16h 30m 31s left ) -> ETA: Fri Feb 02 07:13  
  XS = 96930.3 pb +- ( 58113.5 pb = 59 % )  [1A  Event 7 ( 1s elapsed / 1d 10h 55m 12s left ) -> ETA: Fri Feb 02 01:38  
  XS = 95007.8 pb +- ( 50747.6 pb = 53 % )  [1A  Event 8 ( 1s elapsed / 1d 6h 33m 18s left ) -> ETA: Thu Feb 01 21:16  
  XS = 83786.3 pb +- ( 45247.4 pb = 54 % )  [1A  Event 9 ( 1s elapsed / 1d 3h 18m 51s left ) -> ETA: Thu Feb 01 18:02  
  XS = 83758.8 pb +- ( 42659.6 pb = 50 % )  [1A  Event 10 ( 1s elapsed / 1d 34m 58s left ) -> ETA: Thu Feb 01 15:18  
  XS = 69540.5 pb +- ( 35347.9 pb = 50 % )  [1A  Event 20 ( 1s elapsed / 12h 34m 8s left ) -> ETA: Thu Feb 01 03:17  
  XS = 66848.6 pb +- ( 22182 pb = 33 % )  [1A  Event 30 ( 1s elapsed / 8h 31m 4s left ) -> ETA: Wed Jan 31 23:14  
  XS = 58174.6 pb +- ( 14716.2 pb = 25 % )  [1A  Event 40 ( 1s elapsed / 6h 31m 38s left ) -> ETA: Wed Jan 31 21:14  
  XS = 59455.1 pb +- ( 12244.5 pb = 20 % )  [1A  Event 50 ( 2s elapsed / 5h 33m 18s left ) -> ETA: Wed Jan 31 20:16  
  XS = 60423.9 pb +- ( 10763.8 pb = 17 % )  [1A  Event 60 ( 2s elapsed / 4h 48m 51s left ) -> ETA: Wed Jan 31 19:32  
  XS = 59161 pb +- ( 9318.79 pb = 15 % )  [1A  Event 70 ( 2s elapsed / 4h 11m 9s left ) -> ETA: Wed Jan 31 18:54  
  XS = 58807.7 pb +- ( 8494.19 pb = 14 % )  [1A  Event 80 ( 2s elapsed / 3h 41m 50s left ) -> ETA: Wed Jan 31 18:25  
  XS = 57733.1 pb +- ( 8105.17 pb = 14 % )  [1A  Event 90 ( 2s elapsed / 3h 19m 57s left ) -> ETA: Wed Jan 31 18:03  
  XS = 58868.8 pb +- ( 7712.96 pb = 13 % )  [1A  Event 100 ( 2s elapsed / 3h 2m 27s left ) -> ETA: Wed Jan 31 17:45  
  XS = 62829.3 pb +- ( 7462.28 pb = 11 % )  [1A  Event 200 ( 2s elapsed / 1h 47m 27s left ) -> ETA: Wed Jan 31 16:30  
  XS = 64519.9 pb +- ( 5287.45 pb = 8 % )  [1A  Event 300 ( 3s elapsed / 1h 34m 39s left ) -> ETA: Wed Jan 31 16:17  
  XS = 64708.8 pb +- ( 4361.36 pb = 6 % )  [1A  Event 400 ( 4s elapsed / 1h 29m 5s left ) -> ETA: Wed Jan 31 16:12  
  XS = 65582.8 pb +- ( 3739.53 pb = 5 % )  [1A  Event 500 ( 4s elapsed / 1h 20m 35s left ) -> ETA: Wed Jan 31 16:03  
  XS = 64900.6 pb +- ( 3253.61 pb = 5 % )  [1A  Event 600 ( 5s elapsed / 1h 11m 1s left ) -> ETA: Wed Jan 31 15:54  
  XS = 64225 pb +- ( 3020.58 pb = 4 % )  [1A  Event 700 ( 5s elapsed / 1h 5m 15s left ) -> ETA: Wed Jan 31 15:48  
  XS = 65627.5 pb +- ( 3039.26 pb = 4 % )  [1A  Event 800 ( 5s elapsed / 1h 19s left ) -> ETA: Wed Jan 31 15:43  
  XS = 65191.5 pb +- ( 2766.37 pb = 4 % )  [1A  Event 900 ( 6s elapsed / 58m 8s left ) -> ETA: Wed Jan 31 15:41  
  XS = 64049 pb +- ( 2533.27 pb = 3 % )  [1A  Event 1000 ( 6s elapsed / 55m 23s left ) -> ETA: Wed Jan 31 15:38  
  XS = 63162.5 pb +- ( 2348.47 pb = 3 % )  [1A  Event 2000 ( 9s elapsed / 41m 2s left ) -> ETA: Wed Jan 31 15:24  
  XS = 60232.1 pb +- ( 1538.71 pb = 2 % )  [1A  Event 3000 ( 13s elapsed / 37m 24s left ) -> ETA: Wed Jan 31 15:20  
  XS = 60520.5 pb +- ( 1248.17 pb = 2 % )  [1A  Event 4000 ( 16s elapsed / 35m 6s left ) -> ETA: Wed Jan 31 15:18  
  XS = 60077.9 pb +- ( 1077.74 pb = 1 % )  [1A  Event 5000 ( 21s elapsed / 34m 48s left ) -> ETA: Wed Jan 31 15:18  
  XS = 60269.4 pb +- ( 957.549 pb = 1 % )  [1A  Event 6000 ( 25s elapsed / 34m 38s left ) -> ETA: Wed Jan 31 15:18  
  XS = 60539.8 pb +- ( 877.66 pb = 1 % )  [1A  Event 7000 ( 29s elapsed / 35m 5s left ) -> ETA: Wed Jan 31 15:18  
  XS = 60247.8 pb +- ( 801.584 pb = 1 % )  [1A  Event 8000 ( 39s elapsed / 40m 48s left ) -> ETA: Wed Jan 31 15:24  
  XS = 59923.8 pb +- ( 746.31 pb = 1 % )  [1A  Event 9000 ( 43s elapsed / 39m 35s left ) -> ETA: Wed Jan 31 15:23  
  XS = 59649.5 pb +- ( 705.141 pb = 1 % )  [1A  Event 10000 ( 46s elapsed / 38m 19s left ) -> ETA: Wed Jan 31 15:22  
  XS = 59558.6 pb +- ( 667.117 pb = 1 % )  [1A  Event 20000 ( 1m 50s elapsed / 44m 15s left ) -> ETA: Wed Jan 31 15:29  
  XS = 59730.4 pb +- ( 489.017 pb = 0 % )  [1A  Event 30000 ( 2m 43s elapsed / 42m 46s left ) -> ETA: Wed Jan 31 15:28  
  XS = 59610.7 pb +- ( 397.135 pb = 0 % )  [1A  Event 40000 ( 3m 39s elapsed / 42m 2s left ) -> ETA: Wed Jan 31 15:28  
  XS = 59674.7 pb +- ( 342.952 pb = 0 % )  [1A  Event 50000 ( 4m 22s elapsed / 39m 21s left ) -> ETA: Wed Jan 31 15:26  
  XS = 59796.7 pb +- ( 306.519 pb = 0 % )  [1A  Event 60000 ( 5m 6s elapsed / 37m 29s left ) -> ETA: Wed Jan 31 15:25  
  XS = 59786.8 pb +- ( 279.112 pb = 0 % )  [1A  Event 70000 ( 6m 14s elapsed / 38m 23s left ) -> ETA: Wed Jan 31 15:27  
  XS = 60047.9 pb +- ( 259.868 pb = 0 % )  [1A  Event 80000 ( 7m elapsed / 36m 48s left ) -> ETA: Wed Jan 31 15:26  
  XS = 60207.6 pb +- ( 244.639 pb = 0 % )  [1A  Event 90000 ( 7m 35s elapsed / 34m 36s left ) -> ETA: Wed Jan 31 15:25  
  XS = 60326.2 pb +- ( 231.404 pb = 0 % )  [1A  Event 100000 ( 8m 16s elapsed / 33m 5s left ) -> ETA: Wed Jan 31 15:24  
  XS = 60339.3 pb +- ( 219.312 pb = 0 % )  [1A  Event 200000 ( 15m 53s elapsed / 23m 50s left ) -> ETA: Wed Jan 31 15:22  
  XS = 60235.2 pb +- ( 153.771 pb = 0 % )  [1A  Event 300000 ( 23m 25s elapsed / 15m 36s left ) -> ETA: Wed Jan 31 15:22  
  XS = 60426.4 pb +- ( 126.517 pb = 0 % )  [1A  Event 400000 ( 30m 30s elapsed / 7m 37s left ) -> ETA: Wed Jan 31 15:21  
  XS = 60494 pb +- ( 109.766 pb = 0 % )  [1ACharge conservation failed for Fragmentation              : -1.
Will ignore event.
  Event 500001 ( 2320 s total ) = 1.86199e+07 evts/day                    
In Event_Handler::Finish : Summarizing the run may take some time.
[31mRivet_Interface::Finish([32mZEUS1997_direct_TestPDF_9[31m)[0m[31m{[0m
[31m}[0m
--------------------------------------------------------------------------
Nominal or variation name     XS [pb]      RelDev  AbsErr [pb]      RelErr
--------------------------------------------------------------------------
[1mNominal                  [0m[34m[1m     60493.8[0m[33m         0 %[31m      99.3198      0.16 %[0m
--------------------------------------------------------------------------
Return_Value::PrintStatistics(): Statistics {
  Generated events: 500001
  New events {
    From "Jet_Evolution:CSS": 3814 (538382) -> 0.7 %
    From "Signal_Processes": 13 (503828) -> 0 %
  }
  Retried phases {
    From "Hadron_Decay_Handler::RejectExclusiveChannelsFromFragmentation": 12479 (0) -> 12479.
  }
  Retried methods {
    From "Decay_Channel::GenerateKinematics": 2776 (12276990) -> 0 %
  }
}
Blob_List: Momentum Fail Statistics {
}
Decay_Channel: Kinematics max fail statistics {
  B --> D*(2007) Db K+ pi+b  maximal fail by 1.83475.
  B --> D*(2007)b D+ K pi+b  maximal fail by 1.48448.
  B --> D*(2010)+ D*(2010)+b K pi  maximal fail by 2.56291.
  B+ --> D Db K+ pi  maximal fail by 1.76507.
  B+ --> D*(2007) D+b K+ pi+  maximal fail by 2.20347.
  B+ --> D*(2007)b D*(2010)+ K pi  maximal fail by 5.26379.
  B+ --> Db vmu mu+  maximal fail by 1.30211.
}
WARNING: You are using an unsupported development branch.
------------------------------------------------------------------------
[1mPlease cite the publications listed in '[31mReferences.tex[0m[1m'.[0m
  Extract the bibtex list by running 'get_bibtex References.tex'
  or email the file to 'slaclib2@slac.stanford.edu', subject 'generate'.
------------------------------------------------------------------------
Gluon_Splitter::~Gluon_Splitter with 10950 kinematic fails.

The MCnet usage guidelines apply to Rivet: see http://www.montecarlonet.org/GUIDELINES
Please acknowledge Rivet in results made using it, and cite https://arxiv.org/abs/1912.05451
Time: 38m 43s on Wed Jan 31 15:21:51 2024
 (User: 38m 26s, System: 0s, Children User: 0s, Children System: 0s)
