# BEGIN PLOT
Legend=1
LogY=1
XLabel=$\bar{\eta}=(\eta_1+\eta_2)/2$
YLabel=$\mathrm{d}\sigma_{\mathrm{dijet}}/\mathrm{d}\bar{\eta}$[pb]
CustomLegend=$0.5<y<0.9$
Title=$35<\mathrm{E}_{\mathrm{T,max}}<80 \mathrm{GeV}$
DrawOnly=/H1_2002_I581409/d05-x01-y02 //home/narendran/Documents/CEDAR_stuff2/sherpa-runs-photon-pdfs/H1_analysis_tests/full_finalR2.yoda.gz/H1_2002_I581409/d05-x01-y02
LegendOnly=/H1_2002_I581409/d05-x01-y02 //home/narendran/Documents/CEDAR_stuff2/sherpa-runs-photon-pdfs/H1_analysis_tests/full_finalR2.yoda.gz/H1_2002_I581409/d05-x01-y02
RatioPlot=1
RatioPlotReference=/H1_2002_I581409/d05-x01-y02
# END PLOT

# BEGIN HISTO1D /H1_2002_I581409/d05-x01-y02
ConnectBins=0
ErrorBars=1
IsRef=1
Path=/H1_2002_I581409/d05-x01-y02
PolyMarker=*
Title=Data
# xlow	 xhigh	 val	 errminus	 errplus
6.000000e-01	9.000000e-01	9.770000e+00	2.229686e+00	2.187921e+00
9.000000e-01	1.300000e+00	1.414000e+01	2.156502e+00	2.315534e+00
1.300000e+00	1.700000e+00	9.120000e+00	1.593675e+00	1.641798e+00
1.700000e+00	2.100000e+00	2.590000e+00	7.103520e-01	7.103520e-01
# END HISTO1D


# BEGIN HISTO1D //home/narendran/Documents/CEDAR_stuff2/sherpa-runs-photon-pdfs/H1_analysis_tests/full_finalR2.yoda.gz/H1_2002_I581409/d05-x01-y02[EXTRA__WeightNormalisation]
LineColor=red!30
LineStyle=solid
Path=//home/narendran/Documents/CEDAR_stuff2/sherpa-runs-photon-pdfs/H1_analysis_tests/full_finalR2.yoda.gz/H1_2002_I581409/d05-x01-y02[EXTRA__WeightNormalisation]
ScaledBy=3.54337602857453078e-05
Title=full_finalR2
# xlow	 xhigh	 val	 errminus	 errplus
6.000000e-01	9.000000e-01	9.735663e+01	1.622812e+01	1.622812e+01
9.000000e-01	1.300000e+00	2.803812e+02	2.378565e+01	2.378565e+01
1.300000e+00	1.700000e+00	4.617390e+02	3.045175e+01	3.045175e+01
1.700000e+00	2.100000e+00	3.319900e+02	2.577203e+01	2.577203e+01
# END HISTO1D


# BEGIN HISTO1D //home/narendran/Documents/CEDAR_stuff2/sherpa-runs-photon-pdfs/H1_analysis_tests/full_finalR2.yoda.gz/H1_2002_I581409/d05-x01-y02[EXTRA__NTrials]
LineColor=red!30
LineStyle=solid
Path=//home/narendran/Documents/CEDAR_stuff2/sherpa-runs-photon-pdfs/H1_analysis_tests/full_finalR2.yoda.gz/H1_2002_I581409/d05-x01-y02[EXTRA__NTrials]
ScaledBy=3.53969770981558149e-05
Title=full_finalR2
# xlow	 xhigh	 val	 errminus	 errplus
6.000000e-01	9.000000e-01	1.261467e-02	2.768317e-03	2.768317e-03
9.000000e-01	1.300000e+00	3.886735e-02	4.255892e-03	4.255892e-03
1.300000e+00	1.700000e+00	5.487548e-02	4.753186e-03	4.753186e-03
1.700000e+00	2.100000e+00	3.921070e-02	3.800817e-03	3.800817e-03
# END HISTO1D


# BEGIN HISTO1D //home/narendran/Documents/CEDAR_stuff2/sherpa-runs-photon-pdfs/H1_analysis_tests/full_finalR2.yoda.gz/H1_2002_I581409/d05-x01-y02[EXTRA__MEWeight]
LineColor=red!30
LineStyle=solid
Path=//home/narendran/Documents/CEDAR_stuff2/sherpa-runs-photon-pdfs/H1_analysis_tests/full_finalR2.yoda.gz/H1_2002_I581409/d05-x01-y02[EXTRA__MEWeight]
ScaledBy=3.74229860719813061e-05
Title=full_finalR2
# xlow	 xhigh	 val	 errminus	 errplus
6.000000e-01	9.000000e-01	3.481973e+03	2.338930e+03	2.338930e+03
9.000000e-01	1.300000e+00	2.910523e+02	1.170237e+02	1.170237e+02
1.300000e+00	1.700000e+00	2.496128e+03	2.112263e+03	2.112263e+03
1.700000e+00	2.100000e+00	3.240800e+04	3.084249e+04	3.084249e+04
# END HISTO1D


# BEGIN HISTO1D //home/narendran/Documents/CEDAR_stuff2/sherpa-runs-photon-pdfs/H1_analysis_tests/full_finalR2.yoda.gz/H1_2002_I581409/d05-x01-y02
LineColor=red
LineStyle=solid
Path=//home/narendran/Documents/CEDAR_stuff2/sherpa-runs-photon-pdfs/H1_analysis_tests/full_finalR2.yoda.gz/H1_2002_I581409/d05-x01-y02
ScaledBy=3.41139565873021307e-05
Title=full_finalR2
# xlow	 xhigh	 val	 errminus	 errplus
6.000000e-01	9.000000e-01	2.730269e+01	1.335655e+01	1.335655e+01
9.000000e-01	1.300000e+00	4.454030e+01	1.286661e+01	1.286661e+01
1.300000e+00	1.700000e+00	6.397343e+01	1.266349e+01	1.266349e+01
1.700000e+00	2.100000e+00	2.261457e+01	6.137860e+00	6.137860e+00
# END HISTO1D

