# BEGIN PLOT
Legend=1
LogY=1
XLabel=$\mathrm{x}_\gamma$
YLabel=$\mathrm{d}\sigma_{\mathrm{dijet}}/\mathrm{dx}_\gamma$[pb]
CustomLegend=$35<\mathrm{E}_{\mathrm{T,max}}<80 \mathrm{GeV}$
DrawOnly=/H1_2002_I581409/d08-x01-y02 //home/narendran/Documents/CEDAR_stuff2/sherpa-runs-photon-pdfs/H1_analysis_tests/full_finalR2.yoda.gz/H1_2002_I581409/d08-x01-y02
LegendOnly=/H1_2002_I581409/d08-x01-y02 //home/narendran/Documents/CEDAR_stuff2/sherpa-runs-photon-pdfs/H1_analysis_tests/full_finalR2.yoda.gz/H1_2002_I581409/d08-x01-y02
RatioPlot=1
RatioPlotReference=/H1_2002_I581409/d08-x01-y02
# END PLOT

# BEGIN HISTO1D /H1_2002_I581409/d08-x01-y02
ConnectBins=0
ErrorBars=1
IsRef=1
Path=/H1_2002_I581409/d08-x01-y02
PolyMarker=*
Title=Data
# xlow	 xhigh	 val	 errminus	 errplus
1.000000e-01	3.000000e-01	2.340000e+00	7.500667e-01	8.760137e-01
3.000000e-01	5.000000e-01	9.830000e+00	2.023018e+00	1.886637e+00
5.000000e-01	7.000000e-01	1.970000e+01	3.672874e+00	3.424909e+00
7.000000e-01	8.500000e-01	2.870000e+01	5.449771e+00	5.337602e+00
8.500000e-01	1.000000e+00	7.810000e+01	1.126233e+01	1.279219e+01
# END HISTO1D


# BEGIN HISTO1D //home/narendran/Documents/CEDAR_stuff2/sherpa-runs-photon-pdfs/H1_analysis_tests/full_finalR2.yoda.gz/H1_2002_I581409/d08-x01-y02[EXTRA__WeightNormalisation]
LineColor=red!30
LineStyle=solid
Path=//home/narendran/Documents/CEDAR_stuff2/sherpa-runs-photon-pdfs/H1_analysis_tests/full_finalR2.yoda.gz/H1_2002_I581409/d08-x01-y02[EXTRA__WeightNormalisation]
ScaledBy=3.54337602857453078e-05
Title=full_finalR2
# xlow	 xhigh	 val	 errminus	 errplus
1.000000e-01	3.000000e-01	3.072919e+02	3.502508e+01	3.502508e+01
3.000000e-01	5.000000e-01	1.170858e+03	6.864924e+01	6.864924e+01
5.000000e-01	7.000000e-01	1.007383e+03	6.359713e+01	6.359713e+01
7.000000e-01	8.500000e-01	5.162264e+02	5.269611e+01	5.269611e+01
8.500000e-01	1.000000e+00	1.900796e+02	3.213164e+01	3.213164e+01
# END HISTO1D


# BEGIN HISTO1D //home/narendran/Documents/CEDAR_stuff2/sherpa-runs-photon-pdfs/H1_analysis_tests/full_finalR2.yoda.gz/H1_2002_I581409/d08-x01-y02[EXTRA__NTrials]
LineColor=red!30
LineStyle=solid
Path=//home/narendran/Documents/CEDAR_stuff2/sherpa-runs-photon-pdfs/H1_analysis_tests/full_finalR2.yoda.gz/H1_2002_I581409/d08-x01-y02[EXTRA__NTrials]
ScaledBy=3.53969770981558149e-05
Title=full_finalR2
# xlow	 xhigh	 val	 errminus	 errplus
1.000000e-01	3.000000e-01	3.620462e-02	5.072041e-03	5.072041e-03
3.000000e-01	5.000000e-01	1.494367e-01	1.128305e-02	1.128305e-02
5.000000e-01	7.000000e-01	1.249152e-01	1.058727e-02	1.058727e-02
7.000000e-01	8.500000e-01	7.438747e-02	9.867207e-03	9.867207e-03
8.500000e-01	1.000000e+00	2.451337e-02	5.200043e-03	5.200043e-03
# END HISTO1D


# BEGIN HISTO1D //home/narendran/Documents/CEDAR_stuff2/sherpa-runs-photon-pdfs/H1_analysis_tests/full_finalR2.yoda.gz/H1_2002_I581409/d08-x01-y02[EXTRA__MEWeight]
LineColor=red!30
LineStyle=solid
Path=//home/narendran/Documents/CEDAR_stuff2/sherpa-runs-photon-pdfs/H1_analysis_tests/full_finalR2.yoda.gz/H1_2002_I581409/d08-x01-y02[EXTRA__MEWeight]
ScaledBy=3.74229860719813061e-05
Title=full_finalR2
# xlow	 xhigh	 val	 errminus	 errplus
1.000000e-01	3.000000e-01	2.288326e+03	2.150173e+03	2.150173e+03
3.000000e-01	5.000000e-01	6.867265e+04	6.187827e+04	6.187827e+04
5.000000e-01	7.000000e-01	5.904635e+03	4.287685e+03	4.287685e+03
7.000000e-01	8.500000e-01	2.552208e+04	2.103499e+04	2.103499e+04
8.500000e-01	1.000000e+00	1.872640e+03	1.488004e+03	1.488004e+03
# END HISTO1D


# BEGIN HISTO1D //home/narendran/Documents/CEDAR_stuff2/sherpa-runs-photon-pdfs/H1_analysis_tests/full_finalR2.yoda.gz/H1_2002_I581409/d08-x01-y02
LineColor=red
LineStyle=solid
Path=//home/narendran/Documents/CEDAR_stuff2/sherpa-runs-photon-pdfs/H1_analysis_tests/full_finalR2.yoda.gz/H1_2002_I581409/d08-x01-y02
ScaledBy=3.41139565873021307e-05
Title=full_finalR2
# xlow	 xhigh	 val	 errminus	 errplus
1.000000e-01	3.000000e-01	3.218713e+01	1.117607e+01	1.117607e+01
3.000000e-01	5.000000e-01	1.359191e+02	2.547266e+01	2.547266e+01
5.000000e-01	7.000000e-01	1.192684e+02	3.131124e+01	3.131124e+01
7.000000e-01	8.500000e-01	6.427436e+01	1.941437e+01	1.941437e+01
8.500000e-01	1.000000e+00	3.932199e+01	1.477652e+01	1.477652e+01
# END HISTO1D

