# BEGIN PLOT
Legend=1
LogY=1
XLabel=$\mathrm{cos}\Theta *$
YLabel=$\mathrm{d}\sigma_{\mathrm{dijet}}/\mathrm{dcos}\Theta *$[pb]
CustomLegend=$\mathrm{x}_\gamma<0.8$, $\mathrm{M}_{\mathrm{jj}}>65\mathrm{GeV}$
DrawOnly=/H1_2002_I581409/d10-x01-y01 //home/narendran/Documents/CEDAR_stuff2/sherpa-runs-photon-pdfs/H1_analysis_tests/full_finalR2.yoda.gz/H1_2002_I581409/d10-x01-y01
LegendOnly=/H1_2002_I581409/d10-x01-y01 //home/narendran/Documents/CEDAR_stuff2/sherpa-runs-photon-pdfs/H1_analysis_tests/full_finalR2.yoda.gz/H1_2002_I581409/d10-x01-y01
RatioPlot=1
RatioPlotReference=/H1_2002_I581409/d10-x01-y01
# END PLOT

# BEGIN HISTO1D /H1_2002_I581409/d10-x01-y01
ConnectBins=0
ErrorBars=1
IsRef=1
Path=/H1_2002_I581409/d10-x01-y01
PolyMarker=*
Title=Data
# xlow	 xhigh	 val	 errminus	 errplus
0.000000e+00	1.000000e-01	1.010000e+01	2.308679e+00	2.308679e+00
1.000000e-01	2.000000e-01	1.200000e+01	2.872281e+00	2.465766e+00
2.000000e-01	3.000000e-01	1.260000e+01	2.805352e+00	2.580698e+00
3.000000e-01	4.000000e-01	1.430000e+01	3.442383e+00	3.706751e+00
4.000000e-01	5.000000e-01	2.100000e+01	4.023680e+00	3.765634e+00
5.000000e-01	6.000000e-01	3.090000e+01	4.610857e+00	5.840377e+00
6.000000e-01	7.000000e-01	3.790000e+01	8.972736e+00	8.401190e+00
7.000000e-01	8.500000e-01	3.040000e+01	4.940648e+00	6.313478e+00
# END HISTO1D


# BEGIN HISTO1D //home/narendran/Documents/CEDAR_stuff2/sherpa-runs-photon-pdfs/H1_analysis_tests/full_finalR2.yoda.gz/H1_2002_I581409/d10-x01-y01[EXTRA__WeightNormalisation]
LineColor=red!30
LineStyle=solid
Path=//home/narendran/Documents/CEDAR_stuff2/sherpa-runs-photon-pdfs/H1_analysis_tests/full_finalR2.yoda.gz/H1_2002_I581409/d10-x01-y01[EXTRA__WeightNormalisation]
ScaledBy=3.54337602857453078e-05
Title=full_finalR2
# xlow	 xhigh	 val	 errminus	 errplus
0.000000e+00	1.000000e-01	1.884606e+03	1.232224e+02	1.232224e+02
1.000000e-01	2.000000e-01	1.704922e+03	1.171158e+02	1.171158e+02
2.000000e-01	3.000000e-01	1.302620e+03	1.023621e+02	1.023621e+02
3.000000e-01	4.000000e-01	1.372560e+03	1.049816e+02	1.049816e+02
4.000000e-01	5.000000e-01	1.288899e+03	1.015979e+02	1.015979e+02
5.000000e-01	6.000000e-01	1.112601e+03	9.438658e+01	9.438658e+01
6.000000e-01	7.000000e-01	7.745194e+02	7.865401e+01	7.865401e+01
7.000000e-01	8.500000e-01	2.328082e+02	3.510145e+01	3.510145e+01
# END HISTO1D


# BEGIN HISTO1D //home/narendran/Documents/CEDAR_stuff2/sherpa-runs-photon-pdfs/H1_analysis_tests/full_finalR2.yoda.gz/H1_2002_I581409/d10-x01-y01[EXTRA__NTrials]
LineColor=red!30
LineStyle=solid
Path=//home/narendran/Documents/CEDAR_stuff2/sherpa-runs-photon-pdfs/H1_analysis_tests/full_finalR2.yoda.gz/H1_2002_I581409/d10-x01-y01[EXTRA__NTrials]
ScaledBy=3.53969770981558149e-05
Title=full_finalR2
# xlow	 xhigh	 val	 errminus	 errplus
0.000000e+00	1.000000e-01	2.302600e-01	1.949277e-02	1.949277e-02
1.000000e-01	2.000000e-01	2.247309e-01	2.069105e-02	2.069105e-02
2.000000e-01	3.000000e-01	1.557640e-01	1.600437e-02	1.600437e-02
3.000000e-01	4.000000e-01	1.730428e-01	1.696872e-02	1.696872e-02
4.000000e-01	5.000000e-01	1.454928e-01	1.459506e-02	1.459506e-02
5.000000e-01	6.000000e-01	1.567686e-01	1.619427e-02	1.619427e-02
6.000000e-01	7.000000e-01	9.280762e-02	1.248945e-02	1.248945e-02
7.000000e-01	8.500000e-01	3.565815e-02	6.873495e-03	6.873495e-03
# END HISTO1D


# BEGIN HISTO1D //home/narendran/Documents/CEDAR_stuff2/sherpa-runs-photon-pdfs/H1_analysis_tests/full_finalR2.yoda.gz/H1_2002_I581409/d10-x01-y01[EXTRA__MEWeight]
LineColor=red!30
LineStyle=solid
Path=//home/narendran/Documents/CEDAR_stuff2/sherpa-runs-photon-pdfs/H1_analysis_tests/full_finalR2.yoda.gz/H1_2002_I581409/d10-x01-y01[EXTRA__MEWeight]
ScaledBy=3.74229860719813061e-05
Title=full_finalR2
# xlow	 xhigh	 val	 errminus	 errplus
0.000000e+00	1.000000e-01	4.827217e+03	1.644668e+03	1.644668e+03
1.000000e-01	2.000000e-01	3.726822e+04	3.097396e+04	3.097396e+04
2.000000e-01	3.000000e-01	3.412247e+03	1.316228e+03	1.316228e+03
3.000000e-01	4.000000e-01	1.309598e+04	1.075067e+04	1.075067e+04
4.000000e-01	5.000000e-01	1.345700e+05	1.234311e+05	1.234311e+05
5.000000e-01	6.000000e-01	1.667813e+04	1.075182e+04	1.075182e+04
6.000000e-01	7.000000e-01	1.357167e+04	1.146413e+04	1.146413e+04
7.000000e-01	8.500000e-01	9.202153e+01	4.831042e+01	4.831042e+01
# END HISTO1D


# BEGIN HISTO1D //home/narendran/Documents/CEDAR_stuff2/sherpa-runs-photon-pdfs/H1_analysis_tests/full_finalR2.yoda.gz/H1_2002_I581409/d10-x01-y01
LineColor=red
LineStyle=solid
Path=//home/narendran/Documents/CEDAR_stuff2/sherpa-runs-photon-pdfs/H1_analysis_tests/full_finalR2.yoda.gz/H1_2002_I581409/d10-x01-y01
ScaledBy=3.41139565873021307e-05
Title=full_finalR2
# xlow	 xhigh	 val	 errminus	 errplus
0.000000e+00	1.000000e-01	1.940454e+02	3.832058e+01	3.832058e+01
1.000000e-01	2.000000e-01	1.671757e+02	3.463848e+01	3.463848e+01
2.000000e-01	3.000000e-01	1.944825e+02	3.928243e+01	3.928243e+01
3.000000e-01	4.000000e-01	1.686846e+02	4.929338e+01	4.929338e+01
4.000000e-01	5.000000e-01	2.401744e+02	5.712583e+01	5.712583e+01
5.000000e-01	6.000000e-01	3.443485e+02	1.201020e+02	1.201020e+02
6.000000e-01	7.000000e-01	3.710267e+02	9.356907e+01	9.356907e+01
7.000000e-01	8.500000e-01	1.811928e+02	8.368895e+01	8.368895e+01
# END HISTO1D

