Welcome to Sherpa, Vithyaban Narendran on pplxwn023.physics.ox.ac.uk. Initialization of framework underway.
The local time is Tue Feb 27 16:53:29 2024.
Run_Parameter::Init(): Setting memory limit to 1007.01 GB.
Random::SetSeed(): Seed set to 1234
-----------------------------------------------------------------------------
-----------    Event generation run with SHERPA started .......   -----------
-----------------------------------------------------------------------------
................................................ |       +                   
................................................ ||  |       +  +            
...................................        ....  | |         /   +           
................. ................   _,_ |  ....  ||         +|  +  +        
...............................  __.'  ,\|  ...  ||    /    +|          +    
.............................. (  \    \   ...  | |  |   + + \         +   
.............................  (    \   -/  .... ||       +    |          +  
........ ...................  <S   /()))))~~~~~~~~##     +     /\    +       
............................ (!H   (~~)))))~~~~~~#/     +  +    |  +         
................ ........... (!E   (~~~)))))     /|/    +         +          
............................ (!R   (~~~)))))   |||   + +            +        
..... ...................... (!P    (~~~~)))   /|  + +          +            
............................ (!A>    (~~~~~~~~~##        + +        +        
............................. ~~(!    '~~~~~~~ \       +     + +      +      
...............................  `~~~QQQQQDb //   |         + + +        +   
........................ ..........   IDDDDP||     \  + + + + +             +
....................................  IDDDI||       \                      + 
.................................... IHD HD||         \ + +  + + + + +      +
...................................  IHD ##|            :-) + +\          +  
......... ............... ......... IHI ## /      /   +  + + + +\       +    
................................... IHI/ /       /      + + + +        +     
................................... ## | | /    / + +      + + /      +      
....................... /TT\ .....  ##/ ///  / + + + + + + +/       +        
......................./TTT/T\ ... /TT\/\\\ / + + + + + + +/   \         +   
....................../TTT/TTTT\...|TT/T\\\/   +    ++  + /              
-----------------------------------------------------------------------------

     SHERPA version 3.0.0beta1 (Dhaulagiri)
                                                                             
     Authors:        Enrico Bothmann, Stefan Hoeche, Frank Krauss,           
                     Silvan Kuttimalai, Marek Schoenherr, Holger Schulz,     
                     Steffen Schumann, Frank Siegert, Korinna Zapp           
     Former Authors: Timo Fischer, Tanju Gleisberg, Hendrik Hoeth,           
                     Ralf Kuhn, Thomas Laubrich, Andreas Schaelicke,         
                     Jan Winter                                              
                                                                             
     This program uses a lot of genuine and original research work           
     by other people. Users are encouraged to refer to                       
     the various original publications.                                      
                                                                             
     Users are kindly asked to refer to the documentation                    
     published under JHEP 02(2009)007                                        
                                                                             
     Please visit also our homepage                                          
                                                                             
       http://sherpa.hepforge.org                                            
                                                                             
     for news, bugreports, updates and new releases.                         
                                                                             
-----------------------------------------------------------------------------
WARNING: You are using an unsupported development branch.
Git branch photon-pdf-fitting, revision cbce34ae4e06c58e8cfd6012e9ecf6e43a03c86e.
Hadron_Init::Init(): Initializing kf table for hadrons.
Beam_Spectra_Handler: type = Collider Setup
    for e+ (on = 1, p = (27.6,0,0,27.6))
    and P+ (on = 1, p = (820,0,0,-819.999)).
ISR handling:
    PDFs for hard scattering:              SAS2D + NNPDF31_nnlo_as_0118_proton
    PDFs for multiple parton interactions: None + PDF4LHC21_40_pdfas
Remnant_Handlers:
    hard process: P: Photon + P+: Hadron
Standard_Model::FixEWParameters() {
  Input scheme: Gmu
                Gmu scheme, input: GF, m_W, m_Z, m_h, widths
  Ren. scheme:  Gmu
                
  Parameters:   sin^2(\theta_W) = 0.222928 - 0.00110708 i
                vev             = 246.218
}
Running_AlphaQED::PrintSummary() {
  Setting \alpha according to EW scheme
  1/\alpha(0)   = 137.036
  1/\alpha(def) = 132.168
}
[1mOne_Running_AlphaS::One_Running_AlphaS(): [0m[31mOverriding \alpha_s information from PDF. Make sure you know what you are doing![0m
One_Running_AlphaS::PrintSummary() {
  Setting \alpha_s according to PDF
  perturbative order 1
  \alpha_s(M_Z) = 0.1188
}
[1mOne_Running_AlphaS::One_Running_AlphaS(): [0m[31mOverriding \alpha_s information from PDF. Make sure you know what you are doing![0m
One_Running_AlphaS::PrintSummary() {
  Setting \alpha_s according to PDF
  perturbative order 1
  \alpha_s(M_Z) = 0.1188
}
List of Particle Data 
     IDName     kfc            Mass           Width   Stable  Massive   Active          Yukawa
          d       1            0.01               0        1        0        1               0
          u       2           0.005               0        1        0        1               0
          s       3             0.2               0        1        0        1               0
          c       4            1.42               0        1        1        1            1.42
          b       5            4.92               0        1        1        1            4.92
          t       6          173.21             1.5        0        1        1          173.21
         e-      11        0.000511               0        1        0        1               0
         ve      12               0               0        1        0        1               0
        mu-      13           0.105               0        1        0        1               0
        vmu      14               0               0        1        0        1               0
       tau-      15           1.777     2.26735e-12        0        0        1               0
       vtau      16               0               0        1        0        1               0
          G      21               0               0        1        0        1               0
          P      22               0               0        1        0        1               0
          Z      23         91.1876          2.4952        0        1        1         91.1876
         W+      24          80.385           2.085        0        1        1          80.385
         h0      25             125         0.00407        0        1        1             125
     string      95               0               0        1        0        1               0
    cluster      96               0               0        1        0        1               0
  Instanton     999               0               0        0        0        1               0
List of Particle Containers 
     IDName     kfc     Constituents
          l      90     {e-,e+,mu-,mu+,tau-,tau+}
          v      91     {ve,veb,vmu,vmub,vtau,vtaub}
          f      92     {d,db,u,ub,s,sb,e-,e+,mu-,mu+,tau-,tau+,ve,veb,vmu,vmub,vtau,vtaub}
          j      93     {d,db,u,ub,s,sb,G}
          Q      94     {d,db,u,ub,s,sb}
        ewj      98     {d,db,u,ub,s,sb,G,P}
Shower_Handler initialised.

+-----------------------------------------+
|   X   X   X XXXX  XXX  XXX  XXX         |
|  X X  XX XX X    X      X  X     X   X  |
| X   X X X X XXX  X XXX  X  X    XXX XXX |
| XXXXX X   X X    X   X  X  X     X   X  |
| X   X X   X XXXX  XXX  XXX  XXX         |
+-----------------------------------------+
| please cite: JHEP 0202:044,2002         |
+-----------------------------------------+
Matrix_Element_Handler::Matrix_Element_Handler(): Set pilot run mode to 0.
ME_Generator_Base::SetPSMasses(): Massive PS flavours for Comix: (e-,e+,mu-,mu+,tau-,tau+)
+----------------------------------+
|                                  |
|      [31mCCC[0m  [32mOOO[0m  [34mM[0m   [34mM[0m I [33mX[0m   [33mX[0m     |
|     [31mC[0m    [32mO[0m   [32mO[0m [34mMM[0m [34mMM[0m I  [33mX[0m [33mX[0m      |
|     [31mC[0m    [32mO[0m   [32mO[0m [34mM[0m [34mM[0m [34mM[0m I   [33mX[0m       |
|     [31mC[0m    [32mO[0m   [32mO[0m [34mM[0m   [34mM[0m I  [33mX[0m [33mX[0m      |
|      [31mCCC[0m  [32mOOO[0m  [34mM[0m   [34mM[0m I [33mX[0m   [33mX[0m     |
|                                  |
+==================================+
|  Color dressed  Matrix Elements  |
|     http://comix.freacafe.de     |
|   please cite  JHEP12(2008)039   |
+----------------------------------+
ME_Generator_Base::SetPSMasses(): Massive PS flavours for Amegic: (e-,e+,mu-,mu+,tau-,tau+)
Matrix_Element_Handler::BuildProcesses(): 2 ME generators, 1 process blocks.
Matrix_Element_Handler::BuildProcesses(): Setting up processes ...... done ( 60 MB, 0s / 0s ).
Matrix_Element_Handler::InitializeProcesses(): Performing tests ...... done ( 60 MB, 0s / 0s ).
Matrix_Element_Handler::InitializeProcesses(): Initializing scales done ( 60 MB, 0s / 0s ).
Initialized the Matrix_Element_Handler for the hard processes.
Initialized the Beam_Remnant_Handler.
[1m[31mNormal exit[0m[1m thrown[0m:
[31mInitialization complete.[0m
WARNING: You are using an unsupported development branch.
------------------------------------------------------------------------
[1mPlease cite the publications listed in '[31mReferences.tex[0m[1m'.[0m
  Extract the bibtex list by running 'get_bibtex References.tex'
  or email the file to 'slaclib2@slac.stanford.edu', subject 'generate'.
------------------------------------------------------------------------
[1mTerminator_Object_Handler::Exit: [0m[34mExiting Sherpa with code [0m[1m([31m0[0m[1m)[0m[?25h
Thanks for using LHAPDF 6.5.4. Please make sure to cite the paper:
  Eur.Phys.J. C75 (2015) 3, 132  (http://arxiv.org/abs/1412.7420)
Welcome to Sherpa, Vithyaban Narendran on pplxwn023.physics.ox.ac.uk. Initialization of framework underway.
The local time is Tue Feb 27 16:53:30 2024.
Run_Parameter::Init(): Setting memory limit to 1007.01 GB.
Random::SetSeed(): Seed set to 1234
-----------------------------------------------------------------------------
-----------    Event generation run with SHERPA started .......   -----------
-----------------------------------------------------------------------------
................................................ |       +                   
................................................ ||  |       +  +            
...................................        ....  | |         /   +           
................. ................   _,_ |  ....  ||         +|  +  +        
...............................  __.'  ,\|  ...  ||    /    +|          +    
.............................. (  \    \   ...  | |  |   + + \         +   
.............................  (    \   -/  .... ||       +    |          +  
........ ...................  <S   /()))))~~~~~~~~##     +     /\    +       
............................ (!H   (~~)))))~~~~~~#/     +  +    |  +         
................ ........... (!E   (~~~)))))     /|/    +         +          
............................ (!R   (~~~)))))   |||   + +            +        
..... ...................... (!P    (~~~~)))   /|  + +          +            
............................ (!A>    (~~~~~~~~~##        + +        +        
............................. ~~(!    '~~~~~~~ \       +     + +      +      
...............................  `~~~QQQQQDb //   |         + + +        +   
........................ ..........   IDDDDP||     \  + + + + +             +
....................................  IDDDI||       \                      + 
.................................... IHD HD||         \ + +  + + + + +      +
...................................  IHD ##|            :-) + +\          +  
......... ............... ......... IHI ## /      /   +  + + + +\       +    
................................... IHI/ /       /      + + + +        +     
................................... ## | | /    / + +      + + /      +      
....................... /TT\ .....  ##/ ///  / + + + + + + +/       +        
......................./TTT/T\ ... /TT\/\\\ / + + + + + + +/   \         +   
....................../TTT/TTTT\...|TT/T\\\/   +    ++  + /              
-----------------------------------------------------------------------------

     SHERPA version 3.0.0beta1 (Dhaulagiri)
                                                                             
     Authors:        Enrico Bothmann, Stefan Hoeche, Frank Krauss,           
                     Silvan Kuttimalai, Marek Schoenherr, Holger Schulz,     
                     Steffen Schumann, Frank Siegert, Korinna Zapp           
     Former Authors: Timo Fischer, Tanju Gleisberg, Hendrik Hoeth,           
                     Ralf Kuhn, Thomas Laubrich, Andreas Schaelicke,         
                     Jan Winter                                              
                                                                             
     This program uses a lot of genuine and original research work           
     by other people. Users are encouraged to refer to                       
     the various original publications.                                      
                                                                             
     Users are kindly asked to refer to the documentation                    
     published under JHEP 02(2009)007                                        
                                                                             
     Please visit also our homepage                                          
                                                                             
       http://sherpa.hepforge.org                                            
                                                                             
     for news, bugreports, updates and new releases.                         
                                                                             
-----------------------------------------------------------------------------
WARNING: You are using an unsupported development branch.
Git branch photon-pdf-fitting, revision cbce34ae4e06c58e8cfd6012e9ecf6e43a03c86e.
Hadron_Init::Init(): Initializing kf table for hadrons.
Beam_Spectra_Handler: type = Collider Setup
    for e+ (on = 1, p = (27.6,0,0,27.6))
    and P+ (on = 1, p = (820,0,0,-819.999)).
ISR handling:
    PDFs for hard scattering:              SAS2D + NNPDF31_nnlo_as_0118_proton
    PDFs for multiple parton interactions: None + PDF4LHC21_40_pdfas
Remnant_Handlers:
    hard process: P: Photon + P+: Hadron
Standard_Model::FixEWParameters() {
  Input scheme: Gmu
                Gmu scheme, input: GF, m_W, m_Z, m_h, widths
  Ren. scheme:  Gmu
                
  Parameters:   sin^2(\theta_W) = 0.222928 - 0.00110708 i
                vev             = 246.218
}
Running_AlphaQED::PrintSummary() {
  Setting \alpha according to EW scheme
  1/\alpha(0)   = 137.036
  1/\alpha(def) = 132.168
}
[1mOne_Running_AlphaS::One_Running_AlphaS(): [0m[31mOverriding \alpha_s information from PDF. Make sure you know what you are doing![0m
One_Running_AlphaS::PrintSummary() {
  Setting \alpha_s according to PDF
  perturbative order 1
  \alpha_s(M_Z) = 0.1188
}
[1mOne_Running_AlphaS::One_Running_AlphaS(): [0m[31mOverriding \alpha_s information from PDF. Make sure you know what you are doing![0m
One_Running_AlphaS::PrintSummary() {
  Setting \alpha_s according to PDF
  perturbative order 1
  \alpha_s(M_Z) = 0.1188
}
List of Particle Data 
     IDName     kfc            Mass           Width   Stable  Massive   Active          Yukawa
          d       1            0.01               0        1        0        1               0
          u       2           0.005               0        1        0        1               0
          s       3             0.2               0        1        0        1               0
          c       4            1.42               0        1        1        1            1.42
          b       5            4.92               0        1        1        1            4.92
          t       6          173.21             1.5        0        1        1          173.21
         e-      11        0.000511               0        1        0        1               0
         ve      12               0               0        1        0        1               0
        mu-      13           0.105               0        1        0        1               0
        vmu      14               0               0        1        0        1               0
       tau-      15           1.777     2.26735e-12        0        0        1               0
       vtau      16               0               0        1        0        1               0
          G      21               0               0        1        0        1               0
          P      22               0               0        1        0        1               0
          Z      23         91.1876          2.4952        0        1        1         91.1876
         W+      24          80.385           2.085        0        1        1          80.385
         h0      25             125         0.00407        0        1        1             125
     string      95               0               0        1        0        1               0
    cluster      96               0               0        1        0        1               0
  Instanton     999               0               0        0        0        1               0
List of Particle Containers 
     IDName     kfc     Constituents
          l      90     {e-,e+,mu-,mu+,tau-,tau+}
          v      91     {ve,veb,vmu,vmub,vtau,vtaub}
          f      92     {d,db,u,ub,s,sb,e-,e+,mu-,mu+,tau-,tau+,ve,veb,vmu,vmub,vtau,vtaub}
          j      93     {d,db,u,ub,s,sb,G}
          Q      94     {d,db,u,ub,s,sb}
        ewj      98     {d,db,u,ub,s,sb,G,P}
Shower_Handler initialised.

+-----------------------------------------+
|   X   X   X XXXX  XXX  XXX  XXX         |
|  X X  XX XX X    X      X  X     X   X  |
| X   X X X X XXX  X XXX  X  X    XXX XXX |
| XXXXX X   X X    X   X  X  X     X   X  |
| X   X X   X XXXX  XXX  XXX  XXX         |
+-----------------------------------------+
| please cite: JHEP 0202:044,2002         |
+-----------------------------------------+
Matrix_Element_Handler::Matrix_Element_Handler(): Set pilot run mode to 0.
ME_Generator_Base::SetPSMasses(): Massive PS flavours for Comix: (e-,e+,mu-,mu+,tau-,tau+)
+----------------------------------+
|                                  |
|      [31mCCC[0m  [32mOOO[0m  [34mM[0m   [34mM[0m I [33mX[0m   [33mX[0m     |
|     [31mC[0m    [32mO[0m   [32mO[0m [34mMM[0m [34mMM[0m I  [33mX[0m [33mX[0m      |
|     [31mC[0m    [32mO[0m   [32mO[0m [34mM[0m [34mM[0m [34mM[0m I   [33mX[0m       |
|     [31mC[0m    [32mO[0m   [32mO[0m [34mM[0m   [34mM[0m I  [33mX[0m [33mX[0m      |
|      [31mCCC[0m  [32mOOO[0m  [34mM[0m   [34mM[0m I [33mX[0m   [33mX[0m     |
|                                  |
+==================================+
|  Color dressed  Matrix Elements  |
|     http://comix.freacafe.de     |
|   please cite  JHEP12(2008)039   |
+----------------------------------+
ME_Generator_Base::SetPSMasses(): Massive PS flavours for Amegic: (e-,e+,mu-,mu+,tau-,tau+)
Matrix_Element_Handler::BuildProcesses(): 2 ME generators, 1 process blocks.
Matrix_Element_Handler::BuildProcesses(): Setting up processes ...... done ( 57 MB, 0s / 0s ).
Matrix_Element_Handler::InitializeProcesses(): Performing tests ...... done ( 57 MB, 0s / 0s ).
Matrix_Element_Handler::InitializeProcesses(): Initializing scales done ( 58 MB, 0s / 0s ).
Initialized the Matrix_Element_Handler for the hard processes.
Initialized the Beam_Remnant_Handler.
Process_Group::CalculateTotalXSec(): Calculate xs for '2_2__j__j__c__cb' (Comix)
Integration parameters: n_{min} = 5000, N_{opt} = 10, N_{max} = 1, exponent = 0.5
Starting the calculation at 16:53:30. Lean back and enjoy ... .
[34m3064.7 pb[0m +- ( [31m166.822 pb = 5.44333 %[0m ) 5000 ( 23326 -> 21.4 % )
full optimization:  ( 0s elapsed / 37s left ) [16:53:30]
[34m3003.63 pb[0m +- ( [31m247.494 pb = 8.23984 %[0m ) 7071 ( 29794 -> 32 % )
full optimization:  ( 0s elapsed / 37s left ) [16:53:30]
[34m3032.37 pb[0m +- ( [31m151.358 pb = 4.9914 %[0m ) 9999 ( 35122 -> 54.9 % )
full optimization:  ( 0s elapsed / 35s left ) [16:53:31]
[34m3011.15 pb[0m +- ( [31m102.351 pb = 3.39906 %[0m ) 14140 ( 42034 -> 59.9 % )
full optimization:  ( 0s elapsed / 34s left ) [16:53:31]
[34m3037.31 pb[0m +- ( [31m69.6041 pb = 2.29164 %[0m ) 19996 ( 52842 -> 54.1 % )
full optimization:  ( 1s elapsed / 32s left ) [16:53:31]
[34m3053.38 pb[0m +- ( [31m48.8651 pb = 1.60036 %[0m ) 28278 ( 68917 -> 51.5 % )
full optimization:  ( 1s elapsed / 32s left ) [16:53:32]
[34m3104.48 pb[0m +- ( [31m35.2693 pb = 1.13608 %[0m ) 39991 ( 93295 -> 48 % )
full optimization:  ( 2s elapsed / 29s left ) [16:53:32]
[34m3102.18 pb[0m +- ( [31m25.9183 pb = 0.835487 %[0m ) 56555 ( 130603 -> 44.3 % )
full optimization:  ( 3s elapsed / 26s left ) [16:53:33]
[34m3107.03 pb[0m +- ( [31m19.6523 pb = 0.632511 %[0m ) 79980 ( 185577 -> 42.6 % )
full optimization:  ( 4s elapsed / 24s left ) [16:53:34]
[34m3114.23 pb[0m +- ( [31m15.2977 pb = 0.49122 %[0m ) 113108 ( 267382 -> 40.4 % )
full optimization:  ( 5s elapsed / 22s left ) [16:53:36]
[34m3118.98 pb[0m +- ( [31m12.1229 pb = 0.388682 %[0m ) 159958 ( 390474 -> 38 % )
integration time:   ( 8s elapsed / 18s left ) [16:53:38]
[1m2_2__j__j__c__cb[0m : [34m[1m3118.98 pb[0m +- ( [31m12.1229 pb = 0.388682 %[0m ) [1m exp. eff: [31m0.922304 %[0m
  reduce max for 2_2__j__j__c__cb to 1 ( eps = 0.001 -> exp. eff 0.00922304 ) 
Process_Group::CalculateTotalXSec(): Calculate xs for '2_3__j__j__c__cb__j' (Comix)
Integration parameters: n_{min} = 5000, N_{opt} = 10, N_{max} = 1, exponent = 0.5
Starting the calculation at 16:53:38. Lean back and enjoy ... .
[34m0.17085 pb[0m +- ( [31m0.0297811 pb = 17.4312 %[0m ) 5000 ( 411403 -> 1.2 % )
full optimization:  ( 5s elapsed / 10m 10s left ) [16:53:44]
[34m0.155863 pb[0m +- ( [31m0.0322658 pb = 20.7014 %[0m ) 7071 ( 435341 -> 8.6 % )
full optimization:  ( 6s elapsed / 8m 40s left ) [16:53:45]
[34m0.163579 pb[0m +- ( [31m0.0233259 pb = 14.2598 %[0m ) 9999 ( 447907 -> 23.3 % )
full optimization:  ( 8s elapsed / 7m 16s left ) [16:53:46]
[34m0.17154 pb[0m +- ( [31m0.0188301 pb = 10.9771 %[0m ) 14140 ( 462569 -> 28.2 % )
full optimization:  ( 10s elapsed / 6m 29s left ) [16:53:48]
[34m0.164873 pb[0m +- ( [31m0.0131009 pb = 7.94603 %[0m ) 19996 ( 485946 -> 25 % )
full optimization:  ( 13s elapsed / 5m 35s left ) [16:53:51]
[34m0.163051 pb[0m +- ( [31m0.00925441 pb = 5.67578 %[0m ) 28278 ( 518828 -> 25.1 % )
full optimization:  ( 15s elapsed / 4m 45s left ) [16:53:54]
[34m0.161437 pb[0m +- ( [31m0.00645259 pb = 3.99696 %[0m ) 39991 ( 568350 -> 23.6 % )
full optimization:  ( 20s elapsed / 4m 19s left ) [16:53:59]
[34m0.161922 pb[0m +- ( [31m0.0044529 pb = 2.75003 %[0m ) 56555 ( 646174 -> 21.2 % )
full optimization:  ( 27s elapsed / 3m 51s left ) [16:54:05]
[34m0.16159 pb[0m +- ( [31m0.00308472 pb = 1.90898 %[0m ) 79980 ( 764881 -> 19.7 % )
full optimization:  ( 36s elapsed / 3m 25s left ) [16:54:14]
[34m0.162558 pb[0m +- ( [31m0.00216784 pb = 1.33357 %[0m ) 113108 ( 946166 -> 18.2 % )
full optimization:  ( 50s elapsed / 3m 8s left ) [16:54:28]
[34m0.164504 pb[0m +- ( [31m0.00156436 pb = 0.950954 %[0m ) 159958 ( 1220002 -> 17.1 % )
integration time:   ( 1m 8s elapsed / 2m 39s left ) [16:54:46]
[1m2_3__j__j__c__cb__j[0m : [34m[1m0.164504 pb[0m +- ( [31m0.00156436 pb = 0.950954 %[0m ) [1m exp. eff: [31m0.0673258 %[0m
  reduce max for 2_3__j__j__c__cb__j to 1 ( eps = 0.001 -> exp. eff 0.000673258 ) 
Return_Value::PrintStatistics(): Statistics {
  Generated events: 0
}
Blob_List: Momentum Fail Statistics {
}
Decay_Channel: Kinematics max fail statistics {
}
WARNING: You are using an unsupported development branch.
------------------------------------------------------------------------
[1mPlease cite the publications listed in '[31mReferences.tex[0m[1m'.[0m
  Extract the bibtex list by running 'get_bibtex References.tex'
  or email the file to 'slaclib2@slac.stanford.edu', subject 'generate'.
------------------------------------------------------------------------
WARNING: Some settings that have been defined in the input
files and/or the command line have not been used. For more
details, see the Settings Report.
Time: 1m 16s on Tue Feb 27 16:54:46 2024
 (User: 1m 14s, System: 0s, Children User: 0s, Children System: 0s)
Welcome to Sherpa, Vithyaban Narendran on pplxwn023.physics.ox.ac.uk. Initialization of framework underway.
The local time is Tue Feb 27 16:54:46 2024.
Run_Parameter::Init(): Setting memory limit to 1007.01 GB.
Random::SetSeed(): Seed set to 1234
-----------------------------------------------------------------------------
-----------    Event generation run with SHERPA started .......   -----------
-----------------------------------------------------------------------------
................................................ |       +                   
................................................ ||  |       +  +            
...................................        ....  | |         /   +           
................. ................   _,_ |  ....  ||         +|  +  +        
...............................  __.'  ,\|  ...  ||    /    +|          +    
.............................. (  \    \   ...  | |  |   + + \         +   
.............................  (    \   -/  .... ||       +    |          +  
........ ...................  <S   /()))))~~~~~~~~##     +     /\    +       
............................ (!H   (~~)))))~~~~~~#/     +  +    |  +         
................ ........... (!E   (~~~)))))     /|/    +         +          
............................ (!R   (~~~)))))   |||   + +            +        
..... ...................... (!P    (~~~~)))   /|  + +          +            
............................ (!A>    (~~~~~~~~~##        + +        +        
............................. ~~(!    '~~~~~~~ \       +     + +      +      
...............................  `~~~QQQQQDb //   |         + + +        +   
........................ ..........   IDDDDP||     \  + + + + +             +
....................................  IDDDI||       \                      + 
.................................... IHD HD||         \ + +  + + + + +      +
...................................  IHD ##|            :-) + +\          +  
......... ............... ......... IHI ## /      /   +  + + + +\       +    
................................... IHI/ /       /      + + + +        +     
................................... ## | | /    / + +      + + /      +      
....................... /TT\ .....  ##/ ///  / + + + + + + +/       +        
......................./TTT/T\ ... /TT\/\\\ / + + + + + + +/   \         +   
....................../TTT/TTTT\...|TT/T\\\/   +    ++  + /              
-----------------------------------------------------------------------------

     SHERPA version 3.0.0beta1 (Dhaulagiri)
                                                                             
     Authors:        Enrico Bothmann, Stefan Hoeche, Frank Krauss,           
                     Silvan Kuttimalai, Marek Schoenherr, Holger Schulz,     
                     Steffen Schumann, Frank Siegert, Korinna Zapp           
     Former Authors: Timo Fischer, Tanju Gleisberg, Hendrik Hoeth,           
                     Ralf Kuhn, Thomas Laubrich, Andreas Schaelicke,         
                     Jan Winter                                              
                                                                             
     This program uses a lot of genuine and original research work           
     by other people. Users are encouraged to refer to                       
     the various original publications.                                      
                                                                             
     Users are kindly asked to refer to the documentation                    
     published under JHEP 02(2009)007                                        
                                                                             
     Please visit also our homepage                                          
                                                                             
       http://sherpa.hepforge.org                                            
                                                                             
     for news, bugreports, updates and new releases.                         
                                                                             
-----------------------------------------------------------------------------
WARNING: You are using an unsupported development branch.
Git branch photon-pdf-fitting, revision cbce34ae4e06c58e8cfd6012e9ecf6e43a03c86e.
Hadron_Init::Init(): Initializing kf table for hadrons.
Beam_Spectra_Handler: type = Collider Setup
    for e+ (on = 1, p = (27.6,0,0,27.6))
    and P+ (on = 1, p = (820,0,0,-819.999)).
ISR handling:
    PDFs for hard scattering:              SAS2D + NNPDF31_nnlo_as_0118_proton
    PDFs for multiple parton interactions: None + PDF4LHC21_40_pdfas
Remnant_Handlers:
    hard process: P: Photon + P+: Hadron
Standard_Model::FixEWParameters() {
  Input scheme: Gmu
                Gmu scheme, input: GF, m_W, m_Z, m_h, widths
  Ren. scheme:  Gmu
                
  Parameters:   sin^2(\theta_W) = 0.222928 - 0.00110708 i
                vev             = 246.218
}
Running_AlphaQED::PrintSummary() {
  Setting \alpha according to EW scheme
  1/\alpha(0)   = 137.036
  1/\alpha(def) = 132.168
}
[1mOne_Running_AlphaS::One_Running_AlphaS(): [0m[31mOverriding \alpha_s information from PDF. Make sure you know what you are doing![0m
One_Running_AlphaS::PrintSummary() {
  Setting \alpha_s according to PDF
  perturbative order 1
  \alpha_s(M_Z) = 0.1188
}
[1mOne_Running_AlphaS::One_Running_AlphaS(): [0m[31mOverriding \alpha_s information from PDF. Make sure you know what you are doing![0m
One_Running_AlphaS::PrintSummary() {
  Setting \alpha_s according to PDF
  perturbative order 1
  \alpha_s(M_Z) = 0.1188
}
List of Particle Data 
     IDName     kfc            Mass           Width   Stable  Massive   Active          Yukawa
          d       1            0.01               0        1        0        1               0
          u       2           0.005               0        1        0        1               0
          s       3             0.2               0        1        0        1               0
          c       4            1.42               0        1        1        1            1.42
          b       5            4.92               0        1        1        1            4.92
          t       6          173.21             1.5        0        1        1          173.21
         e-      11        0.000511               0        1        0        1               0
         ve      12               0               0        1        0        1               0
        mu-      13           0.105               0        1        0        1               0
        vmu      14               0               0        1        0        1               0
       tau-      15           1.777     2.26735e-12        0        0        1               0
       vtau      16               0               0        1        0        1               0
          G      21               0               0        1        0        1               0
          P      22               0               0        1        0        1               0
          Z      23         91.1876          2.4952        0        1        1         91.1876
         W+      24          80.385           2.085        0        1        1          80.385
         h0      25             125         0.00407        0        1        1             125
     string      95               0               0        1        0        1               0
    cluster      96               0               0        1        0        1               0
  Instanton     999               0               0        0        0        1               0
List of Particle Containers 
     IDName     kfc     Constituents
          l      90     {e-,e+,mu-,mu+,tau-,tau+}
          v      91     {ve,veb,vmu,vmub,vtau,vtaub}
          f      92     {d,db,u,ub,s,sb,e-,e+,mu-,mu+,tau-,tau+,ve,veb,vmu,vmub,vtau,vtaub}
          j      93     {d,db,u,ub,s,sb,G}
          Q      94     {d,db,u,ub,s,sb}
        ewj      98     {d,db,u,ub,s,sb,G,P}
Shower_Handler initialised.

+-----------------------------------------+
|   X   X   X XXXX  XXX  XXX  XXX         |
|  X X  XX XX X    X      X  X     X   X  |
| X   X X X X XXX  X XXX  X  X    XXX XXX |
| XXXXX X   X X    X   X  X  X     X   X  |
| X   X X   X XXXX  XXX  XXX  XXX         |
+-----------------------------------------+
| please cite: JHEP 0202:044,2002         |
+-----------------------------------------+
Matrix_Element_Handler::Matrix_Element_Handler(): Set pilot run mode to 0.
ME_Generator_Base::SetPSMasses(): Massive PS flavours for Comix: (e-,e+,mu-,mu+,tau-,tau+)
+----------------------------------+
|                                  |
|      [31mCCC[0m  [32mOOO[0m  [34mM[0m   [34mM[0m I [33mX[0m   [33mX[0m     |
|     [31mC[0m    [32mO[0m   [32mO[0m [34mMM[0m [34mMM[0m I  [33mX[0m [33mX[0m      |
|     [31mC[0m    [32mO[0m   [32mO[0m [34mM[0m [34mM[0m [34mM[0m I   [33mX[0m       |
|     [31mC[0m    [32mO[0m   [32mO[0m [34mM[0m   [34mM[0m I  [33mX[0m [33mX[0m      |
|      [31mCCC[0m  [32mOOO[0m  [34mM[0m   [34mM[0m I [33mX[0m   [33mX[0m     |
|                                  |
+==================================+
|  Color dressed  Matrix Elements  |
|     http://comix.freacafe.de     |
|   please cite  JHEP12(2008)039   |
+----------------------------------+
ME_Generator_Base::SetPSMasses(): Massive PS flavours for Amegic: (e-,e+,mu-,mu+,tau-,tau+)
Matrix_Element_Handler::BuildProcesses(): 2 ME generators, 1 process blocks.
Matrix_Element_Handler::BuildProcesses(): Setting up processes ...... done ( 57 MB, 0s / 0s ).
Matrix_Element_Handler::InitializeProcesses(): Performing tests ...... done ( 57 MB, 0s / 0s ).
Matrix_Element_Handler::InitializeProcesses(): Initializing scales done ( 58 MB, 0s / 0s ).
Initialized the Matrix_Element_Handler for the hard processes.
Initialized the Beam_Remnant_Handler.
MI_Handler::MI_Handler(id = 2, name = None, type = 0)
Underlying event/multiple interactions handler:
    MI[2]: on = 0 (type = 0, None)
Soft-collision handlers:
Hadron_Init::Init(): Initializing kf table for hadrons.
Initialized the Fragmentation_Handler.
Initialized the Hadron_Decay_Handler, Decay model = HADRONS++
Initialized the Soft_Photon_Handler.
WARNING in Variations::CheckConsistencyWithBeamSpectra: 
   The internal reweighting is only tested
   for hadronic beams of (anti-)protons.
   Will continue and hope for the best.
Initialized the Reweighting.
Read in channels from directory: Results/Comix/MC_2_2__j__j__c__cb
Process_Group::CalculateTotalXSec(): Calculate xs for '2_2__j__j__c__cb' (Comix)
[1m2_2__j__j__c__cb[0m : [34m[1m3118.98 pb[0m +- ( [31m12.1229 pb = 0.388682 %[0m ) [1m exp. eff: [31m0.922304 %[0m
  reduce max for 2_2__j__j__c__cb to 1 ( eps = 0.001 -> exp. eff 0.00922304 ) 
Read in channels from directory: Results/Comix/MC_2_3__j__j__c__cb__j
Process_Group::CalculateTotalXSec(): Calculate xs for '2_3__j__j__c__cb__j' (Comix)
[1m2_3__j__j__c__cb__j[0m : [34m[1m0.164504 pb[0m +- ( [31m0.00156436 pb = 0.950954 %[0m ) [1m exp. eff: [31m0.0673258 %[0m
  reduce max for 2_3__j__j__c__cb__j to 1 ( eps = 0.001 -> exp. eff 0.000673258 ) 
----------------------------------------------------------
-- SHERPA generates events with the following structure --
----------------------------------------------------------
Event generation   : Weighted
Perturbative       : Signal_Processes
Perturbative       : Minimum_Bias: None
Perturbative       : Hard_Decays
Perturbative       : Jet_Evolution:CSS
Perturbative       : Lepton_FS_QED_Corrections:Photons
Perturbative       : Multiple_Interactions: None
Hadronization      : Beam_Remnants:Parametrised
Hadronization      : Hadronization:Ahadic
Hadronization      : Hadron_Decays
Userhook           : 
Analysis           : Rivet
---------------------------------------------------------
Rivet.AnalysisHandler: INFO  Using named weights
Rivet.AnalysisHandler: WARN  Analysis 'ZEUS_2003_I613625' is unvalidated: be careful, it may be broken!
  Event 1 ( 0s elapsed / 9d 20h 6m 39s left ) -> ETA: Fri Mar 08 13:01  
  XS = 662.311 pb +- ( 662.311 pb = 100 % )  [1A  Event 2 ( 0s elapsed / 5d 49m 59s left ) -> ETA: Sun Mar 03 17:44  
  XS = 594.182 pb +- ( 529.159 pb = 89 % )  [1A  Event 3 ( 0s elapsed / 3d 8h 33m 19s left ) -> ETA: Sat Mar 02 01:28  
  XS = 536.864 pb +- ( 466.699 pb = 86 % )  [1A  Event 4 ( 0s elapsed / 2d 13h 6m 39s left ) -> ETA: Fri Mar 01 06:01  
  XS = 1505.53 pb +- ( 1063.92 pb = 70 % )  [1A  Event 5 ( 0s elapsed / 2d 2h 33m 19s left ) -> ETA: Thu Feb 29 19:28  
  XS = 1240.85 pb +- ( 742.1 pb = 59 % )  [1A  Event 6 ( 0s elapsed / 1d 18h 7m 45s left ) -> ETA: Thu Feb 29 11:02  
  XS = 1361.53 pb +- ( 725.216 pb = 53 % )  [1A  Event 7 ( 0s elapsed / 1d 13h 18m 4s left ) -> ETA: Thu Feb 29 06:12  
  XS = 1732.26 pb +- ( 833.266 pb = 48 % )  [1A  Event 8 ( 0s elapsed / 1d 10h 1m 39s left ) -> ETA: Thu Feb 29 02:56  
  XS = 1641.98 pb +- ( 767.565 pb = 46 % )  [1A  Event 9 ( 1s elapsed / 1d 7h 47m 23s left ) -> ETA: Thu Feb 29 00:42  
  XS = 1726.22 pb +- ( 725.315 pb = 42 % )  [1A  Event 10 ( 1s elapsed / 1d 5h 43m 18s left ) -> ETA: Wed Feb 28 22:38  
  XS = 1977.11 pb +- ( 750.984 pb = 37 % )  [1A  Event 20 ( 1s elapsed / 15h 41m 38s left ) -> ETA: Wed Feb 28 08:36  
  XS = 2228.04 pb +- ( 694.288 pb = 31 % )  [1A  Event 30 ( 1s elapsed / 11h 39m 58s left ) -> ETA: Wed Feb 28 04:34  
  XS = 1965.33 pb +- ( 505.175 pb = 25 % )  [1A  Event 40 ( 1s elapsed / 9h 55m 48s left ) -> ETA: Wed Feb 28 02:50  
  XS = 1952.76 pb +- ( 517.221 pb = 26 % )  [1A  Event 50 ( 1s elapsed / 8h 13m 18s left ) -> ETA: Wed Feb 28 01:08  
  XS = 1959.2 pb +- ( 468.474 pb = 23 % )  [1A  Event 60 ( 1s elapsed / 7h 41m 5s left ) -> ETA: Wed Feb 28 00:35  
  XS = 2411.46 pb +- ( 477.522 pb = 19 % )  [1A  Event 70 ( 1s elapsed / 7h 15m 41s left ) -> ETA: Wed Feb 28 00:10  
  XS = 2589.47 pb +- ( 472.172 pb = 18 % )  [1A  Event 80 ( 2s elapsed / 6h 56m 38s left ) -> ETA: Tue Feb 27 23:51  
  XS = 2463.99 pb +- ( 429.986 pb = 17 % )  [1A  Event 90 ( 2s elapsed / 6h 58m 28s left ) -> ETA: Tue Feb 27 23:53  
  XS = 2440.13 pb +- ( 391.945 pb = 16 % )  [1A  Event 100 ( 2s elapsed / 6h 54m 57s left ) -> ETA: Tue Feb 27 23:49  
  XS = 2424.02 pb +- ( 367.474 pb = 15 % )  [1A  Event 200 ( 3s elapsed / 5h 32m 26s left ) -> ETA: Tue Feb 27 22:27  
  XS = 2625.51 pb +- ( 277.143 pb = 10 % )  [1A  Event 300 ( 5s elapsed / 4h 48m 14s left ) -> ETA: Tue Feb 27 21:43  
  XS = 2529.31 pb +- ( 215.96 pb = 8 % )  [1A  Event 400 ( 6s elapsed / 4h 40m 43s left ) -> ETA: Tue Feb 27 21:35  
  XS = 2730.09 pb +- ( 203.281 pb = 7 % )  [1A  Event 500 ( 8s elapsed / 4h 46m 31s left ) -> ETA: Tue Feb 27 21:41  
  XS = 2683.12 pb +- ( 181.338 pb = 6 % )  [1A  Event 600 ( 10s elapsed / 4h 50m 56s left ) -> ETA: Tue Feb 27 21:45  
  XS = 2699.47 pb +- ( 166.57 pb = 6 % )  [1A  Event 700 ( 12s elapsed / 4h 49m 4s left ) -> ETA: Tue Feb 27 21:44  
  XS = 2643.21 pb +- ( 150.672 pb = 5 % )  [1A  Event 800 ( 13s elapsed / 4h 37m 29s left ) -> ETA: Tue Feb 27 21:32  
  XS = 2718.83 pb +- ( 146.223 pb = 5 % )  [1A  Event 900 ( 14s elapsed / 4h 30m 7s left ) -> ETA: Tue Feb 27 21:25  
  XS = 2668.16 pb +- ( 134.852 pb = 5 % )  [1A  Event 1000 ( 15s elapsed / 4h 19m 34s left ) -> ETA: Tue Feb 27 21:14  
  XS = 2710.31 pb +- ( 129.997 pb = 4 % )  [1A  Event 2000 ( 36s elapsed / 4h 59m 33s left ) -> ETA: Tue Feb 27 21:54  
  XS = 2827.49 pb +- ( 97.1826 pb = 3 % )  [1A  Event 3000 ( 48s elapsed / 4h 29m 57s left ) -> ETA: Tue Feb 27 21:25  
  XS = 2876.77 pb +- ( 79.8323 pb = 2 % )  [1A  Event 4000 ( 1m 4s elapsed / 4h 28m 32s left ) -> ETA: Tue Feb 27 21:24  
  XS = 2818.12 pb +- ( 67.7728 pb = 2 % )  [1A  Event 5000 ( 1m 17s elapsed / 4h 17m 4s left ) -> ETA: Tue Feb 27 21:13  
  XS = 2765.35 pb +- ( 59.5484 pb = 2 % )  [1A  Event 6000 ( 1m 30s elapsed / 4h 10m 57s left ) -> ETA: Tue Feb 27 21:07  
  XS = 2753.58 pb +- ( 54.2201 pb = 1 % )  [1A  Event 7000 ( 1m 46s elapsed / 4h 11m 27s left ) -> ETA: Tue Feb 27 21:08  
  XS = 2709.27 pb +- ( 49.5177 pb = 1 % )  [1A  Event 8000 ( 2m 1s elapsed / 4h 10m 38s left ) -> ETA: Tue Feb 27 21:07  
  XS = 2684.74 pb +- ( 45.6569 pb = 1 % )  [1A  Event 9000 ( 2m 16s elapsed / 4h 9m 47s left ) -> ETA: Tue Feb 27 21:06  
  XS = 2673.56 pb +- ( 43.143 pb = 1 % )  [1A  Event 10000 ( 2m 29s elapsed / 4h 7m 8s left ) -> ETA: Tue Feb 27 21:04  
  XS = 2646.65 pb +- ( 40.5623 pb = 1 % )  [1A  Event 20000 ( 4m 26s elapsed / 3h 37m 43s left ) -> ETA: Tue Feb 27 20:36  
  XS = 2618.15 pb +- ( 28.3182 pb = 1 % )  [1A  Event 30000 ( 6m 31s elapsed / 3h 30m 56s left ) -> ETA: Tue Feb 27 20:32  
  XS = 2610.49 pb +- ( 23.025 pb = 0 % )  [1ABlob_List::FourMomentumConservation throws four momentum error for Soft Collision             : (0.712574,-0.00150229,0.00024614,-0.705062) (1)
Blob_List::FourMomentumConservation throws four momentum error for Shower                     : (-0.712574,0.00150229,-0.00024614,0.705062) (1)
Blob_List::FourMomentumConservation throws four momentum error for Fragmentation              : (2.2251e-10,-5.63029e-12,2.52504e-12,-2.2305e-10) (1)
Blob_List::FourMomentumConservation throws four momentum error for Hadron Decay               : (3.30891e-12,1.0528e-14,-4.26048e-15,-3.31024e-12) (1)
Blob_List::FourMomentumConservation throws four momentum error for Hadron Decay               : (-0.831129,0.000880528,-0.00241604,0.831118) (2)
Blob_List::FourMomentumConservation throws four momentum error for Hadron Decay               : (-1.64956e-10,-1.54282e-12,6.1378e-14,1.64984e-10) (3)
Blob_List::FourMomentumConservation throws four momentum error for Hadron Decay               : (3.09743e-09,-5.05762e-13,-2.34188e-12,-3.09748e-09) (4)
Blob_List::FourMomentumConservation throws four momentum error for Hadron Decay               : (1.02564e-08,-3.16091e-12,-1.66627e-12,-1.02565e-08) (5)
Event_Handler::GenerateStandardPerturbativeEvent(): Four momentum not conserved. Rejecting event.
Warning: Kinematics_Generator::TransverseKinematicsHH: Not able to create the breakup kinematics for Particle List with 1 elements
[I] 1 c                     6 (     ->    2) [( 1.0722e+01,-1.3700e-13,-1.5143e-13,-1.0627e+01), p^2= 2.0164e+00, m= 1.8000e+00] (606,  0) 0
 and Particle List with 1 elements
[I] 1 G                     5 (     ->    2) [( 6.2155e+02, 0.0000e+00, 0.0000e+00,-6.2155e+02), p^2= 0.0000e+00, m= 0.0000e+00] (604,605) 1
 and the corresponding remnants are Particle List with 2 elements
[B] 1 cb                   10 (     ->     ) [( 5.8671e+00, 9.1904e-14, 1.0159e-13, 2.0188e+01), p^2=-3.7314e+02, m= 1.4200e+00] (  0,608) 0
[B] 1 G                    13 (     ->     ) [( 2.8790e+00, 4.5098e-14, 4.9849e-14, 9.9065e+00), p^2=-8.9850e+01, m= 0.0000e+00] (608,606) 0
 and Particle List with 2 elements
[B] 1 ud_0                 15 (     ->     ) [( 1.5518e+02, 0.0000e+00, 0.0000e+00,-1.5518e+02), p^2= 1.3027e-01, m= 5.7933e-01] (  0,604) 1
[B] 1 u                    14 (     ->     ) [( 4.3273e+01, 0.0000e+00, 0.0000e+00,-4.3273e+01), p^2= 1.0130e-02, m= 0.0000e+00] (605,  0) 1

  Event 40000 ( 8m 42s elapsed / 3h 29m 10s left ) -> ETA: Tue Feb 27 20:32  
  XS = 2608.34 pb +- ( 19.9475 pb = 0 % )  [1A  Event 50000 ( 11m 2s elapsed / 3h 29m 49s left ) -> ETA: Tue Feb 27 20:35  
  XS = 2617.96 pb +- ( 17.9266 pb = 0 % )  [1A  Event 60000 ( 13m 3s elapsed / 3h 24m 39s left ) -> ETA: Tue Feb 27 20:32  
  XS = 2623.51 pb +- ( 16.373 pb = 0 % )  [1A  Event 70000 ( 15m 21s elapsed / 3h 23m 59s left ) -> ETA: Tue Feb 27 20:34  
  XS = 2624.96 pb +- ( 15.1576 pb = 0 % )  [1A  Event 80000 ( 17m 50s elapsed / 3h 25m 12s left ) -> ETA: Tue Feb 27 20:37  
  XS = 2626.11 pb +- ( 14.1772 pb = 0 % )  [1A  Event 90000 ( 20m 5s elapsed / 3h 23m 11s left ) -> ETA: Tue Feb 27 20:38  
  XS = 2626.06 pb +- ( 13.3673 pb = 0 % )  [1A  Event 100000 ( 22m 33s elapsed / 3h 22m 59s left ) -> ETA: Tue Feb 27 20:40  
  XS = 2622.69 pb +- ( 12.6812 pb = 0 % )  [1A  Event 200000 ( 44m 54s elapsed / 2h 59m 38s left ) -> ETA: Tue Feb 27 20:39  
  XS = 2618.68 pb +- ( 8.9632 pb = 0 % )  [1AWarning: Kinematics_Generator::TransverseKinematicsHH reduced overall prescale for kt to scale = 0.01
  Event 300000 ( 1h 6m 32s elapsed / 2h 35m 16s left ) -> ETA: Tue Feb 27 20:36  
  XS = 2612.13 pb +- ( 7.28998 pb = 0 % )  [1AWarning: Kinematics_Generator::TransverseKinematicsHH: Not able to create the breakup kinematics for Particle List with 1 elements
[I] 1 c                     5 (     ->    2) [( 1.1280e+01, 2.0023e-13, 5.8499e-15,-1.1190e+01), p^2= 2.0164e+00, m= 1.8000e+00] (601,  0) 0
 and Particle List with 1 elements
[I] 1 G                     7 (     ->    2) [( 5.0810e+02, 0.0000e+00, 0.0000e+00,-5.0810e+02), p^2= 0.0000e+00, m= 0.0000e+00] (602,603) 1
 and the corresponding remnants are Particle List with 2 elements
[B] 1 cb                   10 (     ->     ) [( 2.8548e+00,-4.3299e-14,-1.2650e-15, 7.7139e+00), p^2=-5.1354e+01, m= 1.4200e+00] (  0,605) 0
[B] 1 G                    13 (     ->     ) [( 1.0347e+01,-1.5693e-13,-4.5849e-15, 2.7958e+01), p^2=-6.7457e+02, m= 0.0000e+00] (605,601) 0
 and Particle List with 2 elements
[B] 1 uu_1                 15 (     ->     ) [( 1.4920e+02, 0.0000e+00, 0.0000e+00,-1.4920e+02), p^2= 7.6625e-02, m= 7.7133e-01] (  0,602) 1
[B] 1 d                    14 (     ->     ) [( 1.6270e+02, 0.0000e+00, 0.0000e+00,-1.6270e+02), p^2= 9.1116e-02, m= 0.0000e+00] (603,  0) 1

[34mDecay_Handler_Base::TreatInitialBlob[0m:([32m"Initial particle Delta(1232)-b not onshell: sqrt|p^2|=1.232 vs. m=1.232"[0m)
Warning: Kinematics_Generator::TransverseKinematicsHH: Not able to create the breakup kinematics for Particle List with 1 elements
[I] 1 c                     6 (     ->    2) [( 4.2077e+00,-1.6973e-13,-1.5316e-13,-3.9608e+00), p^2= 2.0164e+00, m= 1.8000e+00] (603,  0) 0
 and Particle List with 1 elements
[I] 1 G                     5 (     ->    2) [( 2.2978e+02, 0.0000e+00, 0.0000e+00,-2.2978e+02), p^2= 0.0000e+00, m= 0.0000e+00] (601,602) 1
 and the corresponding remnants are Particle List with 2 elements
[B] 1 cb                   10 (     ->     ) [( 2.3922e+00, 5.0526e-14, 4.5595e-14, 4.8239e+00), p^2=-1.7547e+01, m= 1.4200e+00] (  0,605) 0
[B] 1 G                    13 (     ->     ) [( 5.6435e+00, 1.1920e-13, 1.0757e-13, 1.1380e+01), p^2=-9.7662e+01, m= 0.0000e+00] (605,603) 0
 and Particle List with 2 elements
[B] 1 uu_1                 15 (     ->     ) [( 4.8187e+02, 0.0000e+00, 0.0000e+00,-4.8186e+02), p^2= 4.2235e-01, m= 7.7133e-01] (  0,601) 1
[B] 1 d                    14 (     ->     ) [( 1.0836e+02, 0.0000e+00, 0.0000e+00,-1.0836e+02), p^2= 2.1356e-02, m= 0.0000e+00] (602,  0) 1

  Event 400000 ( 1h 28m 44s elapsed / 2h 13m 6s left ) -> ETA: Tue Feb 27 20:36  
  XS = 2615.71 pb +- ( 6.32343 pb = 0 % )  [1AWarning: Kinematics_Generator::TransverseKinematicsHH: Not able to create the breakup kinematics for Particle List with 1 elements
[I] 1 c                     6 (     ->    2) [( 1.1133e+01,-7.9659e-15, 5.9508e-14,-1.1042e+01), p^2= 2.0164e+00, m= 1.8000e+00] (605,  0) 0
 and Particle List with 1 elements
[I] 1 G                     5 (     ->    2) [( 5.4319e+02, 0.0000e+00, 0.0000e+00,-5.4319e+02), p^2= 0.0000e+00, m= 0.0000e+00] (604,605) 1
 and the corresponding remnants are Particle List with 2 elements
[B] 1 cb                   10 (     ->     ) [( 4.3762e+00, 7.0596e-15,-5.2738e-14, 2.4029e+01), p^2=-5.5824e+02, m= 1.4200e+00] (  0,608) 0
[B] 1 G                    13 (     ->     ) [( 5.6178e-01, 9.0626e-16,-6.7701e-15, 3.0847e+00), p^2=-9.1996e+00, m= 0.0000e+00] (608,605) 0
 and Particle List with 2 elements
[B] 1 ud_0                 15 (     ->     ) [( 1.7563e+02, 0.0000e+00, 0.0000e+00,-1.7563e+02), p^2= 1.1963e-01, m= 5.7933e-01] (  0,604) 1
[B] 1 u                    14 (     ->     ) [( 1.0118e+02, 0.0000e+00, 0.0000e+00,-1.0118e+02), p^2= 3.9705e-02, m= 0.0000e+00] (605,  0) 1

  Event 500000 ( 1h 51m 16s elapsed / 1h 51m 16s left ) -> ETA: Tue Feb 27 20:37  
  XS = 2610.2 pb +- ( 5.64661 pb = 0 % )  [1A  Event 600000 ( 2h 13m 4s elapsed / 1h 28m 43s left ) -> ETA: Tue Feb 27 20:36  
  XS = 2610.26 pb +- ( 5.15617 pb = 0 % )  [1AWarning: Kinematics_Generator::TransverseKinematicsHH: Not able to create the breakup kinematics for Particle List with 1 elements
[I] 1 u                     5 (     ->    2) [( 2.7804e+00,-0.0000e+00,-0.0000e+00, 2.7804e+00), p^2= 3.7783e-13, m= 3.0000e-01] (604,  0) 0
 and Particle List with 1 elements
[I] 1 ub                    6 (     ->    2) [( 8.1839e+02,-0.0000e+00,-0.0000e+00,-8.1839e+02), p^2= 0.0000e+00, m= 3.0000e-01] (  0,605) 1
 and the corresponding remnants are Particle List with 2 elements
[B] 1 ub                    9 (     ->     ) [( 3.0091e-01, 0.0000e+00, 0.0000e+00, 3.0091e-01), p^2=-2.2283e-14, m= 0.0000e+00] (  0,607) 0
[B] 1 G                    13 (     ->     ) [( 2.5087e-01, 0.0000e+00, 0.0000e+00, 2.5087e-01), p^2=-1.5514e-14, m= 0.0000e+00] (607,604) 0
 and Particle List with 3 elements
[B] 1 uu_1                 15 (     ->     ) [( 0.0000e+00, 0.0000e+00, 0.0000e+00,-0.0000e+00), p^2= 0.0000e+00, m= 7.7133e-01] (  0,608) 1
[B] 1 u                    10 (     ->     ) [( 3.2666e-01, 0.0000e+00, 0.0000e+00,-3.2655e-01), p^2= 7.0931e-05, m= 0.0000e+00] (608,  0) 1
[B] 1 d                    14 (     ->     ) [( 1.2881e+00, 0.0000e+00, 0.0000e+00,-1.2877e+00), p^2= 1.1030e-03, m= 0.0000e+00] (605,  0) 1

  Event 700000 ( 2h 33m 42s elapsed / 1h 5m 52s left ) -> ETA: Tue Feb 27 20:34  
  XS = 2614.2 pb +- ( 4.77828 pb = 0 % )  [1A  Event 800000 ( 2h 52m 10s elapsed / 43m 2s left ) -> ETA: Tue Feb 27 20:30  
  XS = 2611.1 pb +- ( 4.46418 pb = 0 % )  [1A[34mDecay_Handler_Base::TreatInitialBlob[0m:([32m"Initial particle Delta(1232)++ not onshell: sqrt|p^2|=1.232 vs. m=1.232"[0m)
  Event 900000 ( 3h 10m 41s elapsed / 21m 11s left ) -> ETA: Tue Feb 27 20:26  
  XS = 2607.91 pb +- ( 4.2046 pb = 0 % )  [1A  Event 1000000 ( 12544 s total ) = 6.88797e+06 evts/day                    
In Event_Handler::Finish : Summarizing the run may take some time.
[31mRivet_Interface::Finish([32mZEUS2003_resolved_TestPDF_8[31m)[0m[31m{[0m
[31m}[0m
--------------------------------------------------------------------------
Nominal or variation name     XS [pb]      RelDev  AbsErr [pb]      RelErr
--------------------------------------------------------------------------
[1mNominal                  [0m[34m[1m     2606.16[0m[33m         0 %[31m      3.98644      0.15 %[0m
--------------------------------------------------------------------------
Return_Value::PrintStatistics(): Statistics {
  Generated events: 1000000
  New events {
    From "Beam_Remnants:Parametrised": 5 (1000008) -> 0 %
    From "Jet_Evolution:CSS": 1053 (1141257) -> 0 %
  }
  Retried events {
    From "Hadron_Decays": 2 (1140201) -> 0 %
  }
  Retried phases {
    From "Hadron_Decay_Handler::RejectExclusiveChannelsFromFragmentation": 29450 (0) -> 29450.
  }
  Retried methods {
    From "Decay_Channel::GenerateKinematics": 19440 (28119436) -> 0 %
  }
}
Blob_List: Momentum Fail Statistics {
  Soft Collision             : 1 fails
  Shower                     : 1 fails
  Fragmentation              : 1 fails
  Hadron Decay               : 6 fails
}
Decay_Channel: Kinematics max fail statistics {
  D --> Kb pi+ pi+b pi  maximal fail by 1.32202.
}
WARNING: You are using an unsupported development branch.
------------------------------------------------------------------------
[1mPlease cite the publications listed in '[31mReferences.tex[0m[1m'.[0m
  Extract the bibtex list by running 'get_bibtex References.tex'
  or email the file to 'slaclib2@slac.stanford.edu', subject 'generate'.
------------------------------------------------------------------------
Gluon_Splitter::~Gluon_Splitter with 14002 kinematic fails.
Decay_Handler_Base::~Decay_Handler_Base with 2 particles not on their mass shell.

The MCnet usage guidelines apply to Rivet: see http://www.montecarlonet.org/GUIDELINES
Please acknowledge Rivet in results made using it, and cite https://arxiv.org/abs/1912.05451
Remnant handling yields 5 fails in creating good beam breakups.
Remnant Kinematics: 5 errors (no kinematics found) and
                    1 warnings (scale kt down by factor of 10).
Time: 3h 29m 6s on Tue Feb 27 20:23:53 2024
 (User: 3h 27m 31s, System: 0s, Children User: 0s, Children System: 0s)
