# BEGIN PLOT
Legend=1
LogY=1
Title=Cross section as a function of $x_{obs}^{\gamma}$
XLabel=$x_{obs}^{\gamma}$
YLabel=$\mathrm{d}\sigma/\mathrm{d}x_{obs}^{\gamma}$(pb)
CustomLegend=Four-jets ($\mathrm{M}_{4j} \geq 50$ GeV)
DrawOnly=/ZEUS_2007_I756660/d04-x01-y02 //home/narendran/Documents/CEDAR_stuff2/sherpa-runs-photon-pdfs/ZEUS_2007/ZEUS_2007_direct.yoda.gz/ZEUS_2007_I756660/d04-x01-y02 //home/narendran/Documents/CEDAR_stuff2/sherpa-runs-photon-pdfs/ZEUS_2007/ZEUS_2007_merged.yoda.gz/ZEUS_2007_I756660/d04-x01-y02 //home/narendran/Documents/CEDAR_stuff2/sherpa-runs-photon-pdfs/ZEUS_2007/ZEUS_2007_resolved.yoda.gz/ZEUS_2007_I756660/d04-x01-y02
LegendOnly=/ZEUS_2007_I756660/d04-x01-y02 //home/narendran/Documents/CEDAR_stuff2/sherpa-runs-photon-pdfs/ZEUS_2007/ZEUS_2007_direct.yoda.gz/ZEUS_2007_I756660/d04-x01-y02 //home/narendran/Documents/CEDAR_stuff2/sherpa-runs-photon-pdfs/ZEUS_2007/ZEUS_2007_merged.yoda.gz/ZEUS_2007_I756660/d04-x01-y02 //home/narendran/Documents/CEDAR_stuff2/sherpa-runs-photon-pdfs/ZEUS_2007/ZEUS_2007_resolved.yoda.gz/ZEUS_2007_I756660/d04-x01-y02
RatioPlot=1
RatioPlotReference=/ZEUS_2007_I756660/d04-x01-y02
# END PLOT

# BEGIN HISTO1D /ZEUS_2007_I756660/d04-x01-y02
ConnectBins=0
ErrorBars=1
IsRef=1
Path=/ZEUS_2007_I756660/d04-x01-y02
PolyMarker=*
Title=Data
# xlow	 xhigh	 val	 errminus	 errplus
1.100000e-01	2.200000e-01	4.000000e-01	3.464102e-01	2.317326e+00
2.200000e-01	3.300000e-01	2.500000e+01	1.513275e+01	1.676305e+01
3.300000e-01	4.700000e-01	6.400000e+01	2.567100e+01	2.839014e+01
4.700000e-01	6.200000e-01	1.030000e+02	3.563706e+01	3.234192e+01
6.200000e-01	7.500000e-01	1.260000e+02	3.214032e+01	2.794638e+01
7.500000e-01	8.500000e-01	1.700000e+02	3.646917e+01	3.952215e+01
8.500000e-01	9.350000e-01	3.070000e+02	5.374942e+01	5.300943e+01
9.350000e-01	1.000000e+00	1.220000e+02	3.798684e+01	6.953416e+01
# END HISTO1D


# BEGIN HISTO1D //home/narendran/Documents/CEDAR_stuff2/sherpa-runs-photon-pdfs/ZEUS_2007/ZEUS_2007_direct.yoda.gz/ZEUS_2007_I756660/d04-x01-y02
LineColor=red
LineStyle=solid
Path=//home/narendran/Documents/CEDAR_stuff2/sherpa-runs-photon-pdfs/ZEUS_2007/ZEUS_2007_direct.yoda.gz/ZEUS_2007_I756660/d04-x01-y02
ScaledBy=2.90294232496366740e-08
Title=ZEUS_2007_direct
# xlow	 xhigh	 val	 errminus	 errplus
1.100000e-01	2.200000e-01	9.252391e-03	4.121027e-03	4.121027e-03
2.200000e-01	3.300000e-01	4.083542e-01	8.176025e-02	8.176025e-02
3.300000e-01	4.700000e-01	1.321339e+00	1.485411e-01	1.485411e-01
4.700000e-01	6.200000e-01	4.131454e+00	7.234857e-01	7.234857e-01
6.200000e-01	7.500000e-01	8.262769e+00	5.234121e-01	5.234121e-01
7.500000e-01	8.500000e-01	2.224903e+01	8.134180e-01	8.134180e-01
8.500000e-01	9.350000e-01	6.420646e+01	1.980266e+00	1.980266e+00
9.350000e-01	1.000000e+00	4.339243e+01	1.367984e+00	1.367984e+00
# END HISTO1D


# BEGIN HISTO1D //home/narendran/Documents/CEDAR_stuff2/sherpa-runs-photon-pdfs/ZEUS_2007/ZEUS_2007_merged.yoda.gz/ZEUS_2007_I756660/d04-x01-y02
LineColor=blue
LineStyle=solid
Path=//home/narendran/Documents/CEDAR_stuff2/sherpa-runs-photon-pdfs/ZEUS_2007/ZEUS_2007_merged.yoda.gz/ZEUS_2007_I756660/d04-x01-y02
ScaledBy=1.94713482939531340e-08
Title=ZEUS_2007_merged
# xlow	 xhigh	 val	 errminus	 errplus
1.100000e-01	2.200000e-01	9.323136e-01	3.845017e-01	3.845017e-01
2.200000e-01	3.300000e-01	6.915534e+00	9.089653e-01	9.089653e-01
3.300000e-01	4.700000e-01	1.542163e+01	1.271186e+00	1.271186e+00
4.700000e-01	6.200000e-01	2.826235e+01	1.608564e+00	1.608564e+00
6.200000e-01	7.500000e-01	3.997668e+01	2.174036e+00	2.174036e+00
7.500000e-01	8.500000e-01	5.728686e+01	4.787000e+00	4.787000e+00
8.500000e-01	9.350000e-01	9.227193e+01	4.204481e+00	4.204481e+00
9.350000e-01	1.000000e+00	5.541551e+01	2.937024e+00	2.937024e+00
# END HISTO1D


# BEGIN HISTO1D //home/narendran/Documents/CEDAR_stuff2/sherpa-runs-photon-pdfs/ZEUS_2007/ZEUS_2007_resolved.yoda.gz/ZEUS_2007_I756660/d04-x01-y02
LineColor=green
LineStyle=solid
Path=//home/narendran/Documents/CEDAR_stuff2/sherpa-runs-photon-pdfs/ZEUS_2007/ZEUS_2007_resolved.yoda.gz/ZEUS_2007_I756660/d04-x01-y02
ScaledBy=1.80320041079587930e-08
Title=ZEUS_2007_resolved
# xlow	 xhigh	 val	 errminus	 errplus
1.100000e-01	2.200000e-01	9.230618e-01	3.844797e-01	3.844797e-01
2.200000e-01	3.300000e-01	6.507180e+00	9.052808e-01	9.052808e-01
3.300000e-01	4.700000e-01	1.410029e+01	1.262477e+00	1.262477e+00
4.700000e-01	6.200000e-01	2.413090e+01	1.436679e+00	1.436679e+00
6.200000e-01	7.500000e-01	3.171392e+01	2.110089e+00	2.110089e+00
7.500000e-01	8.500000e-01	3.503784e+01	4.717385e+00	4.717385e+00
8.500000e-01	9.350000e-01	2.806549e+01	3.708937e+00	3.708937e+00
9.350000e-01	1.000000e+00	1.202310e+01	2.598986e+00	2.598986e+00
# END HISTO1D

