# BEGIN PLOT
Legend=1
LogY=1
Title=Cross section as a function of $y$
XLabel=$y$
YLabel=$\mathrm{d}\sigma/\mathrm{d}y$(pb)
CustomLegend=Three-jets ($\mathrm{M}_{3j} \geq 50$ GeV)
DrawOnly=/ZEUS_2007_I756660/d05-x01-y02 //home/narendran/Documents/CEDAR_stuff2/sherpa-runs-photon-pdfs/ZEUS_2007/ZEUS_2007_direct.yoda.gz/ZEUS_2007_I756660/d05-x01-y02 //home/narendran/Documents/CEDAR_stuff2/sherpa-runs-photon-pdfs/ZEUS_2007/ZEUS_2007_merged.yoda.gz/ZEUS_2007_I756660/d05-x01-y02 //home/narendran/Documents/CEDAR_stuff2/sherpa-runs-photon-pdfs/ZEUS_2007/ZEUS_2007_resolved.yoda.gz/ZEUS_2007_I756660/d05-x01-y02
LegendOnly=/ZEUS_2007_I756660/d05-x01-y02 //home/narendran/Documents/CEDAR_stuff2/sherpa-runs-photon-pdfs/ZEUS_2007/ZEUS_2007_direct.yoda.gz/ZEUS_2007_I756660/d05-x01-y02 //home/narendran/Documents/CEDAR_stuff2/sherpa-runs-photon-pdfs/ZEUS_2007/ZEUS_2007_merged.yoda.gz/ZEUS_2007_I756660/d05-x01-y02 //home/narendran/Documents/CEDAR_stuff2/sherpa-runs-photon-pdfs/ZEUS_2007/ZEUS_2007_resolved.yoda.gz/ZEUS_2007_I756660/d05-x01-y02
RatioPlot=1
RatioPlotReference=/ZEUS_2007_I756660/d05-x01-y02
# END PLOT

# BEGIN HISTO1D /ZEUS_2007_I756660/d05-x01-y02
ConnectBins=0
ErrorBars=1
IsRef=1
Path=/ZEUS_2007_I756660/d05-x01-y02
PolyMarker=*
Title=Data
# xlow	 xhigh	 val	 errminus	 errplus
2.000000e-01	2.720000e-01	1.560000e+02	4.182105e+01	2.968164e+01
2.720000e-01	3.440000e-01	2.710000e+02	2.817801e+01	3.753665e+01
3.440000e-01	4.170000e-01	4.550000e+02	7.857481e+01	8.962700e+01
4.170000e-01	4.890000e-01	5.650000e+02	1.053850e+02	7.941033e+01
4.890000e-01	5.610000e-01	6.840000e+02	1.276597e+02	1.502964e+02
5.610000e-01	6.330000e-01	7.680000e+02	1.545671e+02	1.380254e+02
6.330000e-01	7.060000e-01	9.050000e+02	2.231524e+02	1.985875e+02
7.060000e-01	7.780000e-01	9.610000e+02	2.354358e+02	2.310736e+02
7.780000e-01	8.500000e-01	1.058000e+03	2.594841e+02	2.902361e+02
# END HISTO1D


# BEGIN HISTO1D //home/narendran/Documents/CEDAR_stuff2/sherpa-runs-photon-pdfs/ZEUS_2007/ZEUS_2007_direct.yoda.gz/ZEUS_2007_I756660/d05-x01-y02
LineColor=red
LineStyle=solid
Path=//home/narendran/Documents/CEDAR_stuff2/sherpa-runs-photon-pdfs/ZEUS_2007/ZEUS_2007_direct.yoda.gz/ZEUS_2007_I756660/d05-x01-y02
ScaledBy=2.90294232496366740e-08
Title=ZEUS_2007_direct
# xlow	 xhigh	 val	 errminus	 errplus
2.000000e-01	2.720000e-01	3.151196e+01	1.754748e+00	1.754748e+00
2.720000e-01	3.440000e-01	5.597504e+01	1.333023e+00	1.333023e+00
3.440000e-01	4.170000e-01	7.976462e+01	1.985661e+00	1.985661e+00
4.170000e-01	4.890000e-01	1.033456e+02	2.186733e+00	2.186733e+00
4.890000e-01	5.610000e-01	1.188493e+02	4.876640e+00	4.876640e+00
5.610000e-01	6.330000e-01	1.228584e+02	2.489983e+00	2.489983e+00
6.330000e-01	7.060000e-01	1.274556e+02	2.629377e+00	2.629377e+00
7.060000e-01	7.780000e-01	1.312616e+02	2.328332e+00	2.328332e+00
7.780000e-01	8.500000e-01	1.328406e+02	2.391461e+00	2.391461e+00
# END HISTO1D


# BEGIN HISTO1D //home/narendran/Documents/CEDAR_stuff2/sherpa-runs-photon-pdfs/ZEUS_2007/ZEUS_2007_merged.yoda.gz/ZEUS_2007_I756660/d05-x01-y02
LineColor=blue
LineStyle=solid
Path=//home/narendran/Documents/CEDAR_stuff2/sherpa-runs-photon-pdfs/ZEUS_2007/ZEUS_2007_merged.yoda.gz/ZEUS_2007_I756660/d05-x01-y02
ScaledBy=1.94713482939531340e-08
Title=ZEUS_2007_merged
# xlow	 xhigh	 val	 errminus	 errplus
2.000000e-01	2.720000e-01	4.038106e+01	2.005441e+00	2.005441e+00
2.720000e-01	3.440000e-01	8.653210e+01	2.835546e+00	2.835546e+00
3.440000e-01	4.170000e-01	1.443137e+02	4.827052e+00	4.827052e+00
4.170000e-01	4.890000e-01	2.148567e+02	5.941817e+00	5.941817e+00
4.890000e-01	5.610000e-01	2.825197e+02	8.893786e+00	8.893786e+00
5.610000e-01	6.330000e-01	3.489385e+02	1.025256e+01	1.025256e+01
6.330000e-01	7.060000e-01	3.638695e+02	9.545423e+00	9.545423e+00
7.060000e-01	7.780000e-01	4.112675e+02	1.114147e+01	1.114147e+01
7.780000e-01	8.500000e-01	4.514796e+02	1.328804e+01	1.328804e+01
# END HISTO1D


# BEGIN HISTO1D //home/narendran/Documents/CEDAR_stuff2/sherpa-runs-photon-pdfs/ZEUS_2007/ZEUS_2007_resolved.yoda.gz/ZEUS_2007_I756660/d05-x01-y02
LineColor=green
LineStyle=solid
Path=//home/narendran/Documents/CEDAR_stuff2/sherpa-runs-photon-pdfs/ZEUS_2007/ZEUS_2007_resolved.yoda.gz/ZEUS_2007_I756660/d05-x01-y02
ScaledBy=1.80320041079587930e-08
Title=ZEUS_2007_resolved
# xlow	 xhigh	 val	 errminus	 errplus
2.000000e-01	2.720000e-01	8.869115e+00	9.709044e-01	9.709044e-01
2.720000e-01	3.440000e-01	3.055707e+01	2.502673e+00	2.502673e+00
3.440000e-01	4.170000e-01	6.454910e+01	4.399726e+00	4.399726e+00
4.170000e-01	4.890000e-01	1.115111e+02	5.524799e+00	5.524799e+00
4.890000e-01	5.610000e-01	1.636704e+02	7.437597e+00	7.437597e+00
5.610000e-01	6.330000e-01	2.260801e+02	9.945600e+00	9.945600e+00
6.330000e-01	7.060000e-01	2.364138e+02	9.176138e+00	9.176138e+00
7.060000e-01	7.780000e-01	2.800060e+02	1.089546e+01	1.089546e+01
7.780000e-01	8.500000e-01	3.186390e+02	1.307107e+01	1.307107e+01
# END HISTO1D

