# BEGIN PLOT
Legend=1
LogY=1
Title=Cross section as a function of $\mathrm{E}_{\mathrm{T}}^{\mathrm{jet2}}$
XLabel=$\mathrm{E}_{\mathrm{T}}^{\mathrm{jet2}}$ (GeV)
YLabel=$\mathrm{d}\sigma/\mathrm{d}\mathrm{E}_{\mathrm{T}}^{\mathrm{jet2}}$(pb/GeV)
CustomLegend=Three-jets ($25 \leq \mathrm{M}_{3j} \leq 50$ GeV)
DrawOnly=/ZEUS_2007_I756660/d08-x01-y01 //home/narendran/Documents/CEDAR_stuff2/sherpa-runs-photon-pdfs/ZEUS_2007/ZEUS_2007_direct.yoda.gz/ZEUS_2007_I756660/d08-x01-y01 //home/narendran/Documents/CEDAR_stuff2/sherpa-runs-photon-pdfs/ZEUS_2007/ZEUS_2007_merged.yoda.gz/ZEUS_2007_I756660/d08-x01-y01 //home/narendran/Documents/CEDAR_stuff2/sherpa-runs-photon-pdfs/ZEUS_2007/ZEUS_2007_resolved.yoda.gz/ZEUS_2007_I756660/d08-x01-y01
LegendOnly=/ZEUS_2007_I756660/d08-x01-y01 //home/narendran/Documents/CEDAR_stuff2/sherpa-runs-photon-pdfs/ZEUS_2007/ZEUS_2007_direct.yoda.gz/ZEUS_2007_I756660/d08-x01-y01 //home/narendran/Documents/CEDAR_stuff2/sherpa-runs-photon-pdfs/ZEUS_2007/ZEUS_2007_merged.yoda.gz/ZEUS_2007_I756660/d08-x01-y01 //home/narendran/Documents/CEDAR_stuff2/sherpa-runs-photon-pdfs/ZEUS_2007/ZEUS_2007_resolved.yoda.gz/ZEUS_2007_I756660/d08-x01-y01
RatioPlot=1
RatioPlotReference=/ZEUS_2007_I756660/d08-x01-y01
# END PLOT

# BEGIN HISTO1D /ZEUS_2007_I756660/d08-x01-y01
ConnectBins=0
ErrorBars=1
IsRef=1
Path=/ZEUS_2007_I756660/d08-x01-y01
PolyMarker=*
Title=Data
# xlow	 xhigh	 val	 errminus	 errplus
6.000000e+00	8.500000e+00	3.830000e+02	6.371028e+01	6.445153e+01
8.500000e+00	1.120000e+01	2.290000e+02	2.942788e+01	2.974895e+01
1.120000e+01	1.420000e+01	5.900000e+01	7.893035e+00	8.288546e+00
1.420000e+01	1.760000e+01	1.040000e+01	1.652271e+00	1.849324e+00
1.760000e+01	2.150000e+01	8.400000e-01	2.598076e-01	4.370355e-01
# END HISTO1D


# BEGIN HISTO1D //home/narendran/Documents/CEDAR_stuff2/sherpa-runs-photon-pdfs/ZEUS_2007/ZEUS_2007_direct.yoda.gz/ZEUS_2007_I756660/d08-x01-y01
LineColor=red
LineStyle=solid
Path=//home/narendran/Documents/CEDAR_stuff2/sherpa-runs-photon-pdfs/ZEUS_2007/ZEUS_2007_direct.yoda.gz/ZEUS_2007_I756660/d08-x01-y01
ScaledBy=2.90294232496366740e-08
Title=ZEUS_2007_direct
# xlow	 xhigh	 val	 errminus	 errplus
6.000000e+00	8.500000e+00	3.115686e+01	2.315853e-01	2.315853e-01
8.500000e+00	1.120000e+01	2.193440e+01	4.764414e-01	4.764414e-01
1.120000e+01	1.420000e+01	6.668443e+00	8.089867e-02	8.089867e-02
1.420000e+01	1.760000e+01	1.298776e+00	3.634479e-02	3.634479e-02
1.760000e+01	2.150000e+01	6.141613e-02	4.204708e-03	4.204708e-03
# END HISTO1D


# BEGIN HISTO1D //home/narendran/Documents/CEDAR_stuff2/sherpa-runs-photon-pdfs/ZEUS_2007/ZEUS_2007_merged.yoda.gz/ZEUS_2007_I756660/d08-x01-y01
LineColor=blue
LineStyle=solid
Path=//home/narendran/Documents/CEDAR_stuff2/sherpa-runs-photon-pdfs/ZEUS_2007/ZEUS_2007_merged.yoda.gz/ZEUS_2007_I756660/d08-x01-y01
ScaledBy=1.94713482939531340e-08
Title=ZEUS_2007_merged
# xlow	 xhigh	 val	 errminus	 errplus
6.000000e+00	8.500000e+00	1.377272e+02	1.462664e+00	1.462664e+00
8.500000e+00	1.120000e+01	7.747870e+01	9.884023e-01	9.884023e-01
1.120000e+01	1.420000e+01	1.944812e+01	3.232180e-01	3.232180e-01
1.420000e+01	1.760000e+01	2.962500e+00	9.458743e-02	9.458743e-02
1.760000e+01	2.150000e+01	1.081339e-01	9.791696e-03	9.791696e-03
# END HISTO1D


# BEGIN HISTO1D //home/narendran/Documents/CEDAR_stuff2/sherpa-runs-photon-pdfs/ZEUS_2007/ZEUS_2007_resolved.yoda.gz/ZEUS_2007_I756660/d08-x01-y01
LineColor=green
LineStyle=solid
Path=//home/narendran/Documents/CEDAR_stuff2/sherpa-runs-photon-pdfs/ZEUS_2007/ZEUS_2007_resolved.yoda.gz/ZEUS_2007_I756660/d08-x01-y01
ScaledBy=1.80320041079587930e-08
Title=ZEUS_2007_resolved
# xlow	 xhigh	 val	 errminus	 errplus
6.000000e+00	8.500000e+00	1.065704e+02	1.444214e+00	1.444214e+00
8.500000e+00	1.120000e+01	5.554433e+01	8.659923e-01	8.659923e-01
1.120000e+01	1.420000e+01	1.277968e+01	3.129302e-01	3.129302e-01
1.420000e+01	1.760000e+01	1.663724e+00	8.732608e-02	8.732608e-02
1.760000e+01	2.150000e+01	4.671777e-02	8.842950e-03	8.842950e-03
# END HISTO1D

