# BEGIN PLOT
Legend=1
LogY=1
DrawOnly=/ZEUS_2007_I756660/d14-x01-y01 //home/narendran/Documents/CEDAR_stuff2/sherpa-runs-photon-pdfs/ZEUS_2007/ZEUS_2007_direct_merged.yoda.gz/ZEUS_2007_I756660/d14-x01-y01 //home/narendran/Documents/CEDAR_stuff2/sherpa-runs-photon-pdfs/ZEUS_2007/ZEUS_2007_merged.yoda.gz/ZEUS_2007_I756660/d14-x01-y01 //home/narendran/Documents/CEDAR_stuff2/sherpa-runs-photon-pdfs/ZEUS_2007/ZEUS_2007_resolved_merged.yoda.gz/ZEUS_2007_I756660/d14-x01-y01
LegendOnly=/ZEUS_2007_I756660/d14-x01-y01 //home/narendran/Documents/CEDAR_stuff2/sherpa-runs-photon-pdfs/ZEUS_2007/ZEUS_2007_direct_merged.yoda.gz/ZEUS_2007_I756660/d14-x01-y01 //home/narendran/Documents/CEDAR_stuff2/sherpa-runs-photon-pdfs/ZEUS_2007/ZEUS_2007_merged.yoda.gz/ZEUS_2007_I756660/d14-x01-y01 //home/narendran/Documents/CEDAR_stuff2/sherpa-runs-photon-pdfs/ZEUS_2007/ZEUS_2007_resolved_merged.yoda.gz/ZEUS_2007_I756660/d14-x01-y01
RatioPlot=1
RatioPlotReference=/ZEUS_2007_I756660/d14-x01-y01
# END PLOT

# BEGIN HISTO1D /ZEUS_2007_I756660/d14-x01-y01
ConnectBins=0
ErrorBars=1
IsRef=1
Path=/ZEUS_2007_I756660/d14-x01-y01
PolyMarker=*
Title=Data
# xlow	 xhigh	 val	 errminus	 errplus
-1.686000e+00	-1.371000e+00	3.300000e+00	1.816590e+00	1.539480e+00
-1.371000e+00	-1.057000e+00	3.600000e+01	1.041057e+01	8.438602e+00
-1.057000e+00	-7.430000e-01	1.230000e+02	2.202272e+01	2.022375e+01
-7.430000e-01	-4.290000e-01	2.560000e+02	4.170132e+01	4.438468e+01
-4.290000e-01	-1.140000e-01	3.940000e+02	6.087693e+01	6.426508e+01
-1.140000e-01	2.000000e-01	5.060000e+02	8.115417e+01	8.429709e+01
2.000000e-01	5.140000e-01	6.000000e+02	9.205976e+01	9.420191e+01
5.140000e-01	8.290000e-01	6.530000e+02	9.354143e+01	9.862048e+01
8.290000e-01	1.143000e+00	6.310000e+02	9.056489e+01	9.336488e+01
1.143000e+00	1.457000e+00	5.560000e+02	9.254188e+01	9.575490e+01
1.457000e+00	1.771000e+00	5.730000e+02	9.869650e+01	1.029806e+02
1.771000e+00	2.086000e+00	6.970000e+02	1.330451e+02	1.416121e+02
2.086000e+00	2.400000e+00	7.900000e+02	2.147696e+02	2.147696e+02
# END HISTO1D


# BEGIN HISTO1D //home/narendran/Documents/CEDAR_stuff2/sherpa-runs-photon-pdfs/ZEUS_2007/ZEUS_2007_direct_merged.yoda.gz/ZEUS_2007_I756660/d14-x01-y01
LineColor=red
LineStyle=solid
Path=//home/narendran/Documents/CEDAR_stuff2/sherpa-runs-photon-pdfs/ZEUS_2007/ZEUS_2007_direct_merged.yoda.gz/ZEUS_2007_I756660/d14-x01-y01
ScaledBy=8.72042489960401284e-11
Title=ZEUS_2007_direct_merged
# xlow	 xhigh	 val	 errminus	 errplus
-1.686000e+00	-1.371000e+00	2.511221e-03	3.119773e-04	3.119773e-04
-1.371000e+00	-1.057000e+00	1.037744e-02	6.080298e-04	6.080298e-04
-1.057000e+00	-7.430000e-01	1.899558e-02	7.362948e-04	7.362948e-04
-7.430000e-01	-4.290000e-01	3.462080e-02	1.021246e-03	1.021246e-03
-4.290000e-01	-1.140000e-01	4.431190e-02	1.132922e-03	1.132922e-03
-1.140000e-01	2.000000e-01	5.901096e-02	1.371843e-03	1.371843e-03
2.000000e-01	5.140000e-01	6.855003e-02	1.409567e-03	1.409567e-03
5.140000e-01	8.290000e-01	6.790029e-02	1.357888e-03	1.357888e-03
8.290000e-01	1.143000e+00	6.176232e-02	1.334516e-03	1.334516e-03
1.143000e+00	1.457000e+00	5.294041e-02	1.295015e-03	1.295015e-03
1.457000e+00	1.771000e+00	5.249159e-02	1.317780e-03	1.317780e-03
1.771000e+00	2.086000e+00	3.608702e-02	1.157032e-03	1.157032e-03
2.086000e+00	2.400000e+00	2.441851e-02	9.767969e-04	9.767969e-04
# END HISTO1D


# BEGIN HISTO1D //home/narendran/Documents/CEDAR_stuff2/sherpa-runs-photon-pdfs/ZEUS_2007/ZEUS_2007_merged.yoda.gz/ZEUS_2007_I756660/d14-x01-y01
LineColor=blue
LineStyle=solid
Path=//home/narendran/Documents/CEDAR_stuff2/sherpa-runs-photon-pdfs/ZEUS_2007/ZEUS_2007_merged.yoda.gz/ZEUS_2007_I756660/d14-x01-y01
ScaledBy=5.84809392213027060e-11
Title=ZEUS_2007_merged
# xlow	 xhigh	 val	 errminus	 errplus
-1.686000e+00	-1.371000e+00	2.520188e-03	3.119902e-04	3.119902e-04
-1.371000e+00	-1.057000e+00	3.599656e-02	3.219959e-03	3.219959e-03
-1.057000e+00	-7.430000e-01	4.102854e-02	2.199984e-03	2.199984e-03
-7.430000e-01	-4.290000e-01	8.747557e-02	5.425550e-03	5.425550e-03
-4.290000e-01	-1.140000e-01	9.967181e-02	3.308553e-03	3.308553e-03
-1.140000e-01	2.000000e-01	1.462819e-01	5.103429e-03	5.103429e-03
2.000000e-01	5.140000e-01	1.891729e-01	7.158427e-03	7.158427e-03
5.140000e-01	8.290000e-01	1.737166e-01	4.839926e-03	4.839926e-03
8.290000e-01	1.143000e+00	2.319461e-01	7.370627e-03	7.370627e-03
1.143000e+00	1.457000e+00	2.691372e-01	8.461322e-03	8.461322e-03
1.457000e+00	1.771000e+00	2.782246e-01	7.893796e-03	7.893796e-03
1.771000e+00	2.086000e+00	3.169814e-01	1.464704e-02	1.464704e-02
2.086000e+00	2.400000e+00	2.020819e-01	7.631942e-03	7.631942e-03
# END HISTO1D


# BEGIN HISTO1D //home/narendran/Documents/CEDAR_stuff2/sherpa-runs-photon-pdfs/ZEUS_2007/ZEUS_2007_resolved_merged.yoda.gz/ZEUS_2007_I756660/d14-x01-y01
LineColor=green
LineStyle=solid
Path=//home/narendran/Documents/CEDAR_stuff2/sherpa-runs-photon-pdfs/ZEUS_2007/ZEUS_2007_resolved_merged.yoda.gz/ZEUS_2007_I756660/d14-x01-y01
ScaledBy=5.41748291545405329e-11
Title=ZEUS_2007_resolved_merged
# xlow	 xhigh	 val	 errminus	 errplus
-1.686000e+00	-1.371000e+00	8.966159e-06	2.835348e-06	2.835348e-06
-1.371000e+00	-1.057000e+00	2.561912e-02	3.162031e-03	3.162031e-03
-1.057000e+00	-7.430000e-01	2.203296e-02	2.073113e-03	2.073113e-03
-7.430000e-01	-4.290000e-01	5.285478e-02	5.328569e-03	5.328569e-03
-4.290000e-01	-1.140000e-01	5.535990e-02	3.108539e-03	3.108539e-03
-1.140000e-01	2.000000e-01	8.727099e-02	4.915591e-03	4.915591e-03
2.000000e-01	5.140000e-01	1.206229e-01	7.018276e-03	7.018276e-03
5.140000e-01	8.290000e-01	1.058163e-01	4.645538e-03	4.645538e-03
8.290000e-01	1.143000e+00	1.701837e-01	7.248808e-03	7.248808e-03
1.143000e+00	1.457000e+00	2.161967e-01	8.361633e-03	8.361633e-03
1.457000e+00	1.771000e+00	2.257331e-01	7.783024e-03	7.783024e-03
1.771000e+00	2.086000e+00	2.808944e-01	1.460127e-02	1.460127e-02
2.086000e+00	2.400000e+00	1.776634e-01	7.569175e-03	7.569175e-03
# END HISTO1D

