# BEGIN PLOT
Legend=1
LogY=1
DrawOnly=/ZEUS_2007_I756660/d16-x01-y02 //home/narendran/Documents/CEDAR_stuff2/sherpa-runs-photon-pdfs/ZEUS_2007/ZEUS_2007_direct_merged.yoda.gz/ZEUS_2007_I756660/d16-x01-y02 //home/narendran/Documents/CEDAR_stuff2/sherpa-runs-photon-pdfs/ZEUS_2007/ZEUS_2007_merged.yoda.gz/ZEUS_2007_I756660/d16-x01-y02 //home/narendran/Documents/CEDAR_stuff2/sherpa-runs-photon-pdfs/ZEUS_2007/ZEUS_2007_resolved_merged.yoda.gz/ZEUS_2007_I756660/d16-x01-y02
LegendOnly=/ZEUS_2007_I756660/d16-x01-y02 //home/narendran/Documents/CEDAR_stuff2/sherpa-runs-photon-pdfs/ZEUS_2007/ZEUS_2007_direct_merged.yoda.gz/ZEUS_2007_I756660/d16-x01-y02 //home/narendran/Documents/CEDAR_stuff2/sherpa-runs-photon-pdfs/ZEUS_2007/ZEUS_2007_merged.yoda.gz/ZEUS_2007_I756660/d16-x01-y02 //home/narendran/Documents/CEDAR_stuff2/sherpa-runs-photon-pdfs/ZEUS_2007/ZEUS_2007_resolved_merged.yoda.gz/ZEUS_2007_I756660/d16-x01-y02
RatioPlot=1
RatioPlotReference=/ZEUS_2007_I756660/d16-x01-y02
# END PLOT

# BEGIN HISTO1D /ZEUS_2007_I756660/d16-x01-y02
ConnectBins=0
ErrorBars=1
IsRef=1
Path=/ZEUS_2007_I756660/d16-x01-y02
PolyMarker=*
Title=Data
# xlow	 xhigh	 val	 errminus	 errplus
-2.000000e+00	-1.686000e+00	1.900000e+00	1.590597e+00	1.590597e+00
-1.686000e+00	-1.371000e+00	2.610000e+01	7.675285e+00	1.007720e+01
-1.371000e+00	-1.057000e+00	7.000000e+01	1.846619e+01	1.676305e+01
-1.057000e+00	-7.430000e-01	1.040000e+02	2.467793e+01	2.830194e+01
-7.430000e-01	-4.290000e-01	1.000000e+02	1.897367e+01	2.244994e+01
-4.290000e-01	-1.140000e-01	9.700000e+01	1.897367e+01	1.574802e+01
-1.140000e-01	2.000000e-01	9.200000e+01	1.652271e+01	1.500000e+01
2.000000e-01	5.140000e-01	8.900000e+01	1.760682e+01	2.111871e+01
5.140000e-01	8.290000e-01	9.800000e+01	1.951922e+01	2.034699e+01
8.290000e-01	1.143000e+00	9.500000e+01	1.732051e+01	1.897367e+01
1.143000e+00	1.457000e+00	8.900000e+01	1.574802e+01	1.500000e+01
1.457000e+00	1.771000e+00	1.030000e+02	1.931321e+01	2.009975e+01
1.771000e+00	2.086000e+00	1.380000e+02	2.657066e+01	2.736786e+01
2.086000e+00	2.400000e+00	2.220000e+02	5.270674e+01	4.809366e+01
# END HISTO1D


# BEGIN HISTO1D //home/narendran/Documents/CEDAR_stuff2/sherpa-runs-photon-pdfs/ZEUS_2007/ZEUS_2007_direct_merged.yoda.gz/ZEUS_2007_I756660/d16-x01-y02
LineColor=red
LineStyle=solid
Path=//home/narendran/Documents/CEDAR_stuff2/sherpa-runs-photon-pdfs/ZEUS_2007/ZEUS_2007_direct_merged.yoda.gz/ZEUS_2007_I756660/d16-x01-y02
ScaledBy=8.72042489960401284e-11
Title=ZEUS_2007_direct_merged
# xlow	 xhigh	 val	 errminus	 errplus
-2.000000e+00	-1.686000e+00	9.972185e-04	3.153481e-04	3.153481e-04
-1.686000e+00	-1.371000e+00	4.847117e-03	4.460193e-04	4.460193e-04
-1.371000e+00	-1.057000e+00	1.364635e-02	6.703282e-04	6.703282e-04
-1.057000e+00	-7.430000e-01	9.133099e-03	4.502671e-04	4.502671e-04
-7.430000e-01	-4.290000e-01	1.233462e-02	5.654048e-04	5.654048e-04
-4.290000e-01	-1.140000e-01	1.314398e-02	5.743510e-04	5.743510e-04
-1.140000e-01	2.000000e-01	1.401124e-02	5.497057e-04	5.497057e-04
2.000000e-01	5.140000e-01	1.667367e-02	7.549613e-04	7.549613e-04
5.140000e-01	8.290000e-01	1.670562e-02	6.289789e-04	6.289789e-04
8.290000e-01	1.143000e+00	1.521498e-02	5.904903e-04	5.904903e-04
1.143000e+00	1.457000e+00	3.424038e-02	6.560198e-03	6.560198e-03
1.457000e+00	1.771000e+00	1.582570e-02	5.328664e-04	5.328664e-04
1.771000e+00	2.086000e+00	2.248288e-02	7.684287e-04	7.684287e-04
2.086000e+00	2.400000e+00	2.733719e-02	1.178641e-03	1.178641e-03
# END HISTO1D


# BEGIN HISTO1D //home/narendran/Documents/CEDAR_stuff2/sherpa-runs-photon-pdfs/ZEUS_2007/ZEUS_2007_merged.yoda.gz/ZEUS_2007_I756660/d16-x01-y02
LineColor=blue
LineStyle=solid
Path=//home/narendran/Documents/CEDAR_stuff2/sherpa-runs-photon-pdfs/ZEUS_2007/ZEUS_2007_merged.yoda.gz/ZEUS_2007_I756660/d16-x01-y02
ScaledBy=5.84809392213027060e-11
Title=ZEUS_2007_merged
# xlow	 xhigh	 val	 errminus	 errplus
-2.000000e+00	-1.686000e+00	1.338465e-03	3.333006e-04	3.333006e-04
-1.686000e+00	-1.371000e+00	1.466040e-02	1.614217e-03	1.614217e-03
-1.371000e+00	-1.057000e+00	5.096315e-02	3.721816e-03	3.721816e-03
-1.057000e+00	-7.430000e-01	2.709276e-02	1.682819e-03	1.682819e-03
-7.430000e-01	-4.290000e-01	3.895898e-02	1.894239e-03	1.894239e-03
-4.290000e-01	-1.140000e-01	2.764677e-02	1.108380e-03	1.108380e-03
-1.140000e-01	2.000000e-01	3.435962e-02	1.320437e-03	1.320437e-03
2.000000e-01	5.140000e-01	3.061613e-02	1.034987e-03	1.034987e-03
5.140000e-01	8.290000e-01	4.222683e-02	2.784722e-03	2.784722e-03
8.290000e-01	1.143000e+00	3.199936e-02	1.384459e-03	1.384459e-03
1.143000e+00	1.457000e+00	5.602694e-02	6.798405e-03	6.798405e-03
1.457000e+00	1.771000e+00	4.222834e-02	1.847754e-03	1.847754e-03
1.771000e+00	2.086000e+00	5.800946e-02	2.249548e-03	2.249548e-03
2.086000e+00	2.400000e+00	8.510710e-02	4.493011e-03	4.493011e-03
# END HISTO1D


# BEGIN HISTO1D //home/narendran/Documents/CEDAR_stuff2/sherpa-runs-photon-pdfs/ZEUS_2007/ZEUS_2007_resolved_merged.yoda.gz/ZEUS_2007_I756660/d16-x01-y02
LineColor=green
LineStyle=solid
Path=//home/narendran/Documents/CEDAR_stuff2/sherpa-runs-photon-pdfs/ZEUS_2007/ZEUS_2007_resolved_merged.yoda.gz/ZEUS_2007_I756660/d16-x01-y02
ScaledBy=5.41748291545405329e-11
Title=ZEUS_2007_resolved_merged
# xlow	 xhigh	 val	 errminus	 errplus
-2.000000e+00	-1.686000e+00	3.412465e-04	1.079116e-04	1.079116e-04
-1.686000e+00	-1.371000e+00	9.813283e-03	1.551374e-03	1.551374e-03
-1.371000e+00	-1.057000e+00	3.731682e-02	3.660952e-03	3.660952e-03
-1.057000e+00	-7.430000e-01	1.795966e-02	1.621462e-03	1.621462e-03
-7.430000e-01	-4.290000e-01	2.662438e-02	1.807888e-03	1.807888e-03
-4.290000e-01	-1.140000e-01	1.450279e-02	9.479593e-04	9.479593e-04
-1.140000e-01	2.000000e-01	2.034839e-02	1.200574e-03	1.200574e-03
2.000000e-01	5.140000e-01	1.394246e-02	7.079778e-04	7.079778e-04
5.140000e-01	8.290000e-01	2.552119e-02	2.712759e-03	2.712759e-03
8.290000e-01	1.143000e+00	1.678438e-02	1.252218e-03	1.252218e-03
1.143000e+00	1.457000e+00	2.178654e-02	1.783849e-03	1.783849e-03
1.457000e+00	1.771000e+00	2.640264e-02	1.769250e-03	1.769250e-03
1.771000e+00	2.086000e+00	3.552660e-02	2.114234e-03	2.114234e-03
2.086000e+00	2.400000e+00	5.776990e-02	4.335661e-03	4.335661e-03
# END HISTO1D

