[1m[31mInvalid input[0m[1m thrown[0m:
[31mSherpo.yaml could not be opened.[0m
[1mTerminator_Object_Handler::Exit: [0m[34mExiting Sherpa with code [0m[1m([31m1[0m[1m)[0m[?25h
[1m[31mInvalid input[0m[1m thrown[0m:
[31mSherpa.yaml could not be opened.[0m
[1mTerminator_Object_Handler::Exit: [0m[34mExiting Sherpa with code [0m[1m([31m1[0m[1m)[0m[?25h
Welcome to Sherpa, Vithyaban Narendran on pplxwn023.physics.ox.ac.uk. Initialization of framework underway.
The local time is Tue Jan 30 17:16:15 2024.
Run_Parameter::Init(): Setting memory limit to 1007.01 GB.
Random::SetSeed(): Seed set to 1234
-----------------------------------------------------------------------------
-----------    Event generation run with SHERPA started .......   -----------
-----------------------------------------------------------------------------
................................................ |       +                   
................................................ ||  |       +  +            
...................................        ....  | |         /   +           
................. ................   _,_ |  ....  ||         +|  +  +        
...............................  __.'  ,\|  ...  ||    /    +|          +    
.............................. (  \    \   ...  | |  |   + + \         +   
.............................  (    \   -/  .... ||       +    |          +  
........ ...................  <S   /()))))~~~~~~~~##     +     /\    +       
............................ (!H   (~~)))))~~~~~~#/     +  +    |  +         
................ ........... (!E   (~~~)))))     /|/    +         +          
............................ (!R   (~~~)))))   |||   + +            +        
..... ...................... (!P    (~~~~)))   /|  + +          +            
............................ (!A>    (~~~~~~~~~##        + +        +        
............................. ~~(!    '~~~~~~~ \       +     + +      +      
...............................  `~~~QQQQQDb //   |         + + +        +   
........................ ..........   IDDDDP||     \  + + + + +             +
....................................  IDDDI||       \                      + 
.................................... IHD HD||         \ + +  + + + + +      +
...................................  IHD ##|            :-) + +\          +  
......... ............... ......... IHI ## /      /   +  + + + +\       +    
................................... IHI/ /       /      + + + +        +     
................................... ## | | /    / + +      + + /      +      
....................... /TT\ .....  ##/ ///  / + + + + + + +/       +        
......................./TTT/T\ ... /TT\/\\\ / + + + + + + +/   \         +   
....................../TTT/TTTT\...|TT/T\\\/   +    ++  + /              
-----------------------------------------------------------------------------

     SHERPA version 3.0.0beta1 (Dhaulagiri)
                                                                             
     Authors:        Enrico Bothmann, Stefan Hoeche, Frank Krauss,           
                     Silvan Kuttimalai, Marek Schoenherr, Holger Schulz,     
                     Steffen Schumann, Frank Siegert, Korinna Zapp           
     Former Authors: Timo Fischer, Tanju Gleisberg, Hendrik Hoeth,           
                     Ralf Kuhn, Thomas Laubrich, Andreas Schaelicke,         
                     Jan Winter                                              
                                                                             
     This program uses a lot of genuine and original research work           
     by other people. Users are encouraged to refer to                       
     the various original publications.                                      
                                                                             
     Users are kindly asked to refer to the documentation                    
     published under JHEP 02(2009)007                                        
                                                                             
     Please visit also our homepage                                          
                                                                             
       http://sherpa.hepforge.org                                            
                                                                             
     for news, bugreports, updates and new releases.                         
                                                                             
-----------------------------------------------------------------------------
WARNING: You are using an unsupported development branch.
Git branch photon-pdf-fitting, revision cbce34ae4e06c58e8cfd6012e9ecf6e43a03c86e.
Hadron_Init::Init(): Initializing kf table for hadrons.
Beam_Spectra_Handler: type = Collider Setup
    for no_particle (on = 0, p = (0,0,0,-nan))
    and no_particle (on = 0, p = (0,0,0,-nan)).
ISR handling:
    PDFs for hard scattering:              NoneNone
    PDFs for multiple parton interactions: NoneNone
Remnant_Handlers:
    hard process: no_particle: Intact + no_particle: Intact
Standard_Model::FixEWParameters() {
  Input scheme: Gmu
                Gmu scheme, input: GF, m_W, m_Z, m_h, widths
  Ren. scheme:  Gmu
                
  Parameters:   sin^2(\theta_W) = 0.222928 - 0.00110708 i
                vev             = 246.218
}
Running_AlphaQED::PrintSummary() {
  Setting \alpha according to EW scheme
  1/\alpha(0)   = 137.036
  1/\alpha(def) = 132.168
}
One_Running_AlphaS::PrintSummary() {
  Setting \alpha_s according to user input
  perturbative order 2
  \alpha_s(M_Z) = 0.118
}
One_Running_AlphaS::PrintSummary() {
  Setting \alpha_s according to user input
  perturbative order 2
  \alpha_s(M_Z) = 0.118
}
List of Particle Data 
     IDName     kfc            Mass           Width   Stable  Massive   Active          Yukawa
          d       1            0.01               0        1        0        1               0
          u       2           0.005               0        1        0        1               0
          s       3             0.2               0        1        0        1               0
          c       4            1.42               0        1        0        1               0
          b       5            4.92               0        1        0        1               0
          t       6          173.21             1.5        0        1        1          173.21
         e-      11        0.000511               0        1        0        1               0
         ve      12               0               0        1        0        1               0
        mu-      13           0.105               0        1        0        1               0
        vmu      14               0               0        1        0        1               0
       tau-      15           1.777     2.26735e-12        0        0        1               0
       vtau      16               0               0        1        0        1               0
          G      21               0               0        1        0        1               0
          P      22               0               0        1        0        1               0
          Z      23         91.1876          2.4952        0        1        1         91.1876
         W+      24          80.385           2.085        0        1        1          80.385
         h0      25             125         0.00407        0        1        1             125
     string      95               0               0        1        0        1               0
    cluster      96               0               0        1        0        1               0
  Instanton     999               0               0        0        0        1               0
List of Particle Containers 
     IDName     kfc     Constituents
          l      90     {e-,e+,mu-,mu+,tau-,tau+}
          v      91     {ve,veb,vmu,vmub,vtau,vtaub}
          f      92     {d,db,u,ub,s,sb,c,cb,b,bb,e-,e+,mu-,mu+,tau-,tau+,ve,veb,vmu,vmub,vtau,vtaub}
          j      93     {d,db,u,ub,s,sb,c,cb,b,bb,G}
          Q      94     {d,db,u,ub,s,sb,c,cb,b,bb}
        ewj      98     {d,db,u,ub,s,sb,c,cb,b,bb,G,P}
Shower_Handler initialised.

+-----------------------------------------+
|   X   X   X XXXX  XXX  XXX  XXX         |
|  X X  XX XX X    X      X  X     X   X  |
| X   X X X X XXX  X XXX  X  X    XXX XXX |
| XXXXX X   X X    X   X  X  X     X   X  |
| X   X X   X XXXX  XXX  XXX  XXX         |
+-----------------------------------------+
| please cite: JHEP 0202:044,2002         |
+-----------------------------------------+
Matrix_Element_Handler::Matrix_Element_Handler(): Set pilot run mode to 1.
ME_Generator_Base::SetPSMasses(): Massive PS flavours for Comix: (c,cb,b,bb,e-,e+,mu-,mu+,tau-,tau+)
+----------------------------------+
|                                  |
|      [31mCCC[0m  [32mOOO[0m  [34mM[0m   [34mM[0m I [33mX[0m   [33mX[0m     |
|     [31mC[0m    [32mO[0m   [32mO[0m [34mMM[0m [34mMM[0m I  [33mX[0m [33mX[0m      |
|     [31mC[0m    [32mO[0m   [32mO[0m [34mM[0m [34mM[0m [34mM[0m I   [33mX[0m       |
|     [31mC[0m    [32mO[0m   [32mO[0m [34mM[0m   [34mM[0m I  [33mX[0m [33mX[0m      |
|      [31mCCC[0m  [32mOOO[0m  [34mM[0m   [34mM[0m I [33mX[0m   [33mX[0m     |
|                                  |
+==================================+
|  Color dressed  Matrix Elements  |
|     http://comix.freacafe.de     |
|   please cite  JHEP12(2008)039   |
+----------------------------------+
ME_Generator_Base::SetPSMasses(): Massive PS flavours for Amegic: (c,cb,b,bb,e-,e+,mu-,mu+,tau-,tau+)
ME_Generator_Base::SetPSMasses(): Massive PS flavours for Internal: (c,cb,b,bb,e-,e+,mu-,mu+,tau-,tau+)
Matrix_Element_Handler::BuildProcesses(): 3 ME generators, 0 process blocks.
Matrix_Element_Handler::BuildProcesses(): Setting up processes 
[1m[31mMissing input[0m[1m thrown[0m:
[31mMissing PROCESSES definition.

A valid PROCESSES example is:

PROCESSES:
- 93 93 -> 11 -11:
    Order: {QCD: 0, EW: 2}
    Print_Graphs: Graphs
- 93 93 -> 13 -13:
    Order: {QCD: 0, EW: 2}

This defines two processes, each with some process-specific settings.
Note that the process-specific settings must be indented with respect
to the first character of the process specification. See the "Processes"
section in the manual for a more detailed description.
[0m
WARNING: You are using an unsupported development branch.
------------------------------------------------------------------------
[1mPlease cite the publications listed in '[31mReferences.tex[0m[1m'.[0m
  Extract the bibtex list by running 'get_bibtex References.tex'
  or email the file to 'slaclib2@slac.stanford.edu', subject 'generate'.
------------------------------------------------------------------------
[1mTerminator_Object_Handler::Exit: [0m[34mExiting Sherpa with code [0m[1m([31m1[0m[1m)[0m[?25h
