Welcome to Sherpa, Vithyaban Narendran on pplxwn025.physics.ox.ac.uk. Initialization of framework underway.
The local time is Wed Jan 31 02:12:20 2024.
Run_Parameter::Init(): Setting memory limit to 1007.01 GB.
Random::SetSeed(): Seed set to 1234
-----------------------------------------------------------------------------
-----------    Event generation run with SHERPA started .......   -----------
-----------------------------------------------------------------------------
................................................ |       +                   
................................................ ||  |       +  +            
...................................        ....  | |         /   +           
................. ................   _,_ |  ....  ||         +|  +  +        
...............................  __.'  ,\|  ...  ||    /    +|          +    
.............................. (  \    \   ...  | |  |   + + \         +   
.............................  (    \   -/  .... ||       +    |          +  
........ ...................  <S   /()))))~~~~~~~~##     +     /\    +       
............................ (!H   (~~)))))~~~~~~#/     +  +    |  +         
................ ........... (!E   (~~~)))))     /|/    +         +          
............................ (!R   (~~~)))))   |||   + +            +        
..... ...................... (!P    (~~~~)))   /|  + +          +            
............................ (!A>    (~~~~~~~~~##        + +        +        
............................. ~~(!    '~~~~~~~ \       +     + +      +      
...............................  `~~~QQQQQDb //   |         + + +        +   
........................ ..........   IDDDDP||     \  + + + + +             +
....................................  IDDDI||       \                      + 
.................................... IHD HD||         \ + +  + + + + +      +
...................................  IHD ##|            :-) + +\          +  
......... ............... ......... IHI ## /      /   +  + + + +\       +    
................................... IHI/ /       /      + + + +        +     
................................... ## | | /    / + +      + + /      +      
....................... /TT\ .....  ##/ ///  / + + + + + + +/       +        
......................./TTT/T\ ... /TT\/\\\ / + + + + + + +/   \         +   
....................../TTT/TTTT\...|TT/T\\\/   +    ++  + /              
-----------------------------------------------------------------------------

     SHERPA version 3.0.0beta1 (Dhaulagiri)
                                                                             
     Authors:        Enrico Bothmann, Stefan Hoeche, Frank Krauss,           
                     Silvan Kuttimalai, Marek Schoenherr, Holger Schulz,     
                     Steffen Schumann, Frank Siegert, Korinna Zapp           
     Former Authors: Timo Fischer, Tanju Gleisberg, Hendrik Hoeth,           
                     Ralf Kuhn, Thomas Laubrich, Andreas Schaelicke,         
                     Jan Winter                                              
                                                                             
     This program uses a lot of genuine and original research work           
     by other people. Users are encouraged to refer to                       
     the various original publications.                                      
                                                                             
     Users are kindly asked to refer to the documentation                    
     published under JHEP 02(2009)007                                        
                                                                             
     Please visit also our homepage                                          
                                                                             
       http://sherpa.hepforge.org                                            
                                                                             
     for news, bugreports, updates and new releases.                         
                                                                             
-----------------------------------------------------------------------------
WARNING: You are using an unsupported development branch.
Git branch photon-pdf-fitting, revision cbce34ae4e06c58e8cfd6012e9ecf6e43a03c86e.
Hadron_Init::Init(): Initializing kf table for hadrons.
Beam_Spectra_Handler: type = Collider Setup
    for e+ (on = 1, p = (27.6,0,0,27.6))
    and P+ (on = 1, p = (820,0,0,-819.999)).
ISR handling:
    PDFs for hard scattering:              FinalPDF + NNPDF31_nnlo_as_0118_proton
    PDFs for multiple parton interactions: None + PDF4LHC21_40_pdfas
Remnant_Handlers:
    hard process: P: Photon + P+: Hadron
Standard_Model::FixEWParameters() {
  Input scheme: Gmu
                Gmu scheme, input: GF, m_W, m_Z, m_h, widths
  Ren. scheme:  Gmu
                
  Parameters:   sin^2(\theta_W) = 0.222928 - 0.00110708 i
                vev             = 246.218
}
Running_AlphaQED::PrintSummary() {
  Setting \alpha according to EW scheme
  1/\alpha(0)   = 137.036
  1/\alpha(def) = 132.168
}
[1mOne_Running_AlphaS::One_Running_AlphaS(): [0m[31mOverriding \alpha_s information from PDF. Make sure you know what you are doing![0m
One_Running_AlphaS::PrintSummary() {
  Setting \alpha_s according to PDF
  perturbative order 1
  \alpha_s(M_Z) = 0.1188
}
[1mOne_Running_AlphaS::One_Running_AlphaS(): [0m[31mOverriding \alpha_s information from PDF. Make sure you know what you are doing![0m
One_Running_AlphaS::PrintSummary() {
  Setting \alpha_s according to PDF
  perturbative order 1
  \alpha_s(M_Z) = 0.1188
}
List of Particle Data 
     IDName     kfc            Mass           Width   Stable  Massive   Active          Yukawa
          d       1            0.01               0        1        0        1               0
          u       2           0.005               0        1        0        1               0
          s       3             0.2               0        1        0        1               0
          c       4            1.42               0        1        1        1            1.42
          b       5            4.92               0        1        1        1            4.92
          t       6          173.21             1.5        0        1        1          173.21
         e-      11        0.000511               0        1        0        1               0
         ve      12               0               0        1        0        1               0
        mu-      13           0.105               0        1        0        1               0
        vmu      14               0               0        1        0        1               0
       tau-      15           1.777     2.26735e-12        0        0        1               0
       vtau      16               0               0        1        0        1               0
          G      21               0               0        1        0        1               0
          P      22               0               0        1        0        1               0
          Z      23         91.1876          2.4952        0        1        1         91.1876
         W+      24          80.385           2.085        0        1        1          80.385
         h0      25             125         0.00407        0        1        1             125
     string      95               0               0        1        0        1               0
    cluster      96               0               0        1        0        1               0
  Instanton     999               0               0        0        0        1               0
List of Particle Containers 
     IDName     kfc     Constituents
          l      90     {e-,e+,mu-,mu+,tau-,tau+}
          v      91     {ve,veb,vmu,vmub,vtau,vtaub}
          f      92     {d,db,u,ub,s,sb,e-,e+,mu-,mu+,tau-,tau+,ve,veb,vmu,vmub,vtau,vtaub}
          j      93     {d,db,u,ub,s,sb,G}
          Q      94     {d,db,u,ub,s,sb}
        ewj      98     {d,db,u,ub,s,sb,G,P}
Shower_Handler initialised.

+-----------------------------------------+
|   X   X   X XXXX  XXX  XXX  XXX         |
|  X X  XX XX X    X      X  X     X   X  |
| X   X X X X XXX  X XXX  X  X    XXX XXX |
| XXXXX X   X X    X   X  X  X     X   X  |
| X   X X   X XXXX  XXX  XXX  XXX         |
+-----------------------------------------+
| please cite: JHEP 0202:044,2002         |
+-----------------------------------------+
Matrix_Element_Handler::Matrix_Element_Handler(): Set pilot run mode to 0.
ME_Generator_Base::SetPSMasses(): Massive PS flavours for Comix: (e-,e+,mu-,mu+,tau-,tau+)
+----------------------------------+
|                                  |
|      [31mCCC[0m  [32mOOO[0m  [34mM[0m   [34mM[0m I [33mX[0m   [33mX[0m     |
|     [31mC[0m    [32mO[0m   [32mO[0m [34mMM[0m [34mMM[0m I  [33mX[0m [33mX[0m      |
|     [31mC[0m    [32mO[0m   [32mO[0m [34mM[0m [34mM[0m [34mM[0m I   [33mX[0m       |
|     [31mC[0m    [32mO[0m   [32mO[0m [34mM[0m   [34mM[0m I  [33mX[0m [33mX[0m      |
|      [31mCCC[0m  [32mOOO[0m  [34mM[0m   [34mM[0m I [33mX[0m   [33mX[0m     |
|                                  |
+==================================+
|  Color dressed  Matrix Elements  |
|     http://comix.freacafe.de     |
|   please cite  JHEP12(2008)039   |
+----------------------------------+
ME_Generator_Base::SetPSMasses(): Massive PS flavours for Amegic: (e-,e+,mu-,mu+,tau-,tau+)
Matrix_Element_Handler::BuildProcesses(): 2 ME generators, 1 process blocks.
Matrix_Element_Handler::BuildProcesses(): Setting up processes .......................................... done ( 72 MB, 0s / 0s ).
Matrix_Element_Handler::InitializeProcesses(): Performing tests .......................................... done ( 72 MB, 0s / 0s ).
Matrix_Element_Handler::InitializeProcesses(): Initializing scales done ( 72 MB, 0s / 0s ).
Initialized the Matrix_Element_Handler for the hard processes.
Initialized the Beam_Remnant_Handler.
[1m[31mNormal exit[0m[1m thrown[0m:
[31mInitialization complete.[0m
WARNING: You are using an unsupported development branch.
------------------------------------------------------------------------
[1mPlease cite the publications listed in '[31mReferences.tex[0m[1m'.[0m
  Extract the bibtex list by running 'get_bibtex References.tex'
  or email the file to 'slaclib2@slac.stanford.edu', subject 'generate'.
------------------------------------------------------------------------
[1mTerminator_Object_Handler::Exit: [0m[34mExiting Sherpa with code [0m[1m([31m0[0m[1m)[0m[?25h
Thanks for using LHAPDF 6.5.4. Please make sure to cite the paper:
  Eur.Phys.J. C75 (2015) 3, 132  (http://arxiv.org/abs/1412.7420)
Welcome to Sherpa, Vithyaban Narendran on pplxwn025.physics.ox.ac.uk. Initialization of framework underway.
The local time is Wed Jan 31 02:12:21 2024.
Run_Parameter::Init(): Setting memory limit to 1007.01 GB.
Random::SetSeed(): Seed set to 1234
-----------------------------------------------------------------------------
-----------    Event generation run with SHERPA started .......   -----------
-----------------------------------------------------------------------------
................................................ |       +                   
................................................ ||  |       +  +            
...................................        ....  | |         /   +           
................. ................   _,_ |  ....  ||         +|  +  +        
...............................  __.'  ,\|  ...  ||    /    +|          +    
.............................. (  \    \   ...  | |  |   + + \         +   
.............................  (    \   -/  .... ||       +    |          +  
........ ...................  <S   /()))))~~~~~~~~##     +     /\    +       
............................ (!H   (~~)))))~~~~~~#/     +  +    |  +         
................ ........... (!E   (~~~)))))     /|/    +         +          
............................ (!R   (~~~)))))   |||   + +            +        
..... ...................... (!P    (~~~~)))   /|  + +          +            
............................ (!A>    (~~~~~~~~~##        + +        +        
............................. ~~(!    '~~~~~~~ \       +     + +      +      
...............................  `~~~QQQQQDb //   |         + + +        +   
........................ ..........   IDDDDP||     \  + + + + +             +
....................................  IDDDI||       \                      + 
.................................... IHD HD||         \ + +  + + + + +      +
...................................  IHD ##|            :-) + +\          +  
......... ............... ......... IHI ## /      /   +  + + + +\       +    
................................... IHI/ /       /      + + + +        +     
................................... ## | | /    / + +      + + /      +      
....................... /TT\ .....  ##/ ///  / + + + + + + +/       +        
......................./TTT/T\ ... /TT\/\\\ / + + + + + + +/   \         +   
....................../TTT/TTTT\...|TT/T\\\/   +    ++  + /              
-----------------------------------------------------------------------------

     SHERPA version 3.0.0beta1 (Dhaulagiri)
                                                                             
     Authors:        Enrico Bothmann, Stefan Hoeche, Frank Krauss,           
                     Silvan Kuttimalai, Marek Schoenherr, Holger Schulz,     
                     Steffen Schumann, Frank Siegert, Korinna Zapp           
     Former Authors: Timo Fischer, Tanju Gleisberg, Hendrik Hoeth,           
                     Ralf Kuhn, Thomas Laubrich, Andreas Schaelicke,         
                     Jan Winter                                              
                                                                             
     This program uses a lot of genuine and original research work           
     by other people. Users are encouraged to refer to                       
     the various original publications.                                      
                                                                             
     Users are kindly asked to refer to the documentation                    
     published under JHEP 02(2009)007                                        
                                                                             
     Please visit also our homepage                                          
                                                                             
       http://sherpa.hepforge.org                                            
                                                                             
     for news, bugreports, updates and new releases.                         
                                                                             
-----------------------------------------------------------------------------
WARNING: You are using an unsupported development branch.
Git branch photon-pdf-fitting, revision cbce34ae4e06c58e8cfd6012e9ecf6e43a03c86e.
Hadron_Init::Init(): Initializing kf table for hadrons.
Beam_Spectra_Handler: type = Collider Setup
    for e+ (on = 1, p = (27.6,0,0,27.6))
    and P+ (on = 1, p = (820,0,0,-819.999)).
ISR handling:
    PDFs for hard scattering:              FinalPDF + NNPDF31_nnlo_as_0118_proton
    PDFs for multiple parton interactions: None + PDF4LHC21_40_pdfas
Remnant_Handlers:
    hard process: P: Photon + P+: Hadron
Standard_Model::FixEWParameters() {
  Input scheme: Gmu
                Gmu scheme, input: GF, m_W, m_Z, m_h, widths
  Ren. scheme:  Gmu
                
  Parameters:   sin^2(\theta_W) = 0.222928 - 0.00110708 i
                vev             = 246.218
}
Running_AlphaQED::PrintSummary() {
  Setting \alpha according to EW scheme
  1/\alpha(0)   = 137.036
  1/\alpha(def) = 132.168
}
[1mOne_Running_AlphaS::One_Running_AlphaS(): [0m[31mOverriding \alpha_s information from PDF. Make sure you know what you are doing![0m
One_Running_AlphaS::PrintSummary() {
  Setting \alpha_s according to PDF
  perturbative order 1
  \alpha_s(M_Z) = 0.1188
}
[1mOne_Running_AlphaS::One_Running_AlphaS(): [0m[31mOverriding \alpha_s information from PDF. Make sure you know what you are doing![0m
One_Running_AlphaS::PrintSummary() {
  Setting \alpha_s according to PDF
  perturbative order 1
  \alpha_s(M_Z) = 0.1188
}
List of Particle Data 
     IDName     kfc            Mass           Width   Stable  Massive   Active          Yukawa
          d       1            0.01               0        1        0        1               0
          u       2           0.005               0        1        0        1               0
          s       3             0.2               0        1        0        1               0
          c       4            1.42               0        1        1        1            1.42
          b       5            4.92               0        1        1        1            4.92
          t       6          173.21             1.5        0        1        1          173.21
         e-      11        0.000511               0        1        0        1               0
         ve      12               0               0        1        0        1               0
        mu-      13           0.105               0        1        0        1               0
        vmu      14               0               0        1        0        1               0
       tau-      15           1.777     2.26735e-12        0        0        1               0
       vtau      16               0               0        1        0        1               0
          G      21               0               0        1        0        1               0
          P      22               0               0        1        0        1               0
          Z      23         91.1876          2.4952        0        1        1         91.1876
         W+      24          80.385           2.085        0        1        1          80.385
         h0      25             125         0.00407        0        1        1             125
     string      95               0               0        1        0        1               0
    cluster      96               0               0        1        0        1               0
  Instanton     999               0               0        0        0        1               0
List of Particle Containers 
     IDName     kfc     Constituents
          l      90     {e-,e+,mu-,mu+,tau-,tau+}
          v      91     {ve,veb,vmu,vmub,vtau,vtaub}
          f      92     {d,db,u,ub,s,sb,e-,e+,mu-,mu+,tau-,tau+,ve,veb,vmu,vmub,vtau,vtaub}
          j      93     {d,db,u,ub,s,sb,G}
          Q      94     {d,db,u,ub,s,sb}
        ewj      98     {d,db,u,ub,s,sb,G,P}
Shower_Handler initialised.

+-----------------------------------------+
|   X   X   X XXXX  XXX  XXX  XXX         |
|  X X  XX XX X    X      X  X     X   X  |
| X   X X X X XXX  X XXX  X  X    XXX XXX |
| XXXXX X   X X    X   X  X  X     X   X  |
| X   X X   X XXXX  XXX  XXX  XXX         |
+-----------------------------------------+
| please cite: JHEP 0202:044,2002         |
+-----------------------------------------+
Matrix_Element_Handler::Matrix_Element_Handler(): Set pilot run mode to 0.
ME_Generator_Base::SetPSMasses(): Massive PS flavours for Comix: (e-,e+,mu-,mu+,tau-,tau+)
+----------------------------------+
|                                  |
|      [31mCCC[0m  [32mOOO[0m  [34mM[0m   [34mM[0m I [33mX[0m   [33mX[0m     |
|     [31mC[0m    [32mO[0m   [32mO[0m [34mMM[0m [34mMM[0m I  [33mX[0m [33mX[0m      |
|     [31mC[0m    [32mO[0m   [32mO[0m [34mM[0m [34mM[0m [34mM[0m I   [33mX[0m       |
|     [31mC[0m    [32mO[0m   [32mO[0m [34mM[0m   [34mM[0m I  [33mX[0m [33mX[0m      |
|      [31mCCC[0m  [32mOOO[0m  [34mM[0m   [34mM[0m I [33mX[0m   [33mX[0m     |
|                                  |
+==================================+
|  Color dressed  Matrix Elements  |
|     http://comix.freacafe.de     |
|   please cite  JHEP12(2008)039   |
+----------------------------------+
ME_Generator_Base::SetPSMasses(): Massive PS flavours for Amegic: (e-,e+,mu-,mu+,tau-,tau+)
Matrix_Element_Handler::BuildProcesses(): 2 ME generators, 1 process blocks.
Matrix_Element_Handler::BuildProcesses(): Setting up processes .......................................... done ( 70 MB, 0s / 0s ).
Matrix_Element_Handler::InitializeProcesses(): Performing tests .......................................... done ( 70 MB, 0s / 0s ).
Matrix_Element_Handler::InitializeProcesses(): Initializing scales done ( 70 MB, 0s / 0s ).
Initialized the Matrix_Element_Handler for the hard processes.
Initialized the Beam_Remnant_Handler.
Beam_Channels::CheckForStructuresFromME for 0: (none)
ISR_Channels::CheckForStructuresFromME for 0: (none)
Process_Group::CalculateTotalXSec(): Calculate xs for '2_2__j__j__j__j' (Comix)
Integration parameters: n_{min} = 5000, N_{opt} = 10, N_{max} = 1, exponent = 0.5
Starting the calculation at 02:12:21. Lean back and enjoy ... .
[34m10840.3 pb[0m +- ( [31m759.707 pb = 7.0082 %[0m ) 5000 ( 12394 -> 40.3 % )
full optimization:  ( 1s elapsed / 1m 49s left ) [02:12:22]
[34m11491.4 pb[0m +- ( [31m1094.72 pb = 9.52649 %[0m ) 7071 ( 16692 -> 48.1 % )
full optimization:  ( 1s elapsed / 1m 47s left ) [02:12:23]
[34m11698.2 pb[0m +- ( [31m679.267 pb = 5.80659 %[0m ) 9999 ( 21008 -> 67.8 % )
full optimization:  ( 2s elapsed / 1m 55s left ) [02:12:24]
[34m11182.9 pb[0m +- ( [31m475.418 pb = 4.25131 %[0m ) 14140 ( 26768 -> 71.8 % )
full optimization:  ( 3s elapsed / 2m left ) [02:12:25]
[34m11167.1 pb[0m +- ( [31m326.237 pb = 2.92141 %[0m ) 19996 ( 36631 -> 59.3 % )
full optimization:  ( 4s elapsed / 1m 58s left ) [02:12:26]
[34m11080.9 pb[0m +- ( [31m230.965 pb = 2.08435 %[0m ) 28278 ( 51827 -> 54.5 % )
full optimization:  ( 6s elapsed / 2m 2s left ) [02:12:28]
[34m11190.4 pb[0m +- ( [31m171.149 pb = 1.52942 %[0m ) 39991 ( 76294 -> 47.8 % )
full optimization:  ( 9s elapsed / 2m left ) [02:12:31]
[34m11303 pb[0m +- ( [31m128.699 pb = 1.13863 %[0m ) 56555 ( 114809 -> 43 % )
full optimization:  ( 14s elapsed / 2m 2s left ) [02:12:36]
[34m11306.7 pb[0m +- ( [31m98.0124 pb = 0.866851 %[0m ) 79980 ( 175046 -> 38.8 % )
full optimization:  ( 21s elapsed / 2m 1s left ) [02:12:43]
[34m11238.4 pb[0m +- ( [31m75.7515 pb = 0.67404 %[0m ) 113108 ( 267825 -> 35.7 % )
full optimization:  ( 28s elapsed / 1m 48s left ) [02:12:50]
[34m11205.8 pb[0m +- ( [31m59.8162 pb = 0.533798 %[0m ) 159958 ( 408983 -> 33.1 % )
integration time:   ( 41s elapsed / 1m 36s left ) [02:13:03]
[1m2_2__j__j__j__j[0m : [34m[1m11205.8 pb[0m +- ( [31m59.8162 pb = 0.533798 %[0m ) [1m exp. eff: [31m0.275695 %[0m
  reduce max for 2_2__j__j__j__j to 1 ( eps = 0.001 -> exp. eff 0.00275695 ) 
Process_Group::CalculateTotalXSec(): Calculate xs for '2_2__j__j__c__cb' (Comix)
Integration parameters: n_{min} = 5000, N_{opt} = 10, N_{max} = 1, exponent = 0.5
Starting the calculation at 02:13:03. Lean back and enjoy ... .
[34m42.7176 pb[0m +- ( [31m2.97275 pb = 6.95909 %[0m ) 5000 ( 19696 -> 25.3 % )
full optimization:  ( 0s elapsed / 48s left ) [02:13:03]
[34m38.1951 pb[0m +- ( [31m3.32938 pb = 8.71678 %[0m ) 7071 ( 26273 -> 31.4 % )
full optimization:  ( 0s elapsed / 44s left ) [02:13:03]
[34m39.7352 pb[0m +- ( [31m2.09979 pb = 5.28446 %[0m ) 9999 ( 31443 -> 56.6 % )
full optimization:  ( 0s elapsed / 41s left ) [02:13:03]
[34m41.6114 pb[0m +- ( [31m1.48449 pb = 3.56749 %[0m ) 14140 ( 37497 -> 68.4 % )
full optimization:  ( 0s elapsed / 37s left ) [02:13:04]
[34m40.6465 pb[0m +- ( [31m1.02847 pb = 2.53028 %[0m ) 19996 ( 46612 -> 64.2 % )
full optimization:  ( 1s elapsed / 36s left ) [02:13:04]
[34m40.515 pb[0m +- ( [31m0.730894 pb = 1.80401 %[0m ) 28278 ( 59820 -> 62.7 % )
full optimization:  ( 1s elapsed / 36s left ) [02:13:05]
[34m40.5015 pb[0m +- ( [31m0.524135 pb = 1.29411 %[0m ) 39991 ( 79510 -> 59.4 % )
full optimization:  ( 2s elapsed / 35s left ) [02:13:05]
[34m40.4016 pb[0m +- ( [31m0.38498 pb = 0.952884 %[0m ) 56555 ( 108046 -> 58 % )
full optimization:  ( 3s elapsed / 34s left ) [02:13:07]
[34m40.3395 pb[0m +- ( [31m0.287301 pb = 0.712207 %[0m ) 79980 ( 150836 -> 54.7 % )
full optimization:  ( 5s elapsed / 28s left ) [02:13:08]
[34m40.4864 pb[0m +- ( [31m0.219586 pb = 0.542369 %[0m ) 113108 ( 213809 -> 52.6 % )
full optimization:  ( 6s elapsed / 24s left ) [02:13:09]
[34m40.5611 pb[0m +- ( [31m0.170717 pb = 0.42089 %[0m ) 159958 ( 306539 -> 50.5 % )
integration time:   ( 8s elapsed / 19s left ) [02:13:11]
[1m2_2__j__j__c__cb[0m : [34m[1m40.5611 pb[0m +- ( [31m0.170717 pb = 0.42089 %[0m ) [1m exp. eff: [31m1.25335 %[0m
  reduce max for 2_2__j__j__c__cb to 1 ( eps = 0.001 -> exp. eff 0.0125335 ) 
Process_Group::CalculateTotalXSec(): Calculate xs for '2_2__j__j__b__bb' (Comix)
Integration parameters: n_{min} = 5000, N_{opt} = 10, N_{max} = 1, exponent = 0.5
Starting the calculation at 02:13:11. Lean back and enjoy ... .
[34m34.7273 pb[0m +- ( [31m2.25115 pb = 6.48238 %[0m ) 5000 ( 17095 -> 29.2 % )
full optimization:  ( 0s elapsed / 23s left ) [02:13:11]
[34m32.8259 pb[0m +- ( [31m2.7212 pb = 8.2898 %[0m ) 7071 ( 22948 -> 35.3 % )
full optimization:  ( 0s elapsed / 24s left ) [02:13:11]
[34m34.3122 pb[0m +- ( [31m1.64919 pb = 4.80641 %[0m ) 9999 ( 28330 -> 54.4 % )
full optimization:  ( 0s elapsed / 23s left ) [02:13:11]
[34m34.8986 pb[0m +- ( [31m1.1189 pb = 3.20615 %[0m ) 14140 ( 35147 -> 60.7 % )
full optimization:  ( 0s elapsed / 22s left ) [02:13:12]
[34m34.3705 pb[0m +- ( [31m0.774085 pb = 2.25218 %[0m ) 19996 ( 45017 -> 59.3 % )
full optimization:  ( 0s elapsed / 21s left ) [02:13:12]
[34m33.8508 pb[0m +- ( [31m0.549394 pb = 1.62299 %[0m ) 28278 ( 59036 -> 59 % )
full optimization:  ( 1s elapsed / 24s left ) [02:13:12]
[34m34.1224 pb[0m +- ( [31m0.401194 pb = 1.17575 %[0m ) 39991 ( 79767 -> 56.4 % )
full optimization:  ( 2s elapsed / 26s left ) [02:13:13]
[34m33.9568 pb[0m +- ( [31m0.297423 pb = 0.875886 %[0m ) 56555 ( 110346 -> 54.1 % )
full optimization:  ( 3s elapsed / 25s left ) [02:13:14]
[34m33.9358 pb[0m +- ( [31m0.225635 pb = 0.664888 %[0m ) 79980 ( 155290 -> 52.1 % )
full optimization:  ( 4s elapsed / 22s left ) [02:13:15]
[34m33.9202 pb[0m +- ( [31m0.173825 pb = 0.512452 %[0m ) 113108 ( 222004 -> 49.6 % )
full optimization:  ( 5s elapsed / 20s left ) [02:13:16]
[34m33.8088 pb[0m +- ( [31m0.13592 pb = 0.402025 %[0m ) 159958 ( 320262 -> 47.6 % )
integration time:   ( 7s elapsed / 17s left ) [02:13:18]
[1m2_2__j__j__b__bb[0m : [34m[1m33.8088 pb[0m +- ( [31m0.13592 pb = 0.402025 %[0m ) [1m exp. eff: [31m1.11722 %[0m
  reduce max for 2_2__j__j__b__bb to 1 ( eps = 0.001 -> exp. eff 0.0111722 ) 
Beam_Channels::CheckForStructuresFromME for 0: (none)
ISR_Channels::CheckForStructuresFromME for 0: (none)
Process_Group::CalculateTotalXSec(): Calculate xs for '2_3__j__j__j__j__j' (Comix)
Integration parameters: n_{min} = 5000, N_{opt} = 10, N_{max} = 1, exponent = 0.5
Starting the calculation at 02:13:18. Lean back and enjoy ... .
[34m47.801 pb[0m +- ( [31m8.10542 pb = 16.9566 %[0m ) 5000 ( 41242 -> 12.1 % )
full optimization:  ( 5s elapsed / 9m 29s left ) [02:13:24]
[34m122.556 pb[0m +- ( [31m44.2055 pb = 36.0697 %[0m ) 7071 ( 54136 -> 16 % )
full optimization:  ( 7s elapsed / 9m 34s left ) [02:13:26]
[34m88.5644 pb[0m +- ( [31m27.3812 pb = 30.9168 %[0m ) 9999 ( 62126 -> 36.6 % )
full optimization:  ( 11s elapsed / 9m 41s left ) [02:13:29]
[34m74.039 pb[0m +- ( [31m19.0308 pb = 25.7038 %[0m ) 14140 ( 71466 -> 44.3 % )
full optimization:  ( 16s elapsed / 10m 20s left ) [02:13:35]
[34m66.0389 pb[0m +- ( [31m13.6422 pb = 20.6578 %[0m ) 19996 ( 83573 -> 48.3 % )
full optimization:  ( 23s elapsed / 10m 14s left ) [02:13:42]
[34m60.4931 pb[0m +- ( [31m9.88058 pb = 16.3334 %[0m ) 28278 ( 99908 -> 50.7 % )
full optimization:  ( 34s elapsed / 10m 17s left ) [02:13:53]
[34m56.1362 pb[0m +- ( [31m7.02795 pb = 12.5195 %[0m ) 39991 ( 124099 -> 48.4 % )
full optimization:  ( 47s elapsed / 9m 53s left ) [02:14:06]
[34m54.2792 pb[0m +- ( [31m4.99593 pb = 9.20413 %[0m ) 56555 ( 158631 -> 47.9 % )
full optimization:  ( 1m 6s elapsed / 9m 21s left ) [02:14:25]
[34m52.6805 pb[0m +- ( [31m3.51107 pb = 6.66484 %[0m ) 79980 ( 209489 -> 46 % )
full optimization:  ( 1m 33s elapsed / 8m 51s left ) [02:14:52]
[34m51.5204 pb[0m +- ( [31m2.48307 pb = 4.81959 %[0m ) 113108 ( 281345 -> 46.1 % )
full optimization:  ( 2m 18s elapsed / 8m 38s left ) [02:15:37]
[34m50.5788 pb[0m +- ( [31m1.7591 pb = 3.47794 %[0m ) 159958 ( 384665 -> 45.3 % )
integration time:   ( 3m 18s elapsed / 7m 45s left ) [02:16:37]
[1m2_3__j__j__j__j__j[0m : [34m[1m50.5788 pb[0m +- ( [31m1.7591 pb = 3.47794 %[0m ) [1m exp. eff: [31m0.050985 %[0m
  reduce max for 2_3__j__j__j__j__j to 1 ( eps = 0.001 -> exp. eff 0.00050985 ) 
Process_Group::CalculateTotalXSec(): Calculate xs for '2_3__j__j__c__cb__j' (Comix)
Integration parameters: n_{min} = 5000, N_{opt} = 10, N_{max} = 1, exponent = 0.5
Starting the calculation at 02:16:37. Lean back and enjoy ... .
[34m1.55303 pb[0m +- ( [31m0.225289 pb = 14.5065 %[0m ) 5000 ( 166379 -> 3 % )
full optimization:  ( 4s elapsed / 7m 37s left ) [02:16:41]
[34m1.52638 pb[0m +- ( [31m0.249589 pb = 16.3516 %[0m ) 7071 ( 194024 -> 7.4 % )
full optimization:  ( 5s elapsed / 6m 47s left ) [02:16:42]
[34m1.53086 pb[0m +- ( [31m0.176455 pb = 11.5265 %[0m ) 9999 ( 210569 -> 17.6 % )
full optimization:  ( 6s elapsed / 5m 55s left ) [02:16:44]
[34m1.45014 pb[0m +- ( [31m0.132929 pb = 9.16667 %[0m ) 14140 ( 227048 -> 25.1 % )
full optimization:  ( 8s elapsed / 5m 31s left ) [02:16:46]
[34m1.42299 pb[0m +- ( [31m0.101794 pb = 7.15355 %[0m ) 19996 ( 246852 -> 29.5 % )
full optimization:  ( 11s elapsed / 5m 8s left ) [02:16:49]
[34m1.41108 pb[0m +- ( [31m0.0776266 pb = 5.50123 %[0m ) 28278 ( 273161 -> 31.4 % )
full optimization:  ( 16s elapsed / 4m 51s left ) [02:16:53]
[34m1.37621 pb[0m +- ( [31m0.0571371 pb = 4.15177 %[0m ) 39991 ( 313718 -> 28.8 % )
full optimization:  ( 20s elapsed / 4m 15s left ) [02:16:57]
[34m1.38174 pb[0m +- ( [31m0.041676 pb = 3.01619 %[0m ) 56555 ( 373177 -> 27.8 % )
full optimization:  ( 25s elapsed / 3m 36s left ) [02:17:02]
[34m1.36616 pb[0m +- ( [31m0.0297885 pb = 2.18046 %[0m ) 79980 ( 465664 -> 25.3 % )
full optimization:  ( 33s elapsed / 3m 9s left ) [02:17:10]
[34m1.37091 pb[0m +- ( [31m0.0212977 pb = 1.55355 %[0m ) 113108 ( 604599 -> 23.8 % )
full optimization:  ( 46s elapsed / 2m 54s left ) [02:17:24]
[34m1.37471 pb[0m +- ( [31m0.015605 pb = 1.13515 %[0m ) 159958 ( 814168 -> 22.3 % )
integration time:   ( 1m 3s elapsed / 2m 29s left ) [02:17:40]
[1m2_3__j__j__c__cb__j[0m : [34m[1m1.37471 pb[0m +- ( [31m0.015605 pb = 1.13515 %[0m ) [1m exp. eff: [31m0.0537456 %[0m
  reduce max for 2_3__j__j__c__cb__j to 1 ( eps = 0.001 -> exp. eff 0.000537456 ) 
Process_Group::CalculateTotalXSec(): Calculate xs for '2_3__j__j__b__bb__j' (Comix)
Integration parameters: n_{min} = 5000, N_{opt} = 10, N_{max} = 1, exponent = 0.5
Starting the calculation at 02:17:40. Lean back and enjoy ... .
[34m1.32904 pb[0m +- ( [31m0.173198 pb = 13.0318 %[0m ) 5000 ( 127719 -> 3.9 % )
full optimization:  ( 2s elapsed / 4m 26s left ) [02:17:43]
[34m1.62047 pb[0m +- ( [31m0.288114 pb = 17.7797 %[0m ) 7071 ( 153227 -> 8.1 % )
full optimization:  ( 3s elapsed / 4m 8s left ) [02:17:44]
[34m1.44413 pb[0m +- ( [31m0.189148 pb = 13.0977 %[0m ) 9999 ( 168112 -> 19.6 % )
full optimization:  ( 4s elapsed / 3m 47s left ) [02:17:45]
[34m1.42592 pb[0m +- ( [31m0.144978 pb = 10.1673 %[0m ) 14140 ( 183044 -> 27.7 % )
full optimization:  ( 5s elapsed / 3m 29s left ) [02:17:46]
[34m1.40034 pb[0m +- ( [31m0.107344 pb = 7.66553 %[0m ) 19996 ( 203725 -> 28.3 % )
full optimization:  ( 7s elapsed / 3m 15s left ) [02:17:48]
[34m1.37346 pb[0m +- ( [31m0.0797583 pb = 5.80708 %[0m ) 28278 ( 231388 -> 29.9 % )
full optimization:  ( 10s elapsed / 3m 1s left ) [02:17:51]
[34m1.36221 pb[0m +- ( [31m0.058418 pb = 4.28846 %[0m ) 39991 ( 271900 -> 28.9 % )
full optimization:  ( 13s elapsed / 2m 53s left ) [02:17:54]
[34m1.35699 pb[0m +- ( [31m0.0435019 pb = 3.20576 %[0m ) 56555 ( 331935 -> 27.5 % )
full optimization:  ( 19s elapsed / 2m 43s left ) [02:18:00]
[34m1.3508 pb[0m +- ( [31m0.0312796 pb = 2.31563 %[0m ) 79980 ( 419653 -> 26.7 % )
full optimization:  ( 26s elapsed / 2m 30s left ) [02:18:07]
[34m1.34512 pb[0m +- ( [31m0.0224754 pb = 1.67088 %[0m ) 113108 ( 548040 -> 25.8 % )
full optimization:  ( 36s elapsed / 2m 14s left ) [02:18:17]
[34m1.34255 pb[0m +- ( [31m0.0162983 pb = 1.21398 %[0m ) 159958 ( 738378 -> 24.6 % )
integration time:   ( 50s elapsed / 1m 59s left ) [02:18:31]
[1m2_3__j__j__b__bb__j[0m : [34m[1m1.34255 pb[0m +- ( [31m0.0162983 pb = 1.21398 %[0m ) [1m exp. eff: [31m0.0363894 %[0m
  reduce max for 2_3__j__j__b__bb__j to 1 ( eps = 0.001 -> exp. eff 0.000363894 ) 
Return_Value::PrintStatistics(): Statistics {
  Generated events: 0
}
Blob_List: Momentum Fail Statistics {
}
Decay_Channel: Kinematics max fail statistics {
}
WARNING: You are using an unsupported development branch.
------------------------------------------------------------------------
[1mPlease cite the publications listed in '[31mReferences.tex[0m[1m'.[0m
  Extract the bibtex list by running 'get_bibtex References.tex'
  or email the file to 'slaclib2@slac.stanford.edu', subject 'generate'.
------------------------------------------------------------------------
WARNING: Some settings that have been defined in the input
files and/or the command line have not been used. For more
details, see the Settings Report.
Time: 6m 10s on Wed Jan 31 02:18:31 2024
 (User: 6m 6s, System: 0s, Children User: 0s, Children System: 0s)
Welcome to Sherpa, Vithyaban Narendran on pplxwn025.physics.ox.ac.uk. Initialization of framework underway.
The local time is Wed Jan 31 02:18:31 2024.
Run_Parameter::Init(): Setting memory limit to 1007.01 GB.
Random::SetSeed(): Seed set to 1234
-----------------------------------------------------------------------------
-----------    Event generation run with SHERPA started .......   -----------
-----------------------------------------------------------------------------
................................................ |       +                   
................................................ ||  |       +  +            
...................................        ....  | |         /   +           
................. ................   _,_ |  ....  ||         +|  +  +        
...............................  __.'  ,\|  ...  ||    /    +|          +    
.............................. (  \    \   ...  | |  |   + + \         +   
.............................  (    \   -/  .... ||       +    |          +  
........ ...................  <S   /()))))~~~~~~~~##     +     /\    +       
............................ (!H   (~~)))))~~~~~~#/     +  +    |  +         
................ ........... (!E   (~~~)))))     /|/    +         +          
............................ (!R   (~~~)))))   |||   + +            +        
..... ...................... (!P    (~~~~)))   /|  + +          +            
............................ (!A>    (~~~~~~~~~##        + +        +        
............................. ~~(!    '~~~~~~~ \       +     + +      +      
...............................  `~~~QQQQQDb //   |         + + +        +   
........................ ..........   IDDDDP||     \  + + + + +             +
....................................  IDDDI||       \                      + 
.................................... IHD HD||         \ + +  + + + + +      +
...................................  IHD ##|            :-) + +\          +  
......... ............... ......... IHI ## /      /   +  + + + +\       +    
................................... IHI/ /       /      + + + +        +     
................................... ## | | /    / + +      + + /      +      
....................... /TT\ .....  ##/ ///  / + + + + + + +/       +        
......................./TTT/T\ ... /TT\/\\\ / + + + + + + +/   \         +   
....................../TTT/TTTT\...|TT/T\\\/   +    ++  + /              
-----------------------------------------------------------------------------

     SHERPA version 3.0.0beta1 (Dhaulagiri)
                                                                             
     Authors:        Enrico Bothmann, Stefan Hoeche, Frank Krauss,           
                     Silvan Kuttimalai, Marek Schoenherr, Holger Schulz,     
                     Steffen Schumann, Frank Siegert, Korinna Zapp           
     Former Authors: Timo Fischer, Tanju Gleisberg, Hendrik Hoeth,           
                     Ralf Kuhn, Thomas Laubrich, Andreas Schaelicke,         
                     Jan Winter                                              
                                                                             
     This program uses a lot of genuine and original research work           
     by other people. Users are encouraged to refer to                       
     the various original publications.                                      
                                                                             
     Users are kindly asked to refer to the documentation                    
     published under JHEP 02(2009)007                                        
                                                                             
     Please visit also our homepage                                          
                                                                             
       http://sherpa.hepforge.org                                            
                                                                             
     for news, bugreports, updates and new releases.                         
                                                                             
-----------------------------------------------------------------------------
WARNING: You are using an unsupported development branch.
Git branch photon-pdf-fitting, revision cbce34ae4e06c58e8cfd6012e9ecf6e43a03c86e.
Hadron_Init::Init(): Initializing kf table for hadrons.
Beam_Spectra_Handler: type = Collider Setup
    for e+ (on = 1, p = (27.6,0,0,27.6))
    and P+ (on = 1, p = (820,0,0,-819.999)).
ISR handling:
    PDFs for hard scattering:              FinalPDF + NNPDF31_nnlo_as_0118_proton
    PDFs for multiple parton interactions: None + PDF4LHC21_40_pdfas
Remnant_Handlers:
    hard process: P: Photon + P+: Hadron
Standard_Model::FixEWParameters() {
  Input scheme: Gmu
                Gmu scheme, input: GF, m_W, m_Z, m_h, widths
  Ren. scheme:  Gmu
                
  Parameters:   sin^2(\theta_W) = 0.222928 - 0.00110708 i
                vev             = 246.218
}
Running_AlphaQED::PrintSummary() {
  Setting \alpha according to EW scheme
  1/\alpha(0)   = 137.036
  1/\alpha(def) = 132.168
}
[1mOne_Running_AlphaS::One_Running_AlphaS(): [0m[31mOverriding \alpha_s information from PDF. Make sure you know what you are doing![0m
One_Running_AlphaS::PrintSummary() {
  Setting \alpha_s according to PDF
  perturbative order 1
  \alpha_s(M_Z) = 0.1188
}
[1mOne_Running_AlphaS::One_Running_AlphaS(): [0m[31mOverriding \alpha_s information from PDF. Make sure you know what you are doing![0m
One_Running_AlphaS::PrintSummary() {
  Setting \alpha_s according to PDF
  perturbative order 1
  \alpha_s(M_Z) = 0.1188
}
List of Particle Data 
     IDName     kfc            Mass           Width   Stable  Massive   Active          Yukawa
          d       1            0.01               0        1        0        1               0
          u       2           0.005               0        1        0        1               0
          s       3             0.2               0        1        0        1               0
          c       4            1.42               0        1        1        1            1.42
          b       5            4.92               0        1        1        1            4.92
          t       6          173.21             1.5        0        1        1          173.21
         e-      11        0.000511               0        1        0        1               0
         ve      12               0               0        1        0        1               0
        mu-      13           0.105               0        1        0        1               0
        vmu      14               0               0        1        0        1               0
       tau-      15           1.777     2.26735e-12        0        0        1               0
       vtau      16               0               0        1        0        1               0
          G      21               0               0        1        0        1               0
          P      22               0               0        1        0        1               0
          Z      23         91.1876          2.4952        0        1        1         91.1876
         W+      24          80.385           2.085        0        1        1          80.385
         h0      25             125         0.00407        0        1        1             125
     string      95               0               0        1        0        1               0
    cluster      96               0               0        1        0        1               0
  Instanton     999               0               0        0        0        1               0
List of Particle Containers 
     IDName     kfc     Constituents
          l      90     {e-,e+,mu-,mu+,tau-,tau+}
          v      91     {ve,veb,vmu,vmub,vtau,vtaub}
          f      92     {d,db,u,ub,s,sb,e-,e+,mu-,mu+,tau-,tau+,ve,veb,vmu,vmub,vtau,vtaub}
          j      93     {d,db,u,ub,s,sb,G}
          Q      94     {d,db,u,ub,s,sb}
        ewj      98     {d,db,u,ub,s,sb,G,P}
Shower_Handler initialised.

+-----------------------------------------+
|   X   X   X XXXX  XXX  XXX  XXX         |
|  X X  XX XX X    X      X  X     X   X  |
| X   X X X X XXX  X XXX  X  X    XXX XXX |
| XXXXX X   X X    X   X  X  X     X   X  |
| X   X X   X XXXX  XXX  XXX  XXX         |
+-----------------------------------------+
| please cite: JHEP 0202:044,2002         |
+-----------------------------------------+
Matrix_Element_Handler::Matrix_Element_Handler(): Set pilot run mode to 0.
ME_Generator_Base::SetPSMasses(): Massive PS flavours for Comix: (e-,e+,mu-,mu+,tau-,tau+)
+----------------------------------+
|                                  |
|      [31mCCC[0m  [32mOOO[0m  [34mM[0m   [34mM[0m I [33mX[0m   [33mX[0m     |
|     [31mC[0m    [32mO[0m   [32mO[0m [34mMM[0m [34mMM[0m I  [33mX[0m [33mX[0m      |
|     [31mC[0m    [32mO[0m   [32mO[0m [34mM[0m [34mM[0m [34mM[0m I   [33mX[0m       |
|     [31mC[0m    [32mO[0m   [32mO[0m [34mM[0m   [34mM[0m I  [33mX[0m [33mX[0m      |
|      [31mCCC[0m  [32mOOO[0m  [34mM[0m   [34mM[0m I [33mX[0m   [33mX[0m     |
|                                  |
+==================================+
|  Color dressed  Matrix Elements  |
|     http://comix.freacafe.de     |
|   please cite  JHEP12(2008)039   |
+----------------------------------+
ME_Generator_Base::SetPSMasses(): Massive PS flavours for Amegic: (e-,e+,mu-,mu+,tau-,tau+)
Matrix_Element_Handler::BuildProcesses(): 2 ME generators, 1 process blocks.
Matrix_Element_Handler::BuildProcesses(): Setting up processes .......................................... done ( 70 MB, 0s / 0s ).
Matrix_Element_Handler::InitializeProcesses(): Performing tests .......................................... done ( 70 MB, 0s / 0s ).
Matrix_Element_Handler::InitializeProcesses(): Initializing scales done ( 70 MB, 0s / 0s ).
Initialized the Matrix_Element_Handler for the hard processes.
Initialized the Beam_Remnant_Handler.
MI_Handler::MI_Handler(id = 2, name = None, type = 0)
Underlying event/multiple interactions handler:
    MI[2]: on = 0 (type = 0, None)
Soft-collision handlers:
Hadron_Init::Init(): Initializing kf table for hadrons.
Initialized the Fragmentation_Handler.
Initialized the Hadron_Decay_Handler, Decay model = HADRONS++
Initialized the Soft_Photon_Handler.
WARNING in Variations::CheckConsistencyWithBeamSpectra: 
   The internal reweighting is only tested
   for hadronic beams of (anti-)protons.
   Will continue and hope for the best.
Initialized the Reweighting.
Beam_Channels::CheckForStructuresFromME for 0: (none)
ISR_Channels::CheckForStructuresFromME for 0: (none)
Read in channels from directory: Results/Comix/MC_2_2__j__j__j__j
Process_Group::CalculateTotalXSec(): Calculate xs for '2_2__j__j__j__j' (Comix)
[1m2_2__j__j__j__j[0m : [34m[1m11205.8 pb[0m +- ( [31m59.8162 pb = 0.533798 %[0m ) [1m exp. eff: [31m0.275695 %[0m
  reduce max for 2_2__j__j__j__j to 1 ( eps = 0.001 -> exp. eff 0.00275695 ) 
Read in channels from directory: Results/Comix/MC_2_2__j__j__c__cb
Process_Group::CalculateTotalXSec(): Calculate xs for '2_2__j__j__c__cb' (Comix)
[1m2_2__j__j__c__cb[0m : [34m[1m40.5611 pb[0m +- ( [31m0.170717 pb = 0.42089 %[0m ) [1m exp. eff: [31m1.25335 %[0m
  reduce max for 2_2__j__j__c__cb to 1 ( eps = 0.001 -> exp. eff 0.0125335 ) 
Read in channels from directory: Results/Comix/MC_2_2__j__j__b__bb
Process_Group::CalculateTotalXSec(): Calculate xs for '2_2__j__j__b__bb' (Comix)
[1m2_2__j__j__b__bb[0m : [34m[1m33.8088 pb[0m +- ( [31m0.13592 pb = 0.402025 %[0m ) [1m exp. eff: [31m1.11722 %[0m
  reduce max for 2_2__j__j__b__bb to 1 ( eps = 0.001 -> exp. eff 0.0111722 ) 
Beam_Channels::CheckForStructuresFromME for 0: (none)
ISR_Channels::CheckForStructuresFromME for 0: (none)
Read in channels from directory: Results/Comix/MC_2_3__j__j__j__j__j
Process_Group::CalculateTotalXSec(): Calculate xs for '2_3__j__j__j__j__j' (Comix)
[1m2_3__j__j__j__j__j[0m : [34m[1m50.5788 pb[0m +- ( [31m1.7591 pb = 3.47794 %[0m ) [1m exp. eff: [31m0.050985 %[0m
  reduce max for 2_3__j__j__j__j__j to 1 ( eps = 0.001 -> exp. eff 0.00050985 ) 
Read in channels from directory: Results/Comix/MC_2_3__j__j__c__cb__j
Process_Group::CalculateTotalXSec(): Calculate xs for '2_3__j__j__c__cb__j' (Comix)
[1m2_3__j__j__c__cb__j[0m : [34m[1m1.37471 pb[0m +- ( [31m0.015605 pb = 1.13515 %[0m ) [1m exp. eff: [31m0.0537456 %[0m
  reduce max for 2_3__j__j__c__cb__j to 1 ( eps = 0.001 -> exp. eff 0.000537456 ) 
Read in channels from directory: Results/Comix/MC_2_3__j__j__b__bb__j
Process_Group::CalculateTotalXSec(): Calculate xs for '2_3__j__j__b__bb__j' (Comix)
[1m2_3__j__j__b__bb__j[0m : [34m[1m1.34255 pb[0m +- ( [31m0.0162983 pb = 1.21398 %[0m ) [1m exp. eff: [31m0.0363894 %[0m
  reduce max for 2_3__j__j__b__bb__j to 1 ( eps = 0.001 -> exp. eff 0.000363894 ) 
----------------------------------------------------------
-- SHERPA generates events with the following structure --
----------------------------------------------------------
Event generation   : Weighted
Perturbative       : Signal_Processes
Perturbative       : Minimum_Bias: None
Perturbative       : Hard_Decays
Perturbative       : Jet_Evolution:CSS
Perturbative       : Lepton_FS_QED_Corrections:Photons
Perturbative       : Multiple_Interactions: None
Hadronization      : Beam_Remnants:Parametrised
Hadronization      : Hadronization:Ahadic
Hadronization      : Hadron_Decays
Userhook           : 
Analysis           : Rivet
---------------------------------------------------------
Rivet.AnalysisHandler: INFO  Using named weights
Rivet.AnalysisHandler: WARN  Analysis 'H1_2002_I581409' is unvalidated: be careful, it may be broken!
  Event 1 ( 1s elapsed / 6d 8h 46m 38s left ) -> ETA: Tue Feb 06 11:05  
  XS = 145.378 pb +- ( 145.378 pb = 100 % )  [1A  Event 2 ( 1s elapsed / 3d 4h 23m 18s left ) -> ETA: Sat Feb 03 06:41  
  XS = 589.802 pb +- ( 533.767 pb = 90 % )  [1A  Event 3 ( 1s elapsed / 2d 3h 23m 18s left ) -> ETA: Fri Feb 02 05:41  
  XS = 504.12 pb +- ( 459.18 pb = 91 % )  [1A  Event 4 ( 1s elapsed / 1d 14h 32m 28s left ) -> ETA: Thu Feb 01 16:51  
  XS = 3937.1 pb +- ( 3455.93 pb = 87 % )  [1A  Event 5 ( 1s elapsed / 1d 6h 49m 58s left ) -> ETA: Thu Feb 01 09:08  
  XS = 3456.71 pb +- ( 2382.27 pb = 68 % )  [1A  Event 6 ( 1s elapsed / 1d 1h 55m 32s left ) -> ETA: Thu Feb 01 04:14  
  XS = 3256.17 pb +- ( 2200.53 pb = 67 % )  [1A  Event 7 ( 1s elapsed / 22h 13m 18s left ) -> ETA: Thu Feb 01 00:31  
  XS = 2887.74 pb +- ( 1913.77 pb = 66 % )  [1A  Event 8 ( 1s elapsed / 20h 8m 18s left ) -> ETA: Wed Jan 31 22:26  
  XS = 2692.41 pb +- ( 1800.79 pb = 66 % )  [1A  Event 9 ( 1s elapsed / 18h 3m 18s left ) -> ETA: Wed Jan 31 20:21  
  XS = 2393.25 pb +- ( 1607.96 pb = 67 % )  [1A  Event 10 ( 1s elapsed / 16h 14m 58s left ) -> ETA: Wed Jan 31 18:33  
  XS = 2256.87 pb +- ( 1447.9 pb = 64 % )  [1A  Event 20 ( 1s elapsed / 8h 32m 28s left ) -> ETA: Wed Jan 31 10:51  
  XS = 9637.43 pb +- ( 6257.22 pb = 64 % )  [1A  Event 30 ( 1s elapsed / 5h 52m 45s left ) -> ETA: Wed Jan 31 08:11  
  XS = 7592.04 pb +- ( 5282.34 pb = 69 % )  [1A  Event 40 ( 1s elapsed / 4h 37m 3s left ) -> ETA: Wed Jan 31 06:55  
  XS = 6221.55 pb +- ( 3703.22 pb = 59 % )  [1A  Event 50 ( 1s elapsed / 3h 48m 18s left ) -> ETA: Wed Jan 31 06:06  
  XS = 6606.66 pb +- ( 3015.51 pb = 45 % )  [1A  Event 60 ( 1s elapsed / 3h 18m 35s left ) -> ETA: Wed Jan 31 05:37  
  XS = 7119.86 pb +- ( 2626.59 pb = 36 % )  [1A  Event 70 ( 1s elapsed / 2h 56m 9s left ) -> ETA: Wed Jan 31 05:14  
  XS = 7086.98 pb +- ( 2333.45 pb = 32 % )  [1A  Event 80 ( 1s elapsed / 2h 42m 28s left ) -> ETA: Wed Jan 31 05:01  
  XS = 7635.1 pb +- ( 2388.26 pb = 31 % )  [1A  Event 90 ( 1s elapsed / 2h 28m 7s left ) -> ETA: Wed Jan 31 04:46  
  XS = 9157.01 pb +- ( 2702.22 pb = 29 % )  [1A  Event 100 ( 1s elapsed / 2h 16m 38s left ) -> ETA: Wed Jan 31 04:35  
  XS = 9197.22 pb +- ( 2580.64 pb = 28 % )  [1A  Event 200 ( 2s elapsed / 1h 29m 57s left ) -> ETA: Wed Jan 31 03:48  
  XS = 7940.75 pb +- ( 1443.97 pb = 18 % )  [1A  Event 300 ( 2s elapsed / 1h 14m 7s left ) -> ETA: Wed Jan 31 03:32  
  XS = 8138.55 pb +- ( 1113.54 pb = 13 % )  [1A  Event 400 ( 3s elapsed / 1h 7m 1s left ) -> ETA: Wed Jan 31 03:25  
  XS = 8956.09 pb +- ( 1019.28 pb = 11 % )  [1A  Event 500 ( 3s elapsed / 1h 36s left ) -> ETA: Wed Jan 31 03:19  
  XS = 9419.32 pb +- ( 954.437 pb = 10 % )  [1A  Event 600 ( 3s elapsed / 55m 21s left ) -> ETA: Wed Jan 31 03:13  
  XS = 9291.8 pb +- ( 848.953 pb = 9 % )  [1A  Event 700 ( 4s elapsed / 51m 35s left ) -> ETA: Wed Jan 31 03:10  
  XS = 9598.19 pb +- ( 963.87 pb = 10 % )  [1A  Event 800 ( 4s elapsed / 50m 32s left ) -> ETA: Wed Jan 31 03:09  
  XS = 10327.7 pb +- ( 1006.62 pb = 9 % )  [1A  Event 900 ( 5s elapsed / 50m left ) -> ETA: Wed Jan 31 03:08  
  XS = 10631.4 pb +- ( 998.863 pb = 9 % )  [1A  Event 1000 ( 5s elapsed / 49m 19s left ) -> ETA: Wed Jan 31 03:07  
  XS = 10356.8 pb +- ( 915.692 pb = 8 % )  [1A  Event 2000 ( 11s elapsed / 48m 5s left ) -> ETA: Wed Jan 31 03:06  
  XS = 10981.6 pb +- ( 650.927 pb = 5 % )  [1A  Event 3000 ( 35s elapsed / 1h 39m 20s left ) -> ETA: Wed Jan 31 03:58  
  XS = 11209.1 pb +- ( 547.538 pb = 4 % )  [1A  Event 4000 ( 41s elapsed / 1h 24m 48s left ) -> ETA: Wed Jan 31 03:44  
  XS = 11306.1 pb +- ( 474.769 pb = 4 % )  [1A  Event 5000 ( 44s elapsed / 1h 14m left ) -> ETA: Wed Jan 31 03:33  
  XS = 10889.2 pb +- ( 402.923 pb = 3 % )  [1A  Event 6000 ( 49s elapsed / 1h 7m 59s left ) -> ETA: Wed Jan 31 03:27  
  XS = 10792.8 pb +- ( 364.411 pb = 3 % )  [1A  Event 7000 ( 58s elapsed / 1h 8m 34s left ) -> ETA: Wed Jan 31 03:28  
  XS = 10687.8 pb +- ( 340.997 pb = 3 % )  [1A  Event 8000 ( 1m 2s elapsed / 1h 4m 10s left ) -> ETA: Wed Jan 31 03:23  
  XS = 10743.1 pb +- ( 324.378 pb = 3 % )  [1A  Event 9000 ( 1m 8s elapsed / 1h 1m 57s left ) -> ETA: Wed Jan 31 03:21  
  XS = 10671 pb +- ( 302.066 pb = 2 % )  [1A  Event 10000 ( 1m 13s elapsed / 59m 38s left ) -> ETA: Wed Jan 31 03:19  
  XS = 10730.1 pb +- ( 292.562 pb = 2 % )  [1A  Event 20000 ( 1m 49s elapsed / 43m 52s left ) -> ETA: Wed Jan 31 03:04  
  XS = 10746.1 pb +- ( 205.216 pb = 1 % )  [1A  Event 30000 ( 2m 42s elapsed / 42m 29s left ) -> ETA: Wed Jan 31 03:03  
  XS = 10970.3 pb +- ( 171.278 pb = 1 % )  [1A  Event 40000 ( 3m 24s elapsed / 39m 16s left ) -> ETA: Wed Jan 31 03:01  
  XS = 10975 pb +- ( 149.98 pb = 1 % )  [1A  Event 50000 ( 4m 24s elapsed / 39m 37s left ) -> ETA: Wed Jan 31 03:02  
  XS = 10920.4 pb +- ( 133.627 pb = 1 % )  [1A  Event 60000 ( 5m 36s elapsed / 41m 9s left ) -> ETA: Wed Jan 31 03:05  
  XS = 10966.5 pb +- ( 122.054 pb = 1 % )  [1A  Event 70000 ( 6m 30s elapsed / 39m 56s left ) -> ETA: Wed Jan 31 03:05  
  XS = 11039 pb +- ( 113.964 pb = 1 % )  [1A  Event 80000 ( 7m 12s elapsed / 37m 50s left ) -> ETA: Wed Jan 31 03:03  
  XS = 11019.4 pb +- ( 106.76 pb = 0 % )  [1A  Event 90000 ( 7m 49s elapsed / 35m 39s left ) -> ETA: Wed Jan 31 03:02  
  XS = 11098.3 pb +- ( 101.229 pb = 0 % )  [1A  Event 100000 ( 9m 20s elapsed / 37m 21s left ) -> ETA: Wed Jan 31 03:05  
  XS = 11107.7 pb +- ( 95.5389 pb = 0 % )  [1A[34mDecay_Handler_Base::TreatInitialBlob[0m:([32m"Initial particle Delta(1232)-b not onshell: sqrt|p^2|=1.232 vs. m=1.232"[0m)
  Event 200000 ( 17m 2s elapsed / 25m 34s left ) -> ETA: Wed Jan 31 03:01  
  XS = 11194.4 pb +- ( 68.8277 pb = 0 % )  [1A  Event 300000 ( 24m 44s elapsed / 16m 29s left ) -> ETA: Wed Jan 31 02:59  
  XS = 11200.1 pb +- ( 55.8001 pb = 0 % )  [1A  Event 400000 ( 31m 23s elapsed / 7m 50s left ) -> ETA: Wed Jan 31 02:57  
  XS = 11211 pb +- ( 48.3701 pb = 0 % )  [1A  Event 500000 ( 2327 s total ) = 1.8565e+07 evts/day                    
In Event_Handler::Finish : Summarizing the run may take some time.
[31mRivet_Interface::Finish([32mH1_resolved_6[31m)[0m[31m{[0m
[31m}[0m
--------------------------------------------------------------------------
Nominal or variation name     XS [pb]      RelDev  AbsErr [pb]      RelErr
--------------------------------------------------------------------------
[1mNominal                  [0m[34m[1m     11240.4[0m[33m         0 %[31m      43.4128      0.38 %[0m
--------------------------------------------------------------------------
Return_Value::PrintStatistics(): Statistics {
  Generated events: 500000
  New events {
    From "Jet_Evolution:CSS": 25120 (535140) -> 4.6 %
  }
  Retried events {
    From "Hadron_Decays": 1 (510021) -> 0 %
  }
  Retried phases {
    From "Hadron_Decay_Handler::RejectExclusiveChannelsFromFragmentation": 3819 (0) -> 3819.
  }
  Retried methods {
    From "Decay_Channel::GenerateKinematics": 604 (17914710) -> 0 %
  }
}
Blob_List: Momentum Fail Statistics {
}
Decay_Channel: Kinematics max fail statistics {
  B --> D*(2007)b D*(2010)+ K pi+b  maximal fail by 2.99036.
  B --> D*(2010)+ D*(2010)+b K pi  maximal fail by 3.15867.
  B+ --> D*(2010)+ D*(2010)+b K pi+  maximal fail by 4.34452.
}
WARNING: You are using an unsupported development branch.
------------------------------------------------------------------------
[1mPlease cite the publications listed in '[31mReferences.tex[0m[1m'.[0m
  Extract the bibtex list by running 'get_bibtex References.tex'
  or email the file to 'slaclib2@slac.stanford.edu', subject 'generate'.
------------------------------------------------------------------------
Gluon_Splitter::~Gluon_Splitter with 27138 kinematic fails.
Decay_Handler_Base::~Decay_Handler_Base with 1 particles not on their mass shell.

The MCnet usage guidelines apply to Rivet: see http://www.montecarlonet.org/GUIDELINES
Please acknowledge Rivet in results made using it, and cite https://arxiv.org/abs/1912.05451
Time: 38m 50s on Wed Jan 31 02:57:22 2024
 (User: 38m 31s, System: 0s, Children User: 0s, Children System: 0s)
