000 (520.003.000) 2024-01-31 14:13:16 Job submitted from host: <163.1.136.58:9618?addrs=163.1.136.58-9618+[fde1-53ba-e9a0-de11-9793-9e2-f84c-e365]-9618&alias=pplxcondor03.physics.ox.ac.uk&noUDP&sock=schedd_2397_b89a>
...
040 (520.003.000) 2024-01-31 14:13:17 Started transferring input files
	Transferring to host: <163.1.136.178:9618?addrs=163.1.136.178-9618&alias=pplxwn021.physics.ox.ac.uk&noUDP&sock=slot1_3_4873_381f_156>
...
040 (520.003.000) 2024-01-31 14:13:17 Finished transferring input files
...
001 (520.003.000) 2024-01-31 14:13:18 Job executing on host: <163.1.136.178:9618?addrs=163.1.136.178-9618&alias=pplxwn021.physics.ox.ac.uk&noUDP&sock=startd_4550_8001>
	SlotName: slot1_3@pplxwn021.physics.ox.ac.uk
	CondorScratchDir = "/condor/execute/dir_230675"
	Cpus = 1
	Disk = 2081481
	Memory = 2048
...
006 (520.003.000) 2024-01-31 16:23:16 Image size of job updated: 2
	0  -  MemoryUsage of job (MB)
	0  -  ResidentSetSize of job (KB)
...
040 (520.003.000) 2024-01-31 16:23:16 Started transferring output files
...
040 (520.003.000) 2024-01-31 16:23:16 Finished transferring output files
...
005 (520.003.000) 2024-01-31 16:23:16 Job terminated.
	(1) Normal termination (return value 0)
		Usr 0 00:00:00, Sys 0 00:00:00  -  Run Remote Usage
		Usr 0 00:00:00, Sys 0 00:00:00  -  Run Local Usage
		Usr 0 00:00:00, Sys 0 00:00:00  -  Total Remote Usage
		Usr 0 00:00:00, Sys 0 00:00:00  -  Total Local Usage
	4716370  -  Run Bytes Sent By Job
	2016  -  Run Bytes Received By Job
	4716370  -  Total Bytes Sent By Job
	2016  -  Total Bytes Received By Job
	Partitionable Resources :    Usage  Request Allocated 
	   Cpus                 :     0.99        1         1 
	   Disk (KB)            :  6487           3   2081481 
	   Memory (MB)          :     0        2000      2048 

	Job terminated of its own accord at 2024-01-31T16:23:16Z with exit-code 0.
...
