000 (518.005.000) 2024-01-31 02:11:16 Job submitted from host: <163.1.136.58:9618?addrs=163.1.136.58-9618+[fde1-53ba-e9a0-de11-9793-9e2-f84c-e365]-9618&alias=pplxcondor03.physics.ox.ac.uk&noUDP&sock=schedd_2397_b89a>
...
040 (518.005.000) 2024-01-31 02:12:16 Started transferring input files
	Transferring to host: <163.1.136.181:9618?addrs=163.1.136.181-9618&alias=pplxwn024.physics.ox.ac.uk&noUDP&sock=slot1_5_5006_ee05_85>
...
040 (518.005.000) 2024-01-31 02:12:16 Finished transferring input files
...
001 (518.005.000) 2024-01-31 02:12:17 Job executing on host: <163.1.136.181:9618?addrs=163.1.136.181-9618&alias=pplxwn024.physics.ox.ac.uk&noUDP&sock=startd_4690_8743>
	SlotName: slot1_5@pplxwn024.physics.ox.ac.uk
	CondorScratchDir = "/condor/execute/dir_166095"
	Cpus = 1
	Disk = 2081481
	Memory = 2048
...
006 (518.005.000) 2024-01-31 02:57:15 Image size of job updated: 2
	0  -  MemoryUsage of job (MB)
	0  -  ResidentSetSize of job (KB)
...
040 (518.005.000) 2024-01-31 02:57:15 Started transferring output files
...
040 (518.005.000) 2024-01-31 02:57:15 Finished transferring output files
...
005 (518.005.000) 2024-01-31 02:57:15 Job terminated.
	(1) Normal termination (return value 0)
		Usr 0 00:00:00, Sys 0 00:00:00  -  Run Remote Usage
		Usr 0 00:00:00, Sys 0 00:00:00  -  Run Local Usage
		Usr 0 00:00:00, Sys 0 00:00:00  -  Total Remote Usage
		Usr 0 00:00:00, Sys 0 00:00:00  -  Total Local Usage
	851807  -  Run Bytes Sent By Job
	2019  -  Run Bytes Received By Job
	851807  -  Total Bytes Sent By Job
	2019  -  Total Bytes Received By Job
	Partitionable Resources :    Usage  Request Allocated 
	   Cpus                 :     0.99        1         1 
	   Disk (KB)            :  2713           3   2081481 
	   Memory (MB)          :     0        2000      2048 

	Job terminated of its own accord at 2024-01-31T02:57:15Z with exit-code 0.
...
