000 (488.000.000) 2024-01-30 17:38:04 Job submitted from host: <163.1.136.58:9618?addrs=163.1.136.58-9618+[fde1-53ba-e9a0-de11-9793-9e2-f84c-e365]-9618&alias=pplxcondor03.physics.ox.ac.uk&noUDP&sock=schedd_2397_b89a>
...
040 (488.000.000) 2024-01-30 17:38:13 Started transferring input files
	Transferring to host: <163.1.136.180:9618?addrs=163.1.136.180-9618&alias=pplxwn023.physics.ox.ac.uk&noUDP&sock=slot1_1_5061_aea7_32>
...
040 (488.000.000) 2024-01-30 17:38:13 Finished transferring input files
...
001 (488.000.000) 2024-01-30 17:38:14 Job executing on host: <163.1.136.180:9618?addrs=163.1.136.180-9618&alias=pplxwn023.physics.ox.ac.uk&noUDP&sock=startd_4816_f432>
	SlotName: slot1_1@pplxwn023.physics.ox.ac.uk
	CondorScratchDir = "/condor/execute/dir_114957"
	Cpus = 1
	Disk = 2081481
	Memory = 2048
...
006 (488.000.000) 2024-01-30 17:43:07 Image size of job updated: 2
	0  -  MemoryUsage of job (MB)
	0  -  ResidentSetSize of job (KB)
...
040 (488.000.000) 2024-01-30 17:43:07 Started transferring output files
...
040 (488.000.000) 2024-01-30 17:43:07 Finished transferring output files
...
005 (488.000.000) 2024-01-30 17:43:07 Job terminated.
	(1) Normal termination (return value 0)
		Usr 0 00:00:00, Sys 0 00:00:00  -  Run Remote Usage
		Usr 0 00:00:00, Sys 0 00:00:00  -  Run Local Usage
		Usr 0 00:00:00, Sys 0 00:00:00  -  Total Remote Usage
		Usr 0 00:00:00, Sys 0 00:00:00  -  Total Local Usage
	836091  -  Run Bytes Sent By Job
	2020  -  Run Bytes Received By Job
	836091  -  Total Bytes Sent By Job
	2020  -  Total Bytes Received By Job
	Partitionable Resources :    Usage  Request Allocated 
	   Cpus                 :     1.00        1         1 
	   Disk (KB)            :  2697           3   2081481 
	   Memory (MB)          :     0        2000      2048 

	Job terminated of its own accord at 2024-01-30T17:43:07Z with exit-code 0.
...
