Welcome to Sherpa, Vithyaban Narendran on pplxwn022.physics.ox.ac.uk. Initialization of framework underway.
The local time is Tue Feb 27 16:54:30 2024.
Run_Parameter::Init(): Setting memory limit to 1007.01 GB.
Random::SetSeed(): Seed set to 1234
-----------------------------------------------------------------------------
-----------    Event generation run with SHERPA started .......   -----------
-----------------------------------------------------------------------------
................................................ |       +                   
................................................ ||  |       +  +            
...................................        ....  | |         /   +           
................. ................   _,_ |  ....  ||         +|  +  +        
...............................  __.'  ,\|  ...  ||    /    +|          +    
.............................. (  \    \   ...  | |  |   + + \         +   
.............................  (    \   -/  .... ||       +    |          +  
........ ...................  <S   /()))))~~~~~~~~##     +     /\    +       
............................ (!H   (~~)))))~~~~~~#/     +  +    |  +         
................ ........... (!E   (~~~)))))     /|/    +         +          
............................ (!R   (~~~)))))   |||   + +            +        
..... ...................... (!P    (~~~~)))   /|  + +          +            
............................ (!A>    (~~~~~~~~~##        + +        +        
............................. ~~(!    '~~~~~~~ \       +     + +      +      
...............................  `~~~QQQQQDb //   |         + + +        +   
........................ ..........   IDDDDP||     \  + + + + +             +
....................................  IDDDI||       \                      + 
.................................... IHD HD||         \ + +  + + + + +      +
...................................  IHD ##|            :-) + +\          +  
......... ............... ......... IHI ## /      /   +  + + + +\       +    
................................... IHI/ /       /      + + + +        +     
................................... ## | | /    / + +      + + /      +      
....................... /TT\ .....  ##/ ///  / + + + + + + +/       +        
......................./TTT/T\ ... /TT\/\\\ / + + + + + + +/   \         +   
....................../TTT/TTTT\...|TT/T\\\/   +    ++  + /              
-----------------------------------------------------------------------------

     SHERPA version 3.0.0beta1 (Dhaulagiri)
                                                                             
     Authors:        Enrico Bothmann, Stefan Hoeche, Frank Krauss,           
                     Silvan Kuttimalai, Marek Schoenherr, Holger Schulz,     
                     Steffen Schumann, Frank Siegert, Korinna Zapp           
     Former Authors: Timo Fischer, Tanju Gleisberg, Hendrik Hoeth,           
                     Ralf Kuhn, Thomas Laubrich, Andreas Schaelicke,         
                     Jan Winter                                              
                                                                             
     This program uses a lot of genuine and original research work           
     by other people. Users are encouraged to refer to                       
     the various original publications.                                      
                                                                             
     Users are kindly asked to refer to the documentation                    
     published under JHEP 02(2009)007                                        
                                                                             
     Please visit also our homepage                                          
                                                                             
       http://sherpa.hepforge.org                                            
                                                                             
     for news, bugreports, updates and new releases.                         
                                                                             
-----------------------------------------------------------------------------
WARNING: You are using an unsupported development branch.
Git branch photon-pdf-fitting, revision cbce34ae4e06c58e8cfd6012e9ecf6e43a03c86e.
Hadron_Init::Init(): Initializing kf table for hadrons.
Beam_Spectra_Handler: type = Collider Setup
    for e+ (on = 1, p = (27.6,0,0,27.6))
    and P+ (on = 1, p = (820,0,0,-819.999)).
ISR handling:
    PDFs for hard scattering:              None + NNPDF31_nnlo_as_0118_proton
    PDFs for multiple parton interactions: None + PDF4LHC21_40_pdfas
Remnant_Handlers:
    hard process: P: Intact + P+: Hadron
Standard_Model::FixEWParameters() {
  Input scheme: Gmu
                Gmu scheme, input: GF, m_W, m_Z, m_h, widths
  Ren. scheme:  Gmu
                
  Parameters:   sin^2(\theta_W) = 0.222928 - 0.00110708 i
                vev             = 246.218
}
Running_AlphaQED::PrintSummary() {
  Setting \alpha according to EW scheme
  1/\alpha(0)   = 137.036
  1/\alpha(def) = 132.168
}
[1mOne_Running_AlphaS::One_Running_AlphaS(): [0m[31mOverriding \alpha_s information from PDF. Make sure you know what you are doing![0m
One_Running_AlphaS::PrintSummary() {
  Setting \alpha_s according to PDF
  perturbative order 1
  \alpha_s(M_Z) = 0.1188
}
[1mOne_Running_AlphaS::One_Running_AlphaS(): [0m[31mOverriding \alpha_s information from PDF. Make sure you know what you are doing![0m
One_Running_AlphaS::PrintSummary() {
  Setting \alpha_s according to PDF
  perturbative order 1
  \alpha_s(M_Z) = 0.1188
}
List of Particle Data 
     IDName     kfc            Mass           Width   Stable  Massive   Active          Yukawa
          d       1            0.01               0        1        0        1               0
          u       2           0.005               0        1        0        1               0
          s       3             0.2               0        1        0        1               0
          c       4            1.42               0        1        1        1            1.42
          b       5            4.92               0        1        1        1            4.92
          t       6          173.21             1.5        0        1        1          173.21
         e-      11        0.000511               0        1        0        1               0
         ve      12               0               0        1        0        1               0
        mu-      13           0.105               0        1        0        1               0
        vmu      14               0               0        1        0        1               0
       tau-      15           1.777     2.26735e-12        0        0        1               0
       vtau      16               0               0        1        0        1               0
          G      21               0               0        1        0        1               0
          P      22               0               0        1        0        1               0
          Z      23         91.1876          2.4952        0        1        1         91.1876
         W+      24          80.385           2.085        0        1        1          80.385
         h0      25             125         0.00407        0        1        1             125
     string      95               0               0        1        0        1               0
    cluster      96               0               0        1        0        1               0
  Instanton     999               0               0        0        0        1               0
List of Particle Containers 
     IDName     kfc     Constituents
          l      90     {e-,e+,mu-,mu+,tau-,tau+}
          v      91     {ve,veb,vmu,vmub,vtau,vtaub}
          f      92     {d,db,u,ub,s,sb,e-,e+,mu-,mu+,tau-,tau+,ve,veb,vmu,vmub,vtau,vtaub}
          j      93     {d,db,u,ub,s,sb,G}
          Q      94     {d,db,u,ub,s,sb}
        ewj      98     {d,db,u,ub,s,sb,G,P}
Shower_Handler initialised.

+-----------------------------------------+
|   X   X   X XXXX  XXX  XXX  XXX         |
|  X X  XX XX X    X      X  X     X   X  |
| X   X X X X XXX  X XXX  X  X    XXX XXX |
| XXXXX X   X X    X   X  X  X     X   X  |
| X   X X   X XXXX  XXX  XXX  XXX         |
+-----------------------------------------+
| please cite: JHEP 0202:044,2002         |
+-----------------------------------------+
Matrix_Element_Handler::Matrix_Element_Handler(): Set pilot run mode to 0.
ME_Generator_Base::SetPSMasses(): Massive PS flavours for Comix: (e-,e+,mu-,mu+,tau-,tau+)
+----------------------------------+
|                                  |
|      [31mCCC[0m  [32mOOO[0m  [34mM[0m   [34mM[0m I [33mX[0m   [33mX[0m     |
|     [31mC[0m    [32mO[0m   [32mO[0m [34mMM[0m [34mMM[0m I  [33mX[0m [33mX[0m      |
|     [31mC[0m    [32mO[0m   [32mO[0m [34mM[0m [34mM[0m [34mM[0m I   [33mX[0m       |
|     [31mC[0m    [32mO[0m   [32mO[0m [34mM[0m   [34mM[0m I  [33mX[0m [33mX[0m      |
|      [31mCCC[0m  [32mOOO[0m  [34mM[0m   [34mM[0m I [33mX[0m   [33mX[0m     |
|                                  |
+==================================+
|  Color dressed  Matrix Elements  |
|     http://comix.freacafe.de     |
|   please cite  JHEP12(2008)039   |
+----------------------------------+
ME_Generator_Base::SetPSMasses(): Massive PS flavours for Amegic: (e-,e+,mu-,mu+,tau-,tau+)
Matrix_Element_Handler::BuildProcesses(): 2 ME generators, 1 process blocks.
Matrix_Element_Handler::BuildProcesses(): Setting up processes ...... done ( 59 MB, 0s / 0s ).
Matrix_Element_Handler::InitializeProcesses(): Performing tests ...... done ( 59 MB, 0s / 0s ).
Matrix_Element_Handler::InitializeProcesses(): Initializing scales done ( 59 MB, 0s / 0s ).
Initialized the Matrix_Element_Handler for the hard processes.
Initialized the Beam_Remnant_Handler.
[1m[31mNormal exit[0m[1m thrown[0m:
[31mInitialization complete.[0m
WARNING: You are using an unsupported development branch.
------------------------------------------------------------------------
[1mPlease cite the publications listed in '[31mReferences.tex[0m[1m'.[0m
  Extract the bibtex list by running 'get_bibtex References.tex'
  or email the file to 'slaclib2@slac.stanford.edu', subject 'generate'.
------------------------------------------------------------------------
[1mTerminator_Object_Handler::Exit: [0m[34mExiting Sherpa with code [0m[1m([31m0[0m[1m)[0m[?25h
Thanks for using LHAPDF 6.5.4. Please make sure to cite the paper:
  Eur.Phys.J. C75 (2015) 3, 132  (http://arxiv.org/abs/1412.7420)
Welcome to Sherpa, Vithyaban Narendran on pplxwn022.physics.ox.ac.uk. Initialization of framework underway.
The local time is Tue Feb 27 16:54:30 2024.
Run_Parameter::Init(): Setting memory limit to 1007.01 GB.
Random::SetSeed(): Seed set to 1234
-----------------------------------------------------------------------------
-----------    Event generation run with SHERPA started .......   -----------
-----------------------------------------------------------------------------
................................................ |       +                   
................................................ ||  |       +  +            
...................................        ....  | |         /   +           
................. ................   _,_ |  ....  ||         +|  +  +        
...............................  __.'  ,\|  ...  ||    /    +|          +    
.............................. (  \    \   ...  | |  |   + + \         +   
.............................  (    \   -/  .... ||       +    |          +  
........ ...................  <S   /()))))~~~~~~~~##     +     /\    +       
............................ (!H   (~~)))))~~~~~~#/     +  +    |  +         
................ ........... (!E   (~~~)))))     /|/    +         +          
............................ (!R   (~~~)))))   |||   + +            +        
..... ...................... (!P    (~~~~)))   /|  + +          +            
............................ (!A>    (~~~~~~~~~##        + +        +        
............................. ~~(!    '~~~~~~~ \       +     + +      +      
...............................  `~~~QQQQQDb //   |         + + +        +   
........................ ..........   IDDDDP||     \  + + + + +             +
....................................  IDDDI||       \                      + 
.................................... IHD HD||         \ + +  + + + + +      +
...................................  IHD ##|            :-) + +\          +  
......... ............... ......... IHI ## /      /   +  + + + +\       +    
................................... IHI/ /       /      + + + +        +     
................................... ## | | /    / + +      + + /      +      
....................... /TT\ .....  ##/ ///  / + + + + + + +/       +        
......................./TTT/T\ ... /TT\/\\\ / + + + + + + +/   \         +   
....................../TTT/TTTT\...|TT/T\\\/   +    ++  + /              
-----------------------------------------------------------------------------

     SHERPA version 3.0.0beta1 (Dhaulagiri)
                                                                             
     Authors:        Enrico Bothmann, Stefan Hoeche, Frank Krauss,           
                     Silvan Kuttimalai, Marek Schoenherr, Holger Schulz,     
                     Steffen Schumann, Frank Siegert, Korinna Zapp           
     Former Authors: Timo Fischer, Tanju Gleisberg, Hendrik Hoeth,           
                     Ralf Kuhn, Thomas Laubrich, Andreas Schaelicke,         
                     Jan Winter                                              
                                                                             
     This program uses a lot of genuine and original research work           
     by other people. Users are encouraged to refer to                       
     the various original publications.                                      
                                                                             
     Users are kindly asked to refer to the documentation                    
     published under JHEP 02(2009)007                                        
                                                                             
     Please visit also our homepage                                          
                                                                             
       http://sherpa.hepforge.org                                            
                                                                             
     for news, bugreports, updates and new releases.                         
                                                                             
-----------------------------------------------------------------------------
WARNING: You are using an unsupported development branch.
Git branch photon-pdf-fitting, revision cbce34ae4e06c58e8cfd6012e9ecf6e43a03c86e.
Hadron_Init::Init(): Initializing kf table for hadrons.
Beam_Spectra_Handler: type = Collider Setup
    for e+ (on = 1, p = (27.6,0,0,27.6))
    and P+ (on = 1, p = (820,0,0,-819.999)).
ISR handling:
    PDFs for hard scattering:              None + NNPDF31_nnlo_as_0118_proton
    PDFs for multiple parton interactions: None + PDF4LHC21_40_pdfas
Remnant_Handlers:
    hard process: P: Intact + P+: Hadron
Standard_Model::FixEWParameters() {
  Input scheme: Gmu
                Gmu scheme, input: GF, m_W, m_Z, m_h, widths
  Ren. scheme:  Gmu
                
  Parameters:   sin^2(\theta_W) = 0.222928 - 0.00110708 i
                vev             = 246.218
}
Running_AlphaQED::PrintSummary() {
  Setting \alpha according to EW scheme
  1/\alpha(0)   = 137.036
  1/\alpha(def) = 132.168
}
[1mOne_Running_AlphaS::One_Running_AlphaS(): [0m[31mOverriding \alpha_s information from PDF. Make sure you know what you are doing![0m
One_Running_AlphaS::PrintSummary() {
  Setting \alpha_s according to PDF
  perturbative order 1
  \alpha_s(M_Z) = 0.1188
}
[1mOne_Running_AlphaS::One_Running_AlphaS(): [0m[31mOverriding \alpha_s information from PDF. Make sure you know what you are doing![0m
One_Running_AlphaS::PrintSummary() {
  Setting \alpha_s according to PDF
  perturbative order 1
  \alpha_s(M_Z) = 0.1188
}
List of Particle Data 
     IDName     kfc            Mass           Width   Stable  Massive   Active          Yukawa
          d       1            0.01               0        1        0        1               0
          u       2           0.005               0        1        0        1               0
          s       3             0.2               0        1        0        1               0
          c       4            1.42               0        1        1        1            1.42
          b       5            4.92               0        1        1        1            4.92
          t       6          173.21             1.5        0        1        1          173.21
         e-      11        0.000511               0        1        0        1               0
         ve      12               0               0        1        0        1               0
        mu-      13           0.105               0        1        0        1               0
        vmu      14               0               0        1        0        1               0
       tau-      15           1.777     2.26735e-12        0        0        1               0
       vtau      16               0               0        1        0        1               0
          G      21               0               0        1        0        1               0
          P      22               0               0        1        0        1               0
          Z      23         91.1876          2.4952        0        1        1         91.1876
         W+      24          80.385           2.085        0        1        1          80.385
         h0      25             125         0.00407        0        1        1             125
     string      95               0               0        1        0        1               0
    cluster      96               0               0        1        0        1               0
  Instanton     999               0               0        0        0        1               0
List of Particle Containers 
     IDName     kfc     Constituents
          l      90     {e-,e+,mu-,mu+,tau-,tau+}
          v      91     {ve,veb,vmu,vmub,vtau,vtaub}
          f      92     {d,db,u,ub,s,sb,e-,e+,mu-,mu+,tau-,tau+,ve,veb,vmu,vmub,vtau,vtaub}
          j      93     {d,db,u,ub,s,sb,G}
          Q      94     {d,db,u,ub,s,sb}
        ewj      98     {d,db,u,ub,s,sb,G,P}
Shower_Handler initialised.

+-----------------------------------------+
|   X   X   X XXXX  XXX  XXX  XXX         |
|  X X  XX XX X    X      X  X     X   X  |
| X   X X X X XXX  X XXX  X  X    XXX XXX |
| XXXXX X   X X    X   X  X  X     X   X  |
| X   X X   X XXXX  XXX  XXX  XXX         |
+-----------------------------------------+
| please cite: JHEP 0202:044,2002         |
+-----------------------------------------+
Matrix_Element_Handler::Matrix_Element_Handler(): Set pilot run mode to 0.
ME_Generator_Base::SetPSMasses(): Massive PS flavours for Comix: (e-,e+,mu-,mu+,tau-,tau+)
+----------------------------------+
|                                  |
|      [31mCCC[0m  [32mOOO[0m  [34mM[0m   [34mM[0m I [33mX[0m   [33mX[0m     |
|     [31mC[0m    [32mO[0m   [32mO[0m [34mMM[0m [34mMM[0m I  [33mX[0m [33mX[0m      |
|     [31mC[0m    [32mO[0m   [32mO[0m [34mM[0m [34mM[0m [34mM[0m I   [33mX[0m       |
|     [31mC[0m    [32mO[0m   [32mO[0m [34mM[0m   [34mM[0m I  [33mX[0m [33mX[0m      |
|      [31mCCC[0m  [32mOOO[0m  [34mM[0m   [34mM[0m I [33mX[0m   [33mX[0m     |
|                                  |
+==================================+
|  Color dressed  Matrix Elements  |
|     http://comix.freacafe.de     |
|   please cite  JHEP12(2008)039   |
+----------------------------------+
ME_Generator_Base::SetPSMasses(): Massive PS flavours for Amegic: (e-,e+,mu-,mu+,tau-,tau+)
Matrix_Element_Handler::BuildProcesses(): 2 ME generators, 1 process blocks.
Matrix_Element_Handler::BuildProcesses(): Setting up processes ...... done ( 56 MB, 0s / 0s ).
Matrix_Element_Handler::InitializeProcesses(): Performing tests ...... done ( 56 MB, 0s / 0s ).
Matrix_Element_Handler::InitializeProcesses(): Initializing scales done ( 56 MB, 0s / 0s ).
Initialized the Matrix_Element_Handler for the hard processes.
Initialized the Beam_Remnant_Handler.
Process_Group::CalculateTotalXSec(): Calculate xs for '2_2__P__j__c__cb' (Comix)
Integration parameters: n_{min} = 5000, N_{opt} = 10, N_{max} = 1, exponent = 0.5
Starting the calculation at 16:54:30. Lean back and enjoy ... .
[34m63136.1 pb[0m +- ( [31m1796.37 pb = 2.84523 %[0m ) 5000 ( 44958 -> 11.1 % )
full optimization:  ( 0s elapsed / 27s left ) [16:54:30]
[34m68823.3 pb[0m +- ( [31m2502.26 pb = 3.63578 %[0m ) 7071 ( 59235 -> 14.5 % )
full optimization:  ( 0s elapsed / 26s left ) [16:54:31]
[34m65560.2 pb[0m +- ( [31m1537.55 pb = 2.34525 %[0m ) 9999 ( 69959 -> 27.3 % )
full optimization:  ( 0s elapsed / 24s left ) [16:54:31]
[34m64809.6 pb[0m +- ( [31m1088.72 pb = 1.67987 %[0m ) 14140 ( 81907 -> 34.6 % )
full optimization:  ( 0s elapsed / 21s left ) [16:54:31]
[34m64251.9 pb[0m +- ( [31m795.2 pb = 1.23763 %[0m ) 19996 ( 98148 -> 36 % )
full optimization:  ( 0s elapsed / 20s left ) [16:54:31]
[34m63947.7 pb[0m +- ( [31m591.6 pb = 0.925131 %[0m ) 28278 ( 120923 -> 36.3 % )
full optimization:  ( 0s elapsed / 18s left ) [16:54:31]
[34m63963 pb[0m +- ( [31m446.273 pb = 0.697705 %[0m ) 39991 ( 154088 -> 35.3 % )
full optimization:  ( 1s elapsed / 16s left ) [16:54:32]
[34m63773.1 pb[0m +- ( [31m341.326 pb = 0.53522 %[0m ) 56555 ( 201522 -> 34.9 % )
full optimization:  ( 1s elapsed / 16s left ) [16:54:32]
[34m63995.2 pb[0m +- ( [31m267.501 pb = 0.418001 %[0m ) 79980 ( 267107 -> 35.7 % )
full optimization:  ( 2s elapsed / 13s left ) [16:54:33]
[34m64075.7 pb[0m +- ( [31m212.15 pb = 0.331092 %[0m ) 113108 ( 362090 -> 34.8 % )
full optimization:  ( 3s elapsed / 12s left ) [16:54:34]
[34m64133.5 pb[0m +- ( [31m170.314 pb = 0.265562 %[0m ) 159958 ( 502644 -> 33.3 % )
integration time:   ( 5s elapsed / 12s left ) [16:54:35]
[1m2_2__P__j__c__cb[0m : [34m[1m64133.5 pb[0m +- ( [31m170.314 pb = 0.265562 %[0m ) [1m exp. eff: [31m3.19008 %[0m
  reduce max for 2_2__P__j__c__cb to 1 ( eps = 0.001 -> exp. eff 0.0319008 ) 
Process_Group::CalculateTotalXSec(): Calculate xs for '2_3__P__j__c__cb__j' (Comix)
Integration parameters: n_{min} = 5000, N_{opt} = 10, N_{max} = 1, exponent = 0.5
Starting the calculation at 16:54:35. Lean back and enjoy ... .
[34m114.215 pb[0m +- ( [31m9.54312 pb = 8.35538 %[0m ) 5000 ( 582661 -> 0.8 % )
full optimization:  ( 6s elapsed / 10m 52s left ) [16:54:42]
[34m89.9916 pb[0m +- ( [31m11.0283 pb = 12.2548 %[0m ) 7071 ( 608527 -> 8 % )
full optimization:  ( 6s elapsed / 8m 32s left ) [16:54:42]
[34m88.4003 pb[0m +- ( [31m7.34747 pb = 8.31158 %[0m ) 9999 ( 623300 -> 19.8 % )
full optimization:  ( 7s elapsed / 6m 42s left ) [16:54:43]
[34m89.6182 pb[0m +- ( [31m5.56974 pb = 6.21497 %[0m ) 14140 ( 637539 -> 29 % )
full optimization:  ( 8s elapsed / 5m 21s left ) [16:54:44]
[34m98.7005 pb[0m +- ( [31m7.31982 pb = 7.41619 %[0m ) 19996 ( 658329 -> 28.1 % )
full optimization:  ( 10s elapsed / 4m 24s left ) [16:54:46]
[34m102.215 pb[0m +- ( [31m6.00202 pb = 5.87195 %[0m ) 28278 ( 679611 -> 38.9 % )
full optimization:  ( 12s elapsed / 3m 39s left ) [16:54:48]
[34m115.355 pb[0m +- ( [31m9.55446 pb = 8.28265 %[0m ) 39991 ( 710595 -> 37.8 % )
full optimization:  ( 15s elapsed / 3m 6s left ) [16:54:51]
[34m155.909 pb[0m +- ( [31m43.8722 pb = 28.1397 %[0m ) 56555 ( 746955 -> 45.5 % )
full optimization:  ( 18s elapsed / 2m 39s left ) [16:54:54]
Mapping error in Vegas for CDBG_T_16_123_SC23
0: 5.62647e-09<->5.62791e-09 (1.43894e-12)
1: 0.291339<->0.291339 (0)
[34m148.762 pb[0m +- ( [31m34.7165 pb = 23.3369 %[0m ) 79980 ( 791365 -> 52.7 % )
full optimization:  ( 24s elapsed / 2m 17s left ) [16:55:00]
Mapping error in Vegas for CDBG_T_16_123_SC23
0: 1.73259e-08<->1.73221e-08 (3.7557e-12)
1: 0.233611<->0.233611 (7.99916e-13)
Mapping error in Vegas for CDBG_T_16_123_SC23
0: 1.15947e-09<->1.15889e-09 (5.78414e-13)
1: 0.313219<->0.313219 (5.55112e-17)
Mapping error in Vegas for CDBG_T_16_123_SC23
0: 1.92587e-08<->1.92627e-08 (3.93778e-12)
1: 0.690304<->0.690304 (1.11022e-16)
Mapping error in Vegas for CDBG_T_16_123_SC23
0: 4.66807e-09<->4.67293e-09 (4.85879e-12)
1: 0.552948<->0.552948 (0)
Mapping error in Vegas for CDBG_T_16_123_SC23
0: 1.60564e-09<->1.60749e-09 (1.8525e-12)
1: 0.14274<->0.14274 (2.77556e-17)
Mapping error in Vegas for CDBG_T_16_123_SC23
0: 2.4396e-08<->2.4391e-08 (5.04291e-12)
1: 0.304222<->0.304222 (0)
Mapping error in Vegas for CDBG_T_16_123_SC23
0: 1.00158e-08<->1.00086e-08 (7.2294e-12)
1: 0.868865<->0.868865 (0)
[34m139.729 pb[0m +- ( [31m26.1481 pb = 18.7135 %[0m ) 113108 ( 860116 -> 48.1 % )
full optimization:  ( 31s elapsed / 1m 58s left ) [16:55:07]
Mapping error in Vegas for CDBG_T_16_123_SC23
0: 3.33988e-09<->3.33732e-09 (2.55997e-12)
1: 0.112451<->0.112451 (0)
Mapping error in Vegas for CDBG_T_16_123_SC23
0: 7.61138e-09<->7.61603e-09 (4.65082e-12)
1: 0.373428<->0.373428 (0)
Mapping error in Vegas for CDBG_T_16_123_SC23
0: 4.57708e-09<->4.57437e-09 (2.7062e-12)
1: 0.843956<->0.843956 (0)
Mapping error in Vegas for CDBG_T_16_123_SC23
0: 1.83037e-08<->1.83077e-08 (4.01852e-12)
1: 0.085499<->0.085499 (1.38778e-17)
Mapping error in Vegas for CDBG_T_16_123_SC23
0: 1.0559e-08<->1.05557e-08 (3.25746e-12)
1: 0.880766<->0.880766 (0)
Mapping error in Vegas for CDBG_T_16_123_SC23
0: 1.3961e-08<->1.39644e-08 (3.43781e-12)
1: 0.126796<->0.126796 (0)
Mapping error in Vegas for CDBG_T_16_123_SC23
0: 9.93832e-10<->9.88962e-10 (4.86938e-12)
1: 0.846662<->0.846662 (0)
Mapping error in Vegas for CDBG_T_16_123_SC23
0: 1.4435e-10<->1.42737e-10 (1.61315e-12)
1: 0.321103<->0.321103 (5.55112e-17)
Mapping error in Vegas for CDBG_T_16_123_SC23
0: 5.21965e-09<->5.22349e-09 (3.83965e-12)
1: 0.1481<->0.1481 (0)
Mapping error in Vegas for CDBG_T_16_123_SC23
0: 2.0678e-08<->2.0673e-08 (4.98897e-12)
1: 0.975679<->0.975679 (1.11022e-16)
Mapping error in Vegas for CDBG_T_16_123_SC23
0: 3.77992e-09<->3.77913e-09 (7.90297e-13)
1: 0.749916<->0.749916 (5.66214e-15)
Mapping error in Vegas for CDBG_T_16_123_SC23
0: 2.61357e-09<->2.61684e-09 (3.27571e-12)
1: 0.294375<->0.294375 (5.55112e-17)
Mapping error in Vegas for CDBG_T_16_123_SC23
0: 1.29543e-09<->1.29483e-09 (6.07522e-13)
1: 0.312719<->0.312719 (0)
Mapping error in Vegas for CDBG_T_16_123_SC23
0: 4.93938e-09<->4.93801e-09 (1.36975e-12)
1: 0.575939<->0.575939 (0)
Mapping error in Vegas for CDBG_T_16_123_SC23
0: 8.02769e-09<->8.02385e-09 (3.83881e-12)
1: 0.674193<->0.674193 (0)
Mapping error in Vegas for CDBG_T_16_123_SC23
0: 9.26085e-09<->9.2643e-09 (3.44303e-12)
1: 0.333994<->0.333994 (5.55112e-17)
Mapping error in Vegas for CDBG_T_16_123_SC23
0: 2.86279e-09<->2.86493e-09 (2.14234e-12)
1: 0.878606<->0.878606 (1.11022e-16)
Mapping error in Vegas for CDBG_T_16_123_SC23
0: 3.56269e-09<->3.56502e-09 (2.32786e-12)
1: 0.241944<->0.241944 (1.11022e-16)
Mapping error in Vegas for CDBG_T_16_123_SC23
0: 9.36801e-10<->9.37985e-10 (1.18398e-12)
1: 0.161628<->0.161628 (5.55112e-17)
Mapping error in Vegas for CDBG_T_16_123_SC23
0: 1.73901e-09<->1.74003e-09 (1.02215e-12)
1: 0.00623769<->0.00623769 (8.67362e-19)
Mapping error in Vegas for CDBG_T_16_123_SC23
0: 6.47794e-10<->6.49113e-10 (1.31874e-12)
1: 0.35699<->0.35699 (0)
Mapping error in Vegas for CDBG_T_16_123_SC23
0: 2.70399e-09<->2.7052e-09 (1.20873e-12)
1: 0.366078<->0.366078 (0)
Mapping error in Vegas for CDBG_T_16_123_SC23
0: 9.02897e-10<->9.04e-10 (1.10271e-12)
1: 0.740246<->0.740246 (2.22045e-16)
Mapping error in Vegas for CDBG_T_16_123_SC23
0: 4.68522e-09<->4.68653e-09 (1.30068e-12)
1: 0.213714<->0.213714 (5.55112e-17)
Mapping error in Vegas for CDBG_T_16_123_SC23
0: 1.27976e-09<->1.28123e-09 (1.47235e-12)
1: 0.131332<->0.131332 (0)
Mapping error in Vegas for CDBG_T_16_123_SC23
0: 2.34618e-09<->2.34156e-09 (4.6181e-12)
1: 0.815537<->0.815537 (0)
Mapping error in Vegas for CDBG_T_16_123_SC23
0: 4.55597e-09<->4.55738e-09 (1.40958e-12)
1: 0.472763<->0.472763 (6.14608e-12)
Mapping error in Vegas for CDBG_T_16_123_SC23
0: 1.66137e-08<->1.66186e-08 (4.98039e-12)
1: 0.925981<->0.925981 (5.77405e-12)
Mapping error in Vegas for CDBG_T_16_123_SC23
0: 1.37805e-08<->1.37843e-08 (3.81263e-12)
1: 0.054923<->0.054923 (0)
Mapping error in Vegas for CDBG_T_16_123_SC23
0: 9.86385e-09<->9.85903e-09 (4.81103e-12)
1: 0.266165<->0.266165 (0)
Mapping error in Vegas for CDBG_T_16_123_SC23
0: 6.2132e-10<->6.21925e-10 (6.04383e-13)
1: 0.730551<->0.730551 (0)
Mapping error in Vegas for CDBG_T_16_123_SC23
0: 6.25709e-09<->6.25323e-09 (3.86145e-12)
1: 0.162442<->0.162442 (0)
[34m134.684 pb[0m +- ( [31m18.9248 pb = 14.0513 %[0m ) 159958 ( 967084 -> 43.7 % )
integration time:   ( 42s elapsed / 1m 40s left ) [16:55:18]
[1m2_3__P__j__c__cb__j[0m : [34m[1m134.684 pb[0m +- ( [31m18.9248 pb = 14.0513 %[0m ) [1m exp. eff: [31m0.00175706 %[0m
  reduce max for 2_3__P__j__c__cb__j to 1 ( eps = 0.001 -> exp. eff 1.75706e-05 ) 
Return_Value::PrintStatistics(): Statistics {
  Generated events: 0
}
Blob_List: Momentum Fail Statistics {
}
Decay_Channel: Kinematics max fail statistics {
}
WARNING: You are using an unsupported development branch.
------------------------------------------------------------------------
[1mPlease cite the publications listed in '[31mReferences.tex[0m[1m'.[0m
  Extract the bibtex list by running 'get_bibtex References.tex'
  or email the file to 'slaclib2@slac.stanford.edu', subject 'generate'.
------------------------------------------------------------------------
WARNING: Some settings that have been defined in the input
files and/or the command line have not been used. For more
details, see the Settings Report.
Time: 48s on Tue Feb 27 16:55:18 2024
 (User: 47s, System: 0s, Children User: 0s, Children System: 0s)
Welcome to Sherpa, Vithyaban Narendran on pplxwn022.physics.ox.ac.uk. Initialization of framework underway.
The local time is Tue Feb 27 16:55:18 2024.
Run_Parameter::Init(): Setting memory limit to 1007.01 GB.
Random::SetSeed(): Seed set to 1234
-----------------------------------------------------------------------------
-----------    Event generation run with SHERPA started .......   -----------
-----------------------------------------------------------------------------
................................................ |       +                   
................................................ ||  |       +  +            
...................................        ....  | |         /   +           
................. ................   _,_ |  ....  ||         +|  +  +        
...............................  __.'  ,\|  ...  ||    /    +|          +    
.............................. (  \    \   ...  | |  |   + + \         +   
.............................  (    \   -/  .... ||       +    |          +  
........ ...................  <S   /()))))~~~~~~~~##     +     /\    +       
............................ (!H   (~~)))))~~~~~~#/     +  +    |  +         
................ ........... (!E   (~~~)))))     /|/    +         +          
............................ (!R   (~~~)))))   |||   + +            +        
..... ...................... (!P    (~~~~)))   /|  + +          +            
............................ (!A>    (~~~~~~~~~##        + +        +        
............................. ~~(!    '~~~~~~~ \       +     + +      +      
...............................  `~~~QQQQQDb //   |         + + +        +   
........................ ..........   IDDDDP||     \  + + + + +             +
....................................  IDDDI||       \                      + 
.................................... IHD HD||         \ + +  + + + + +      +
...................................  IHD ##|            :-) + +\          +  
......... ............... ......... IHI ## /      /   +  + + + +\       +    
................................... IHI/ /       /      + + + +        +     
................................... ## | | /    / + +      + + /      +      
....................... /TT\ .....  ##/ ///  / + + + + + + +/       +        
......................./TTT/T\ ... /TT\/\\\ / + + + + + + +/   \         +   
....................../TTT/TTTT\...|TT/T\\\/   +    ++  + /              
-----------------------------------------------------------------------------

     SHERPA version 3.0.0beta1 (Dhaulagiri)
                                                                             
     Authors:        Enrico Bothmann, Stefan Hoeche, Frank Krauss,           
                     Silvan Kuttimalai, Marek Schoenherr, Holger Schulz,     
                     Steffen Schumann, Frank Siegert, Korinna Zapp           
     Former Authors: Timo Fischer, Tanju Gleisberg, Hendrik Hoeth,           
                     Ralf Kuhn, Thomas Laubrich, Andreas Schaelicke,         
                     Jan Winter                                              
                                                                             
     This program uses a lot of genuine and original research work           
     by other people. Users are encouraged to refer to                       
     the various original publications.                                      
                                                                             
     Users are kindly asked to refer to the documentation                    
     published under JHEP 02(2009)007                                        
                                                                             
     Please visit also our homepage                                          
                                                                             
       http://sherpa.hepforge.org                                            
                                                                             
     for news, bugreports, updates and new releases.                         
                                                                             
-----------------------------------------------------------------------------
WARNING: You are using an unsupported development branch.
Git branch photon-pdf-fitting, revision cbce34ae4e06c58e8cfd6012e9ecf6e43a03c86e.
Hadron_Init::Init(): Initializing kf table for hadrons.
Beam_Spectra_Handler: type = Collider Setup
    for e+ (on = 1, p = (27.6,0,0,27.6))
    and P+ (on = 1, p = (820,0,0,-819.999)).
ISR handling:
    PDFs for hard scattering:              None + NNPDF31_nnlo_as_0118_proton
    PDFs for multiple parton interactions: None + PDF4LHC21_40_pdfas
Remnant_Handlers:
    hard process: P: Intact + P+: Hadron
Standard_Model::FixEWParameters() {
  Input scheme: Gmu
                Gmu scheme, input: GF, m_W, m_Z, m_h, widths
  Ren. scheme:  Gmu
                
  Parameters:   sin^2(\theta_W) = 0.222928 - 0.00110708 i
                vev             = 246.218
}
Running_AlphaQED::PrintSummary() {
  Setting \alpha according to EW scheme
  1/\alpha(0)   = 137.036
  1/\alpha(def) = 132.168
}
[1mOne_Running_AlphaS::One_Running_AlphaS(): [0m[31mOverriding \alpha_s information from PDF. Make sure you know what you are doing![0m
One_Running_AlphaS::PrintSummary() {
  Setting \alpha_s according to PDF
  perturbative order 1
  \alpha_s(M_Z) = 0.1188
}
[1mOne_Running_AlphaS::One_Running_AlphaS(): [0m[31mOverriding \alpha_s information from PDF. Make sure you know what you are doing![0m
One_Running_AlphaS::PrintSummary() {
  Setting \alpha_s according to PDF
  perturbative order 1
  \alpha_s(M_Z) = 0.1188
}
List of Particle Data 
     IDName     kfc            Mass           Width   Stable  Massive   Active          Yukawa
          d       1            0.01               0        1        0        1               0
          u       2           0.005               0        1        0        1               0
          s       3             0.2               0        1        0        1               0
          c       4            1.42               0        1        1        1            1.42
          b       5            4.92               0        1        1        1            4.92
          t       6          173.21             1.5        0        1        1          173.21
         e-      11        0.000511               0        1        0        1               0
         ve      12               0               0        1        0        1               0
        mu-      13           0.105               0        1        0        1               0
        vmu      14               0               0        1        0        1               0
       tau-      15           1.777     2.26735e-12        0        0        1               0
       vtau      16               0               0        1        0        1               0
          G      21               0               0        1        0        1               0
          P      22               0               0        1        0        1               0
          Z      23         91.1876          2.4952        0        1        1         91.1876
         W+      24          80.385           2.085        0        1        1          80.385
         h0      25             125         0.00407        0        1        1             125
     string      95               0               0        1        0        1               0
    cluster      96               0               0        1        0        1               0
  Instanton     999               0               0        0        0        1               0
List of Particle Containers 
     IDName     kfc     Constituents
          l      90     {e-,e+,mu-,mu+,tau-,tau+}
          v      91     {ve,veb,vmu,vmub,vtau,vtaub}
          f      92     {d,db,u,ub,s,sb,e-,e+,mu-,mu+,tau-,tau+,ve,veb,vmu,vmub,vtau,vtaub}
          j      93     {d,db,u,ub,s,sb,G}
          Q      94     {d,db,u,ub,s,sb}
        ewj      98     {d,db,u,ub,s,sb,G,P}
Shower_Handler initialised.

+-----------------------------------------+
|   X   X   X XXXX  XXX  XXX  XXX         |
|  X X  XX XX X    X      X  X     X   X  |
| X   X X X X XXX  X XXX  X  X    XXX XXX |
| XXXXX X   X X    X   X  X  X     X   X  |
| X   X X   X XXXX  XXX  XXX  XXX         |
+-----------------------------------------+
| please cite: JHEP 0202:044,2002         |
+-----------------------------------------+
Matrix_Element_Handler::Matrix_Element_Handler(): Set pilot run mode to 0.
ME_Generator_Base::SetPSMasses(): Massive PS flavours for Comix: (e-,e+,mu-,mu+,tau-,tau+)
+----------------------------------+
|                                  |
|      [31mCCC[0m  [32mOOO[0m  [34mM[0m   [34mM[0m I [33mX[0m   [33mX[0m     |
|     [31mC[0m    [32mO[0m   [32mO[0m [34mMM[0m [34mMM[0m I  [33mX[0m [33mX[0m      |
|     [31mC[0m    [32mO[0m   [32mO[0m [34mM[0m [34mM[0m [34mM[0m I   [33mX[0m       |
|     [31mC[0m    [32mO[0m   [32mO[0m [34mM[0m   [34mM[0m I  [33mX[0m [33mX[0m      |
|      [31mCCC[0m  [32mOOO[0m  [34mM[0m   [34mM[0m I [33mX[0m   [33mX[0m     |
|                                  |
+==================================+
|  Color dressed  Matrix Elements  |
|     http://comix.freacafe.de     |
|   please cite  JHEP12(2008)039   |
+----------------------------------+
ME_Generator_Base::SetPSMasses(): Massive PS flavours for Amegic: (e-,e+,mu-,mu+,tau-,tau+)
Matrix_Element_Handler::BuildProcesses(): 2 ME generators, 1 process blocks.
Matrix_Element_Handler::BuildProcesses(): Setting up processes ...... done ( 56 MB, 0s / 0s ).
Matrix_Element_Handler::InitializeProcesses(): Performing tests ...... done ( 56 MB, 0s / 0s ).
Matrix_Element_Handler::InitializeProcesses(): Initializing scales done ( 56 MB, 0s / 0s ).
Initialized the Matrix_Element_Handler for the hard processes.
Initialized the Beam_Remnant_Handler.
MI_Handler::MI_Handler(id = 2, name = None, type = 0)
Underlying event/multiple interactions handler:
    MI[2]: on = 0 (type = 0, None)
Soft-collision handlers:
Hadron_Init::Init(): Initializing kf table for hadrons.
Initialized the Fragmentation_Handler.
Initialized the Hadron_Decay_Handler, Decay model = HADRONS++
Initialized the Soft_Photon_Handler.
WARNING in Variations::CheckConsistencyWithBeamSpectra: 
   The internal reweighting is only tested
   for hadronic beams of (anti-)protons.
   Will continue and hope for the best.
Initialized the Reweighting.
Read in channels from directory: Results/Comix/MC_2_2__P__j__c__cb
Process_Group::CalculateTotalXSec(): Calculate xs for '2_2__P__j__c__cb' (Comix)
[1m2_2__P__j__c__cb[0m : [34m[1m64133.5 pb[0m +- ( [31m170.314 pb = 0.265562 %[0m ) [1m exp. eff: [31m3.19008 %[0m
  reduce max for 2_2__P__j__c__cb to 1 ( eps = 0.001 -> exp. eff 0.0319008 ) 
Read in channels from directory: Results/Comix/MC_2_3__P__j__c__cb__j
Process_Group::CalculateTotalXSec(): Calculate xs for '2_3__P__j__c__cb__j' (Comix)
[1m2_3__P__j__c__cb__j[0m : [34m[1m134.684 pb[0m +- ( [31m18.9248 pb = 14.0513 %[0m ) [1m exp. eff: [31m0.00175706 %[0m
  reduce max for 2_3__P__j__c__cb__j to 1 ( eps = 0.001 -> exp. eff 1.75706e-05 ) 
----------------------------------------------------------
-- SHERPA generates events with the following structure --
----------------------------------------------------------
Event generation   : Weighted
Perturbative       : Signal_Processes
Perturbative       : Minimum_Bias: None
Perturbative       : Hard_Decays
Perturbative       : Jet_Evolution:CSS
Perturbative       : Lepton_FS_QED_Corrections:Photons
Perturbative       : Multiple_Interactions: None
Hadronization      : Beam_Remnants:Parametrised
Hadronization      : Hadronization:Ahadic
Hadronization      : Hadron_Decays
Userhook           : 
Analysis           : Rivet
---------------------------------------------------------
Rivet.AnalysisHandler: INFO  Using named weights
Rivet.AnalysisHandler: WARN  Analysis 'ZEUS_2003_I613625' is unvalidated: be careful, it may be broken!
  Event 1 ( 0s elapsed / 10d 4h 26m 39s left ) -> ETA: Fri Mar 08 21:22  
  XS = 22538 pb +- ( 22538 pb = 100 % )  [1A  Event 2 ( 0s elapsed / 5d 3h 36m 39s left ) -> ETA: Sun Mar 03 20:32  
  XS = 25985.9 pb +- ( 18128.3 pb = 69 % )  [1A  Event 3 ( 0s elapsed / 3d 11h 19m 59s left ) -> ETA: Sat Mar 02 04:15  
  XS = 36390.6 pb +- ( 20009.5 pb = 54 % )  [1A  Event 4 ( 0s elapsed / 2d 14h 29m 59s left ) -> ETA: Fri Mar 01 07:25  
  XS = 39094 pb +- ( 18547.3 pb = 47 % )  [1A  Event 5 ( 0s elapsed / 2d 2h 33m 19s left ) -> ETA: Thu Feb 29 19:28  
  XS = 37531.7 pb +- ( 17858.4 pb = 47 % )  [1A  Event 6 ( 0s elapsed / 1d 18h 7m 45s left ) -> ETA: Thu Feb 29 11:03  
  XS = 40256.5 pb +- ( 17372.8 pb = 43 % )  [1A  Event 7 ( 0s elapsed / 1d 12h 6m 39s left ) -> ETA: Thu Feb 29 05:02  
  XS = 43342.9 pb +- ( 16999.5 pb = 39 % )  [1A  Event 8 ( 0s elapsed / 1d 7h 56m 39s left ) -> ETA: Thu Feb 29 00:52  
  XS = 41641.4 pb +- ( 15010.9 pb = 36 % )  [1A  Event 9 ( 0s elapsed / 1d 5h 19m 14s left ) -> ETA: Wed Feb 28 22:14  
  XS = 45115.2 pb +- ( 15023.4 pb = 33 % )  [1A  Event 10 ( 0s elapsed / 1d 2h 23m 19s left ) -> ETA: Wed Feb 28 19:18  
  XS = 44088.5 pb +- ( 14647.7 pb = 33 % )  [1A  Event 20 ( 1s elapsed / 14h 1m 38s left ) -> ETA: Wed Feb 28 06:56  
  XS = 41968.8 pb +- ( 10626.5 pb = 25 % )  [1A  Event 30 ( 1s elapsed / 9h 59m 58s left ) -> ETA: Wed Feb 28 02:55  
  XS = 55329.7 pb +- ( 10755.3 pb = 19 % )  [1A  Event 40 ( 1s elapsed / 8h 3m 18s left ) -> ETA: Wed Feb 28 00:58  
  XS = 59240.5 pb +- ( 10256.6 pb = 17 % )  [1A  Event 50 ( 1s elapsed / 6h 59m 58s left ) -> ETA: Tue Feb 27 23:55  
  XS = 63770.3 pb +- ( 9748.96 pb = 15 % )  [1A  Event 60 ( 1s elapsed / 5h 58m 18s left ) -> ETA: Tue Feb 27 22:53  
  XS = 62464 pb +- ( 8716.01 pb = 13 % )  [1A  Event 70 ( 1s elapsed / 5h 16m 38s left ) -> ETA: Tue Feb 27 22:11  
  XS = 62102.7 pb +- ( 8192.81 pb = 13 % )  [1A  Event 80 ( 1s elapsed / 5h 22m 53s left ) -> ETA: Tue Feb 27 22:18  
  XS = 62224 pb +- ( 7532.49 pb = 12 % )  [1A  Event 90 ( 1s elapsed / 4h 52m 33s left ) -> ETA: Tue Feb 27 21:47  
  XS = 63182.3 pb +- ( 7318.24 pb = 11 % )  [1A  Event 100 ( 1s elapsed / 4h 36m 38s left ) -> ETA: Tue Feb 27 21:31  
  XS = 62353.2 pb +- ( 6749.68 pb = 10 % )  [1A  Event 200 ( 2s elapsed / 3h 25m 47s left ) -> ETA: Tue Feb 27 20:21  
  XS = 63873.6 pb +- ( 4714.2 pb = 7 % )  [1A  Event 300 ( 3s elapsed / 3h 15m 29s left ) -> ETA: Tue Feb 27 20:10  
  XS = 64113.2 pb +- ( 3846.58 pb = 5 % )  [1A  Event 400 ( 4s elapsed / 3h 6m 10s left ) -> ETA: Tue Feb 27 20:01  
  XS = 62936 pb +- ( 3295 pb = 5 % )  [1A  Event 500 ( 5s elapsed / 3h 5m 34s left ) -> ETA: Tue Feb 27 20:00  
  XS = 63454.7 pb +- ( 2929.39 pb = 4 % )  [1A  Event 600 ( 6s elapsed / 3h 4m 36s left ) -> ETA: Tue Feb 27 20:00  
  XS = 64828.6 pb +- ( 2708.96 pb = 4 % )  [1A  Event 700 ( 7s elapsed / 2h 51m 18s left ) -> ETA: Tue Feb 27 19:46  
  XS = 64356.4 pb +- ( 2490.43 pb = 3 % )  [1A  Event 800 ( 7s elapsed / 2h 41m 7s left ) -> ETA: Tue Feb 27 19:36  
  XS = 63952.7 pb +- ( 2313.47 pb = 3 % )  [1A  Event 900 ( 8s elapsed / 2h 43m 33s left ) -> ETA: Tue Feb 27 19:39  
  XS = 63561.4 pb +- ( 2174.89 pb = 3 % )  [1A  Event 1000 ( 9s elapsed / 2h 43m 50s left ) -> ETA: Tue Feb 27 19:39  
  XS = 64059.3 pb +- ( 2060.57 pb = 3 % )  [1A  Event 2000 ( 18s elapsed / 2h 30m 6s left ) -> ETA: Tue Feb 27 19:25  
  XS = 64189.2 pb +- ( 1466.23 pb = 2 % )  [1A  Event 3000 ( 24s elapsed / 2h 18m 11s left ) -> ETA: Tue Feb 27 19:13  
  XS = 64228 pb +- ( 1190.97 pb = 1 % )  [1A  Event 4000 ( 33s elapsed / 2h 18m 4s left ) -> ETA: Tue Feb 27 19:13  
  XS = 63793 pb +- ( 1023.29 pb = 1 % )  [1A  Event 5000 ( 39s elapsed / 2h 9m 30s left ) -> ETA: Tue Feb 27 19:05  
  XS = 64191.5 pb +- ( 921.205 pb = 1 % )  [1A  Event 6000 ( 46s elapsed / 2h 7m 37s left ) -> ETA: Tue Feb 27 19:03  
  XS = 64784.5 pb +- ( 848.512 pb = 1 % )  [1A  Event 7000 ( 52s elapsed / 2h 3m 50s left ) -> ETA: Tue Feb 27 19:00  
  XS = 64979.2 pb +- ( 786.66 pb = 1 % )  [1A  Event 8000 ( 59s elapsed / 2h 3m 45s left ) -> ETA: Tue Feb 27 19:00  
  XS = 65492.6 pb +- ( 739.247 pb = 1 % )  [1A  Event 9000 ( 1m 6s elapsed / 2h 2m 15s left ) -> ETA: Tue Feb 27 18:58  
  XS = 65210.3 pb +- ( 694.033 pb = 1 % )  [1A  Event 10000 ( 1m 13s elapsed / 2h 1m 24s left ) -> ETA: Tue Feb 27 18:57  
  XS = 65602.3 pb +- ( 661.13 pb = 1 % )  [1A  Event 20000 ( 2m 12s elapsed / 1h 47m 57s left ) -> ETA: Tue Feb 27 18:45  
  XS = 64661.3 pb +- ( 462.998 pb = 0 % )  [1A  Event 30000 ( 3m 28s elapsed / 1h 52m 26s left ) -> ETA: Tue Feb 27 18:51  
  XS = 64490.4 pb +- ( 378.296 pb = 0 % )  [1A  Event 40000 ( 4m 33s elapsed / 1h 49m 18s left ) -> ETA: Tue Feb 27 18:49  
  XS = 64289.5 pb +- ( 326.177 pb = 0 % )  [1A  Event 50000 ( 5m 49s elapsed / 1h 50m 38s left ) -> ETA: Tue Feb 27 18:51  
  XS = 64336 pb +- ( 291.472 pb = 0 % )  [1A  Event 60000 ( 7m 11s elapsed / 1h 52m 33s left ) -> ETA: Tue Feb 27 18:55  
  XS = 64309.7 pb +- ( 265.86 pb = 0 % )  [1A  Event 70000 ( 8m 31s elapsed / 1h 53m 14s left ) -> ETA: Tue Feb 27 18:57  
  XS = 64377.3 pb +- ( 246.342 pb = 0 % )  [1A  Event 80000 ( 9m 40s elapsed / 1h 51m 14s left ) -> ETA: Tue Feb 27 18:56  
  XS = 64445.9 pb +- ( 230.785 pb = 0 % )  [1A  Event 90000 ( 10m 49s elapsed / 1h 49m 30s left ) -> ETA: Tue Feb 27 18:55  
  XS = 64304.9 pb +- ( 217.257 pb = 0 % )  [1A  Event 100000 ( 11m 50s elapsed / 1h 46m 32s left ) -> ETA: Tue Feb 27 18:53  
  XS = 64308.9 pb +- ( 206.206 pb = 0 % )  [1A  Event 200000 ( 26m 15s elapsed / 1h 45m 2s left ) -> ETA: Tue Feb 27 19:06  
  XS = 64177.1 pb +- ( 145.87 pb = 0 % )  [1A  Event 300000 ( 38m 40s elapsed / 1h 30m 13s left ) -> ETA: Tue Feb 27 19:04  
  XS = 64194.6 pb +- ( 119.592 pb = 0 % )  [1A  Event 400000 ( 50m 27s elapsed / 1h 15m 41s left ) -> ETA: Tue Feb 27 19:01  
  XS = 64183.8 pb +- ( 103.402 pb = 0 % )  [1A  Event 500000 ( 1h 2m 34s elapsed / 1h 2m 34s left ) -> ETA: Tue Feb 27 19:00  
  XS = 64200.6 pb +- ( 92.4214 pb = 0 % )  [1ABlob_List::FourMomentumConservation throws four momentum error for Shower                     : (-0.000482883,1.249e-15,1.33227e-15,1.33227e-15) (1)
  Event 600000 ( 1h 13m 20s elapsed / 48m 53s left ) -> ETA: Tue Feb 27 18:57  
  XS = 64181.4 pb +- ( 84.9536 pb = 0 % )  [1A  Event 700000 ( 1h 24m 8s elapsed / 36m 3s left ) -> ETA: Tue Feb 27 18:55  
  XS = 64196.3 pb +- ( 78.5469 pb = 0 % )  [1A  Event 800000 ( 1h 35m 4s elapsed / 23m 46s left ) -> ETA: Tue Feb 27 18:54  
  XS = 64209.4 pb +- ( 73.8461 pb = 0 % )  [1ABlob_List::FourMomentumConservation throws four momentum error for Fragmentation              : (-2.21622e-08,2.94647e-12,-3.08023e-12,2.21626e-08) (1)
Blob_List::FourMomentumConservation throws four momentum error for Hadron Decay               : (3.60974e-09,5.52336e-13,-2.26673e-12,-3.60973e-09) (1)
Blob_List::FourMomentumConservation throws four momentum error for Hadron Decay               : (1.40261e-11,1.08324e-12,-4.70235e-13,-1.39764e-11) (2)
Blob_List::FourMomentumConservation throws four momentum error for Hadron Decay               : (7.34808e-11,-2.94001e-13,-1.04972e-13,-7.35128e-11) (3)
Blob_List::FourMomentumConservation throws four momentum error for Hadron Decay               : (0.0247808,-0.0179271,0.00880498,-0.0105207) (4)
Blob_List::FourMomentumConservation throws four momentum error for Hadron Decay               : (-1.37146e-10,1.45925e-14,2.8009e-12,1.37116e-10) (5)
Event_Handler::GenerateStandardPerturbativeEvent(): Four momentum not conserved. Rejecting event.
  Event 900000 ( 1h 45m 43s elapsed / 11m 44s left ) -> ETA: Tue Feb 27 18:52  
  XS = 64233 pb +- ( 69.5254 pb = 0 % )  [1A  Event 1000000 ( 7014 s total ) = 1.23189e+07 evts/day                    
In Event_Handler::Finish : Summarizing the run may take some time.
[31mRivet_Interface::Finish([32mZEUS2003_direct_TestPDF_2[31m)[0m[31m{[0m
[31m}[0m
--------------------------------------------------------------------------
Nominal or variation name     XS [pb]      RelDev  AbsErr [pb]      RelErr
--------------------------------------------------------------------------
[1mNominal                  [0m[34m[1m     64228.4[0m[33m         0 %[31m      65.8935       0.1 %[0m
--------------------------------------------------------------------------
Return_Value::PrintStatistics(): Statistics {
  Generated events: 1000000
  New events {
    From "Jet_Evolution:CSS": 1861 (1105530) -> 0.1 %
    From "Signal_Processes": 15 (1001877) -> 0 %
  }
  Retried phases {
    From "Hadron_Decay_Handler::RejectExclusiveChannelsFromFragmentation": 23571 (0) -> 23571.
  }
  Retried methods {
    From "Decay_Channel::GenerateKinematics": 19896 (26730119) -> 0 %
  }
}
Blob_List: Momentum Fail Statistics {
  Shower                     : 1 fails
  Fragmentation              : 1 fails
  Hadron Decay               : 6 fails
}
Decay_Channel: Kinematics max fail statistics {
  tau- --> pi+ pi+b pi+b pi vtau  maximal fail by 1.43486.
}
WARNING: You are using an unsupported development branch.
------------------------------------------------------------------------
[1mPlease cite the publications listed in '[31mReferences.tex[0m[1m'.[0m
  Extract the bibtex list by running 'get_bibtex References.tex'
  or email the file to 'slaclib2@slac.stanford.edu', subject 'generate'.
------------------------------------------------------------------------
Gluon_Splitter::~Gluon_Splitter with 13314 kinematic fails.

The MCnet usage guidelines apply to Rivet: see http://www.montecarlonet.org/GUIDELINES
Please acknowledge Rivet in results made using it, and cite https://arxiv.org/abs/1912.05451
Time: 1h 56m 56s on Tue Feb 27 18:52:15 2024
 (User: 1h 55m 55s, System: 0s, Children User: 0s, Children System: 0s)
