Welcome to Sherpa, Vithyaban Narendran on pplxwn021.physics.ox.ac.uk. Initialization of framework underway.
The local time is Wed Jan 31 14:34:33 2024.
Run_Parameter::Init(): Setting memory limit to 1007.01 GB.
Random::SetSeed(): Seed set to 1234
-----------------------------------------------------------------------------
-----------    Event generation run with SHERPA started .......   -----------
-----------------------------------------------------------------------------
................................................ |       +                   
................................................ ||  |       +  +            
...................................        ....  | |         /   +           
................. ................   _,_ |  ....  ||         +|  +  +        
...............................  __.'  ,\|  ...  ||    /    +|          +    
.............................. (  \    \   ...  | |  |   + + \         +   
.............................  (    \   -/  .... ||       +    |          +  
........ ...................  <S   /()))))~~~~~~~~##     +     /\    +       
............................ (!H   (~~)))))~~~~~~#/     +  +    |  +         
................ ........... (!E   (~~~)))))     /|/    +         +          
............................ (!R   (~~~)))))   |||   + +            +        
..... ...................... (!P    (~~~~)))   /|  + +          +            
............................ (!A>    (~~~~~~~~~##        + +        +        
............................. ~~(!    '~~~~~~~ \       +     + +      +      
...............................  `~~~QQQQQDb //   |         + + +        +   
........................ ..........   IDDDDP||     \  + + + + +             +
....................................  IDDDI||       \                      + 
.................................... IHD HD||         \ + +  + + + + +      +
...................................  IHD ##|            :-) + +\          +  
......... ............... ......... IHI ## /      /   +  + + + +\       +    
................................... IHI/ /       /      + + + +        +     
................................... ## | | /    / + +      + + /      +      
....................... /TT\ .....  ##/ ///  / + + + + + + +/       +        
......................./TTT/T\ ... /TT\/\\\ / + + + + + + +/   \         +   
....................../TTT/TTTT\...|TT/T\\\/   +    ++  + /              
-----------------------------------------------------------------------------

     SHERPA version 3.0.0beta1 (Dhaulagiri)
                                                                             
     Authors:        Enrico Bothmann, Stefan Hoeche, Frank Krauss,           
                     Silvan Kuttimalai, Marek Schoenherr, Holger Schulz,     
                     Steffen Schumann, Frank Siegert, Korinna Zapp           
     Former Authors: Timo Fischer, Tanju Gleisberg, Hendrik Hoeth,           
                     Ralf Kuhn, Thomas Laubrich, Andreas Schaelicke,         
                     Jan Winter                                              
                                                                             
     This program uses a lot of genuine and original research work           
     by other people. Users are encouraged to refer to                       
     the various original publications.                                      
                                                                             
     Users are kindly asked to refer to the documentation                    
     published under JHEP 02(2009)007                                        
                                                                             
     Please visit also our homepage                                          
                                                                             
       http://sherpa.hepforge.org                                            
                                                                             
     for news, bugreports, updates and new releases.                         
                                                                             
-----------------------------------------------------------------------------
WARNING: You are using an unsupported development branch.
Git branch photon-pdf-fitting, revision cbce34ae4e06c58e8cfd6012e9ecf6e43a03c86e.
Hadron_Init::Init(): Initializing kf table for hadrons.
Beam_Spectra_Handler: type = Collider Setup
    for e+ (on = 1, p = (27.5,0,0,27.5))
    and P+ (on = 1, p = (820,0,0,-819.999)).
ISR handling:
    PDFs for hard scattering:              None + NNPDF31_nnlo_as_0118_proton
    PDFs for multiple parton interactions: None + PDF4LHC21_40_pdfas
Remnant_Handlers:
    hard process: P: Intact + P+: Hadron
Standard_Model::FixEWParameters() {
  Input scheme: Gmu
                Gmu scheme, input: GF, m_W, m_Z, m_h, widths
  Ren. scheme:  Gmu
                
  Parameters:   sin^2(\theta_W) = 0.222928 - 0.00110708 i
                vev             = 246.218
}
Running_AlphaQED::PrintSummary() {
  Setting \alpha according to EW scheme
  1/\alpha(0)   = 137.036
  1/\alpha(def) = 132.168
}
[1mOne_Running_AlphaS::One_Running_AlphaS(): [0m[31mOverriding \alpha_s information from PDF. Make sure you know what you are doing![0m
One_Running_AlphaS::PrintSummary() {
  Setting \alpha_s according to PDF
  perturbative order 1
  \alpha_s(M_Z) = 0.1188
}
[1mOne_Running_AlphaS::One_Running_AlphaS(): [0m[31mOverriding \alpha_s information from PDF. Make sure you know what you are doing![0m
One_Running_AlphaS::PrintSummary() {
  Setting \alpha_s according to PDF
  perturbative order 1
  \alpha_s(M_Z) = 0.1188
}
List of Particle Data 
     IDName     kfc            Mass           Width   Stable  Massive   Active          Yukawa
          d       1            0.01               0        1        0        1               0
          u       2           0.005               0        1        0        1               0
          s       3             0.2               0        1        0        1               0
          c       4            1.42               0        1        1        1            1.42
          b       5            4.92               0        1        1        1            4.92
          t       6          173.21             1.5        0        1        1          173.21
         e-      11        0.000511               0        1        0        1               0
         ve      12               0               0        1        0        1               0
        mu-      13           0.105               0        1        0        1               0
        vmu      14               0               0        1        0        1               0
       tau-      15           1.777     2.26735e-12        0        0        1               0
       vtau      16               0               0        1        0        1               0
          G      21               0               0        1        0        1               0
          P      22               0               0        1        0        1               0
          Z      23         91.1876          2.4952        0        1        1         91.1876
         W+      24          80.385           2.085        0        1        1          80.385
         h0      25             125         0.00407        0        1        1             125
     string      95               0               0        1        0        1               0
    cluster      96               0               0        1        0        1               0
  Instanton     999               0               0        0        0        1               0
List of Particle Containers 
     IDName     kfc     Constituents
          l      90     {e-,e+,mu-,mu+,tau-,tau+}
          v      91     {ve,veb,vmu,vmub,vtau,vtaub}
          f      92     {d,db,u,ub,s,sb,e-,e+,mu-,mu+,tau-,tau+,ve,veb,vmu,vmub,vtau,vtaub}
          j      93     {d,db,u,ub,s,sb,G}
          Q      94     {d,db,u,ub,s,sb}
        ewj      98     {d,db,u,ub,s,sb,G,P}
Shower_Handler initialised.

+-----------------------------------------+
|   X   X   X XXXX  XXX  XXX  XXX         |
|  X X  XX XX X    X      X  X     X   X  |
| X   X X X X XXX  X XXX  X  X    XXX XXX |
| XXXXX X   X X    X   X  X  X     X   X  |
| X   X X   X XXXX  XXX  XXX  XXX         |
+-----------------------------------------+
| please cite: JHEP 0202:044,2002         |
+-----------------------------------------+
Matrix_Element_Handler::Matrix_Element_Handler(): Set pilot run mode to 0.
ME_Generator_Base::SetPSMasses(): Massive PS flavours for Comix: (e-,e+,mu-,mu+,tau-,tau+)
+----------------------------------+
|                                  |
|      [31mCCC[0m  [32mOOO[0m  [34mM[0m   [34mM[0m I [33mX[0m   [33mX[0m     |
|     [31mC[0m    [32mO[0m   [32mO[0m [34mMM[0m [34mMM[0m I  [33mX[0m [33mX[0m      |
|     [31mC[0m    [32mO[0m   [32mO[0m [34mM[0m [34mM[0m [34mM[0m I   [33mX[0m       |
|     [31mC[0m    [32mO[0m   [32mO[0m [34mM[0m   [34mM[0m I  [33mX[0m [33mX[0m      |
|      [31mCCC[0m  [32mOOO[0m  [34mM[0m   [34mM[0m I [33mX[0m   [33mX[0m     |
|                                  |
+==================================+
|  Color dressed  Matrix Elements  |
|     http://comix.freacafe.de     |
|   please cite  JHEP12(2008)039   |
+----------------------------------+
ME_Generator_Base::SetPSMasses(): Massive PS flavours for Amegic: (e-,e+,mu-,mu+,tau-,tau+)
Matrix_Element_Handler::BuildProcesses(): 2 ME generators, 1 process blocks.
Matrix_Element_Handler::BuildProcesses(): Setting up processes ........................................ done ( 61 MB, 0s / 0s ).
Matrix_Element_Handler::InitializeProcesses(): Performing tests ........................................ done ( 61 MB, 0s / 0s ).
Matrix_Element_Handler::InitializeProcesses(): Initializing scales done ( 62 MB, 0s / 0s ).
Initialized the Matrix_Element_Handler for the hard processes.
Initialized the Beam_Remnant_Handler.
[1m[31mNormal exit[0m[1m thrown[0m:
[31mInitialization complete.[0m
WARNING: You are using an unsupported development branch.
------------------------------------------------------------------------
[1mPlease cite the publications listed in '[31mReferences.tex[0m[1m'.[0m
  Extract the bibtex list by running 'get_bibtex References.tex'
  or email the file to 'slaclib2@slac.stanford.edu', subject 'generate'.
------------------------------------------------------------------------
[1mTerminator_Object_Handler::Exit: [0m[34mExiting Sherpa with code [0m[1m([31m0[0m[1m)[0m[?25h
Thanks for using LHAPDF 6.5.4. Please make sure to cite the paper:
  Eur.Phys.J. C75 (2015) 3, 132  (http://arxiv.org/abs/1412.7420)
Welcome to Sherpa, Vithyaban Narendran on pplxwn021.physics.ox.ac.uk. Initialization of framework underway.
The local time is Wed Jan 31 14:34:34 2024.
Run_Parameter::Init(): Setting memory limit to 1007.01 GB.
Random::SetSeed(): Seed set to 1234
-----------------------------------------------------------------------------
-----------    Event generation run with SHERPA started .......   -----------
-----------------------------------------------------------------------------
................................................ |       +                   
................................................ ||  |       +  +            
...................................        ....  | |         /   +           
................. ................   _,_ |  ....  ||         +|  +  +        
...............................  __.'  ,\|  ...  ||    /    +|          +    
.............................. (  \    \   ...  | |  |   + + \         +   
.............................  (    \   -/  .... ||       +    |          +  
........ ...................  <S   /()))))~~~~~~~~##     +     /\    +       
............................ (!H   (~~)))))~~~~~~#/     +  +    |  +         
................ ........... (!E   (~~~)))))     /|/    +         +          
............................ (!R   (~~~)))))   |||   + +            +        
..... ...................... (!P    (~~~~)))   /|  + +          +            
............................ (!A>    (~~~~~~~~~##        + +        +        
............................. ~~(!    '~~~~~~~ \       +     + +      +      
...............................  `~~~QQQQQDb //   |         + + +        +   
........................ ..........   IDDDDP||     \  + + + + +             +
....................................  IDDDI||       \                      + 
.................................... IHD HD||         \ + +  + + + + +      +
...................................  IHD ##|            :-) + +\          +  
......... ............... ......... IHI ## /      /   +  + + + +\       +    
................................... IHI/ /       /      + + + +        +     
................................... ## | | /    / + +      + + /      +      
....................... /TT\ .....  ##/ ///  / + + + + + + +/       +        
......................./TTT/T\ ... /TT\/\\\ / + + + + + + +/   \         +   
....................../TTT/TTTT\...|TT/T\\\/   +    ++  + /              
-----------------------------------------------------------------------------

     SHERPA version 3.0.0beta1 (Dhaulagiri)
                                                                             
     Authors:        Enrico Bothmann, Stefan Hoeche, Frank Krauss,           
                     Silvan Kuttimalai, Marek Schoenherr, Holger Schulz,     
                     Steffen Schumann, Frank Siegert, Korinna Zapp           
     Former Authors: Timo Fischer, Tanju Gleisberg, Hendrik Hoeth,           
                     Ralf Kuhn, Thomas Laubrich, Andreas Schaelicke,         
                     Jan Winter                                              
                                                                             
     This program uses a lot of genuine and original research work           
     by other people. Users are encouraged to refer to                       
     the various original publications.                                      
                                                                             
     Users are kindly asked to refer to the documentation                    
     published under JHEP 02(2009)007                                        
                                                                             
     Please visit also our homepage                                          
                                                                             
       http://sherpa.hepforge.org                                            
                                                                             
     for news, bugreports, updates and new releases.                         
                                                                             
-----------------------------------------------------------------------------
WARNING: You are using an unsupported development branch.
Git branch photon-pdf-fitting, revision cbce34ae4e06c58e8cfd6012e9ecf6e43a03c86e.
Hadron_Init::Init(): Initializing kf table for hadrons.
Beam_Spectra_Handler: type = Collider Setup
    for e+ (on = 1, p = (27.5,0,0,27.5))
    and P+ (on = 1, p = (820,0,0,-819.999)).
ISR handling:
    PDFs for hard scattering:              None + NNPDF31_nnlo_as_0118_proton
    PDFs for multiple parton interactions: None + PDF4LHC21_40_pdfas
Remnant_Handlers:
    hard process: P: Intact + P+: Hadron
Standard_Model::FixEWParameters() {
  Input scheme: Gmu
                Gmu scheme, input: GF, m_W, m_Z, m_h, widths
  Ren. scheme:  Gmu
                
  Parameters:   sin^2(\theta_W) = 0.222928 - 0.00110708 i
                vev             = 246.218
}
Running_AlphaQED::PrintSummary() {
  Setting \alpha according to EW scheme
  1/\alpha(0)   = 137.036
  1/\alpha(def) = 132.168
}
[1mOne_Running_AlphaS::One_Running_AlphaS(): [0m[31mOverriding \alpha_s information from PDF. Make sure you know what you are doing![0m
One_Running_AlphaS::PrintSummary() {
  Setting \alpha_s according to PDF
  perturbative order 1
  \alpha_s(M_Z) = 0.1188
}
[1mOne_Running_AlphaS::One_Running_AlphaS(): [0m[31mOverriding \alpha_s information from PDF. Make sure you know what you are doing![0m
One_Running_AlphaS::PrintSummary() {
  Setting \alpha_s according to PDF
  perturbative order 1
  \alpha_s(M_Z) = 0.1188
}
List of Particle Data 
     IDName     kfc            Mass           Width   Stable  Massive   Active          Yukawa
          d       1            0.01               0        1        0        1               0
          u       2           0.005               0        1        0        1               0
          s       3             0.2               0        1        0        1               0
          c       4            1.42               0        1        1        1            1.42
          b       5            4.92               0        1        1        1            4.92
          t       6          173.21             1.5        0        1        1          173.21
         e-      11        0.000511               0        1        0        1               0
         ve      12               0               0        1        0        1               0
        mu-      13           0.105               0        1        0        1               0
        vmu      14               0               0        1        0        1               0
       tau-      15           1.777     2.26735e-12        0        0        1               0
       vtau      16               0               0        1        0        1               0
          G      21               0               0        1        0        1               0
          P      22               0               0        1        0        1               0
          Z      23         91.1876          2.4952        0        1        1         91.1876
         W+      24          80.385           2.085        0        1        1          80.385
         h0      25             125         0.00407        0        1        1             125
     string      95               0               0        1        0        1               0
    cluster      96               0               0        1        0        1               0
  Instanton     999               0               0        0        0        1               0
List of Particle Containers 
     IDName     kfc     Constituents
          l      90     {e-,e+,mu-,mu+,tau-,tau+}
          v      91     {ve,veb,vmu,vmub,vtau,vtaub}
          f      92     {d,db,u,ub,s,sb,e-,e+,mu-,mu+,tau-,tau+,ve,veb,vmu,vmub,vtau,vtaub}
          j      93     {d,db,u,ub,s,sb,G}
          Q      94     {d,db,u,ub,s,sb}
        ewj      98     {d,db,u,ub,s,sb,G,P}
Shower_Handler initialised.

+-----------------------------------------+
|   X   X   X XXXX  XXX  XXX  XXX         |
|  X X  XX XX X    X      X  X     X   X  |
| X   X X X X XXX  X XXX  X  X    XXX XXX |
| XXXXX X   X X    X   X  X  X     X   X  |
| X   X X   X XXXX  XXX  XXX  XXX         |
+-----------------------------------------+
| please cite: JHEP 0202:044,2002         |
+-----------------------------------------+
Matrix_Element_Handler::Matrix_Element_Handler(): Set pilot run mode to 0.
ME_Generator_Base::SetPSMasses(): Massive PS flavours for Comix: (e-,e+,mu-,mu+,tau-,tau+)
+----------------------------------+
|                                  |
|      [31mCCC[0m  [32mOOO[0m  [34mM[0m   [34mM[0m I [33mX[0m   [33mX[0m     |
|     [31mC[0m    [32mO[0m   [32mO[0m [34mMM[0m [34mMM[0m I  [33mX[0m [33mX[0m      |
|     [31mC[0m    [32mO[0m   [32mO[0m [34mM[0m [34mM[0m [34mM[0m I   [33mX[0m       |
|     [31mC[0m    [32mO[0m   [32mO[0m [34mM[0m   [34mM[0m I  [33mX[0m [33mX[0m      |
|      [31mCCC[0m  [32mOOO[0m  [34mM[0m   [34mM[0m I [33mX[0m   [33mX[0m     |
|                                  |
+==================================+
|  Color dressed  Matrix Elements  |
|     http://comix.freacafe.de     |
|   please cite  JHEP12(2008)039   |
+----------------------------------+
ME_Generator_Base::SetPSMasses(): Massive PS flavours for Amegic: (e-,e+,mu-,mu+,tau-,tau+)
Matrix_Element_Handler::BuildProcesses(): 2 ME generators, 1 process blocks.
Matrix_Element_Handler::BuildProcesses(): Setting up processes ........................................ done ( 59 MB, 0s / 0s ).
Matrix_Element_Handler::InitializeProcesses(): Performing tests ........................................ done ( 59 MB, 0s / 0s ).
Matrix_Element_Handler::InitializeProcesses(): Initializing scales done ( 59 MB, 0s / 0s ).
Initialized the Matrix_Element_Handler for the hard processes.
Initialized the Beam_Remnant_Handler.
Beam_Channels::CheckForStructuresFromME for 0: (none)
ISR_Channels::CheckForStructuresFromME for 0: (none)
Process_Group::CalculateTotalXSec(): Calculate xs for '2_2__P__j__j__j' (Comix)
Integration parameters: n_{min} = 5000, N_{opt} = 10, N_{max} = 1, exponent = 0.5
Starting the calculation at 14:34:35. Lean back and enjoy ... .
[34m502.431 pb[0m +- ( [31m14.2653 pb = 2.83925 %[0m ) 5000 ( 10649 -> 46.9 % )
full optimization:  ( 0s elapsed / 41s left ) [14:34:35]
[34m468.854 pb[0m +- ( [31m18.4426 pb = 3.93356 %[0m ) 7071 ( 14701 -> 51.1 % )
full optimization:  ( 0s elapsed / 41s left ) [14:34:35]
[34m479.486 pb[0m +- ( [31m9.96998 pb = 2.0793 %[0m ) 9999 ( 19415 -> 62.1 % )
full optimization:  ( 0s elapsed / 41s left ) [14:34:35]
[34m481.54 pb[0m +- ( [31m6.31147 pb = 1.31069 %[0m ) 14140 ( 26343 -> 59.7 % )
full optimization:  ( 1s elapsed / 39s left ) [14:34:36]
[34m480.131 pb[0m +- ( [31m4.33498 pb = 0.902874 %[0m ) 19996 ( 36917 -> 55.3 % )
full optimization:  ( 1s elapsed / 39s left ) [14:34:36]
[34m482.117 pb[0m +- ( [31m3.17882 pb = 0.659346 %[0m ) 28278 ( 52514 -> 53 % )
full optimization:  ( 2s elapsed / 36s left ) [14:34:37]
[34m483.809 pb[0m +- ( [31m2.43918 pb = 0.504161 %[0m ) 39991 ( 76302 -> 49.2 % )
full optimization:  ( 3s elapsed / 41s left ) [14:34:38]
[34m486.65 pb[0m +- ( [31m1.93919 pb = 0.398476 %[0m ) 56555 ( 111780 -> 46.6 % )
full optimization:  ( 4s elapsed / 42s left ) [14:34:40]
[34m487.699 pb[0m +- ( [31m1.56939 pb = 0.321795 %[0m ) 79980 ( 164231 -> 44.6 % )
full optimization:  ( 6s elapsed / 38s left ) [14:34:41]
[34m487.452 pb[0m +- ( [31m1.28704 pb = 0.264033 %[0m ) 113108 ( 241279 -> 42.9 % )
full optimization:  ( 9s elapsed / 33s left ) [14:34:44]
[34m487.269 pb[0m +- ( [31m1.06841 pb = 0.219265 %[0m ) 159958 ( 356359 -> 40.7 % )
integration time:   ( 12s elapsed / 29s left ) [14:34:47]
[1m2_2__P__j__j__j[0m : [34m[1m487.269 pb[0m +- ( [31m1.06841 pb = 0.219265 %[0m ) [1m exp. eff: [31m3.30383 %[0m
  reduce max for 2_2__P__j__j__j to 1 ( eps = 0.001 -> exp. eff 0.0330383 ) 
Process_Group::CalculateTotalXSec(): Calculate xs for '2_2__P__j__c__cb' (Comix)
Integration parameters: n_{min} = 5000, N_{opt} = 10, N_{max} = 1, exponent = 0.5
Starting the calculation at 14:34:47. Lean back and enjoy ... .
[34m133.992 pb[0m +- ( [31m4.53675 pb = 3.38583 %[0m ) 5000 ( 32739 -> 15.2 % )
full optimization:  ( 0s elapsed / 20s left ) [14:34:47]
[34m147.401 pb[0m +- ( [31m6.26483 pb = 4.25021 %[0m ) 7071 ( 45410 -> 16.3 % )
full optimization:  ( 0s elapsed / 19s left ) [14:34:47]
[34m143.016 pb[0m +- ( [31m4.06785 pb = 2.84432 %[0m ) 9999 ( 53301 -> 37.1 % )
full optimization:  ( 0s elapsed / 18s left ) [14:34:47]
[34m143.193 pb[0m +- ( [31m2.92124 pb = 2.04007 %[0m ) 14140 ( 62257 -> 46.2 % )
full optimization:  ( 0s elapsed / 16s left ) [14:34:47]
[34m141.873 pb[0m +- ( [31m2.0982 pb = 1.47892 %[0m ) 19996 ( 75214 -> 45.1 % )
full optimization:  ( 0s elapsed / 15s left ) [14:34:48]
[34m142.221 pb[0m +- ( [31m1.52728 pb = 1.07388 %[0m ) 28278 ( 93748 -> 44.6 % )
full optimization:  ( 0s elapsed / 14s left ) [14:34:48]
[34m142.045 pb[0m +- ( [31m1.11768 pb = 0.786853 %[0m ) 39991 ( 121402 -> 42.3 % )
full optimization:  ( 1s elapsed / 13s left ) [14:34:48]
[34m141.773 pb[0m +- ( [31m0.826452 pb = 0.582939 %[0m ) 56555 ( 163856 -> 39 % )
full optimization:  ( 1s elapsed / 12s left ) [14:34:49]
[34m142.387 pb[0m +- ( [31m0.626242 pb = 0.439818 %[0m ) 79980 ( 227316 -> 36.9 % )
full optimization:  ( 2s elapsed / 11s left ) [14:34:49]
[34m142.008 pb[0m +- ( [31m0.485123 pb = 0.341617 %[0m ) 113108 ( 318454 -> 36.3 % )
full optimization:  ( 2s elapsed / 11s left ) [14:34:50]
[34m142.023 pb[0m +- ( [31m0.383778 pb = 0.270222 %[0m ) 159958 ( 456961 -> 33.8 % )
integration time:   ( 4s elapsed / 11s left ) [14:34:52]
[1m2_2__P__j__c__cb[0m : [34m[1m142.023 pb[0m +- ( [31m0.383778 pb = 0.270222 %[0m ) [1m exp. eff: [31m2.17102 %[0m
  reduce max for 2_2__P__j__c__cb to 1 ( eps = 0.001 -> exp. eff 0.0217102 ) 
Process_Group::CalculateTotalXSec(): Calculate xs for '2_2__P__j__b__bb' (Comix)
Integration parameters: n_{min} = 5000, N_{opt} = 10, N_{max} = 1, exponent = 0.5
Starting the calculation at 14:34:52. Lean back and enjoy ... .
[34m33.5869 pb[0m +- ( [31m0.979024 pb = 2.9149 %[0m ) 5000 ( 19912 -> 25.1 % )
full optimization:  ( 0s elapsed / 18s left ) [14:34:52]
[34m32.9214 pb[0m +- ( [31m1.23654 pb = 3.75605 %[0m ) 7071 ( 27622 -> 26.8 % )
full optimization:  ( 0s elapsed / 18s left ) [14:34:52]
[34m33.4556 pb[0m +- ( [31m0.736389 pb = 2.20109 %[0m ) 9999 ( 34561 -> 42.1 % )
full optimization:  ( 0s elapsed / 16s left ) [14:34:52]
[34m33.7169 pb[0m +- ( [31m0.495308 pb = 1.46902 %[0m ) 14140 ( 43618 -> 45.7 % )
full optimization:  ( 0s elapsed / 15s left ) [14:34:52]
[34m33.6206 pb[0m +- ( [31m0.351044 pb = 1.04413 %[0m ) 19996 ( 56474 -> 45.5 % )
full optimization:  ( 0s elapsed / 14s left ) [14:34:52]
[34m33.7609 pb[0m +- ( [31m0.260044 pb = 0.770254 %[0m ) 28278 ( 74456 -> 46 % )
full optimization:  ( 0s elapsed / 13s left ) [14:34:53]
[34m33.7468 pb[0m +- ( [31m0.197296 pb = 0.584637 %[0m ) 39991 ( 100283 -> 45.3 % )
full optimization:  ( 0s elapsed / 12s left ) [14:34:53]
[34m33.844 pb[0m +- ( [31m0.153868 pb = 0.454637 %[0m ) 56555 ( 137919 -> 44 % )
full optimization:  ( 1s elapsed / 11s left ) [14:34:53]
[34m33.9298 pb[0m +- ( [31m0.122223 pb = 0.360223 %[0m ) 79980 ( 191253 -> 43.9 % )
full optimization:  ( 1s elapsed / 10s left ) [14:34:54]
[34m33.9884 pb[0m +- ( [31m0.09858 pb = 0.29004 %[0m ) 113108 ( 268589 -> 42.8 % )
full optimization:  ( 2s elapsed / 9s left ) [14:34:54]
[34m34.0077 pb[0m +- ( [31m0.0804663 pb = 0.236612 %[0m ) 159958 ( 382069 -> 41.2 % )
integration time:   ( 3s elapsed / 8s left ) [14:34:55]
[1m2_2__P__j__b__bb[0m : [34m[1m34.0077 pb[0m +- ( [31m0.0804663 pb = 0.236612 %[0m ) [1m exp. eff: [31m6.803 %[0m
  reduce max for 2_2__P__j__b__bb to 1 ( eps = 0.001 -> exp. eff 0.06803 ) 
Beam_Channels::CheckForStructuresFromME for 0: (none)
ISR_Channels::CheckForStructuresFromME for 0: (none)
Process_Group::CalculateTotalXSec(): Calculate xs for '2_3__P__j__j__j__j' (Comix)
Integration parameters: n_{min} = 5000, N_{opt} = 10, N_{max} = 1, exponent = 0.5
Starting the calculation at 14:34:55. Lean back and enjoy ... .
[34m101.198 pb[0m +- ( [31m21.4716 pb = 21.2173 %[0m ) 5000 ( 22106 -> 22.6 % )
full optimization:  ( 4s elapsed / 7m 17s left ) [14:34:59]
[34m95.203 pb[0m +- ( [31m36.5141 pb = 38.354 %[0m ) 7071 ( 30358 -> 25 % )
full optimization:  ( 5s elapsed / 7m 13s left ) [14:35:01]
[34m98.6335 pb[0m +- ( [31m23.0717 pb = 23.3914 %[0m ) 9999 ( 39252 -> 32.9 % )
full optimization:  ( 8s elapsed / 7m 43s left ) [14:35:04]
[34m124.496 pb[0m +- ( [31m20.1351 pb = 16.1733 %[0m ) 14140 ( 49225 -> 41.5 % )
full optimization:  ( 12s elapsed / 7m 32s left ) [14:35:08]
[34m112.153 pb[0m +- ( [31m13.4229 pb = 11.9683 %[0m ) 19996 ( 63716 -> 40.4 % )
full optimization:  ( 17s elapsed / 7m 38s left ) [14:35:13]
[34m174.412 pb[0m +- ( [31m60.3052 pb = 34.5764 %[0m ) 28278 ( 81844 -> 45.6 % )
full optimization:  ( 27s elapsed / 8m 3s left ) [14:35:22]
[34m260.788 pb[0m +- ( [31m110.882 pb = 42.5179 %[0m ) 39991 ( 103927 -> 53 % )
full optimization:  ( 39s elapsed / 8m 7s left ) [14:35:35]
[34m229.725 pb[0m +- ( [31m83.4579 pb = 36.3295 %[0m ) 56555 ( 130908 -> 61.3 % )
full optimization:  ( 1m 1s elapsed / 8m 43s left ) [14:35:57]
[34m246.325 pb[0m +- ( [31m72.9438 pb = 29.6129 %[0m ) 79980 ( 168378 -> 62.5 % )
full optimization:  ( 1m 29s elapsed / 8m 29s left ) [14:36:25]
[34m221.182 pb[0m +- ( [31m54.8055 pb = 24.7785 %[0m ) 113108 ( 216885 -> 68.2 % )
full optimization:  ( 2m 6s elapsed / 7m 51s left ) [14:37:02]
Mapping error in Vegas for CDBG_T_16_123_SC23
0: 4.47129e-10<->4.45203e-10 (1.92646e-12)
1: 0.743717<->0.743717 (2.22045e-16)
Mapping error in Vegas for CDBG_T_16_123_SC23
0: 1.38595e-09<->1.38659e-09 (6.34673e-13)
1: 0.657648<->0.657648 (0)
Mapping error in Vegas for CDBG_T_16_123_SC23
0: 5.74015e-10<->5.74346e-10 (3.30358e-13)
1: 0.212701<->0.212701 (0)
Mapping error in Vegas for CDBG_T_16_123_SC23
0: 9.56132e-09<->9.56337e-09 (2.04991e-12)
1: 0.429482<->0.429482 (0)
Mapping error in Vegas for CDBG_T_16_123_SC23
0: 1.7705e-09<->1.76382e-09 (6.6785e-12)
1: 0.71727<->0.71727 (0)
Mapping error in Vegas for CDBG_T_4_134_SC34
0: 5.74588e-09<->5.75025e-09 (4.3769e-12)
1: 0.997444<->0.997444 (1.11022e-16)
[34m206.198 pb[0m +- ( [31m39.6169 pb = 19.213 %[0m ) 159958 ( 291965 -> 62.4 % )
integration time:   ( 3m elapsed / 7m 3s left ) [14:37:56]
[1m2_3__P__j__j__j__j[0m : [34m[1m206.198 pb[0m +- ( [31m39.6169 pb = 19.213 %[0m ) [1m exp. eff: [31m0.0031 %[0m
  reduce max for 2_3__P__j__j__j__j to 1 ( eps = 0.001 -> exp. eff 3.1e-05 ) 
Process_Group::CalculateTotalXSec(): Calculate xs for '2_3__P__j__c__cb__j' (Comix)
Integration parameters: n_{min} = 5000, N_{opt} = 10, N_{max} = 1, exponent = 0.5
Starting the calculation at 14:37:56. Lean back and enjoy ... .
[34m47.2369 pb[0m +- ( [31m16.2137 pb = 34.3242 %[0m ) 5000 ( 126750 -> 3.9 % )
full optimization:  ( 2s elapsed / 4m 37s left ) [14:37:58]
[34m19.9003 pb[0m +- ( [31m2.35341 pb = 11.826 %[0m ) 7071 ( 162064 -> 5.8 % )
full optimization:  ( 3s elapsed / 4m 18s left ) [14:37:59]
[34m21.0193 pb[0m +- ( [31m1.60246 pb = 7.62376 %[0m ) 9999 ( 182510 -> 14.3 % )
full optimization:  ( 4s elapsed / 3m 50s left ) [14:38:00]
[34m21.8968 pb[0m +- ( [31m1.22664 pb = 5.60191 %[0m ) 14140 ( 201221 -> 22.1 % )
full optimization:  ( 5s elapsed / 3m 28s left ) [14:38:02]
[34m21.9448 pb[0m +- ( [31m0.927798 pb = 4.22788 %[0m ) 19996 ( 226780 -> 22.9 % )
full optimization:  ( 7s elapsed / 3m 11s left ) [14:38:03]
[34m21.7919 pb[0m +- ( [31m0.691189 pb = 3.17177 %[0m ) 28278 ( 263291 -> 22.6 % )
full optimization:  ( 10s elapsed / 2m 58s left ) [14:38:06]
[34m21.9271 pb[0m +- ( [31m0.505132 pb = 2.30369 %[0m ) 39991 ( 318212 -> 21.3 % )
full optimization:  ( 14s elapsed / 2m 55s left ) [14:38:10]
[34m22.8079 pb[0m +- ( [31m0.613491 pb = 2.68981 %[0m ) 56555 ( 397513 -> 20.8 % )
full optimization:  ( 19s elapsed / 2m 44s left ) [14:38:15]
[34m22.5425 pb[0m +- ( [31m0.454381 pb = 2.01567 %[0m ) 79980 ( 499762 -> 22.9 % )
full optimization:  ( 26s elapsed / 2m 31s left ) [14:38:22]
[34m22.7317 pb[0m +- ( [31m0.327673 pb = 1.44148 %[0m ) 113108 ( 655618 -> 21.2 % )
full optimization:  ( 37s elapsed / 2m 19s left ) [14:38:33]
Mapping error in Vegas for CDBG_T_16_123_SC23
0: 2.72707e-09<->2.72219e-09 (4.87624e-12)
1: 0.0799302<->0.0799302 (0)
[34m22.8517 pb[0m +- ( [31m0.230093 pb = 1.00689 %[0m ) 159958 ( 906063 -> 18.7 % )
integration time:   ( 52s elapsed / 2m 3s left ) [14:38:48]
[1m2_3__P__j__c__cb__j[0m : [34m[1m22.8517 pb[0m +- ( [31m0.230093 pb = 1.00689 %[0m ) [1m exp. eff: [31m0.01718 %[0m
  reduce max for 2_3__P__j__c__cb__j to 1 ( eps = 0.001 -> exp. eff 0.0001718 ) 
Process_Group::CalculateTotalXSec(): Calculate xs for '2_3__P__j__b__bb__j' (Comix)
Integration parameters: n_{min} = 5000, N_{opt} = 10, N_{max} = 1, exponent = 0.5
Starting the calculation at 14:38:48. Lean back and enjoy ... .
[34m5.51448 pb[0m +- ( [31m0.469452 pb = 8.51308 %[0m ) 5000 ( 91838 -> 5.4 % )
full optimization:  ( 2s elapsed / 3m 40s left ) [14:38:50]
[34m5.5735 pb[0m +- ( [31m0.576711 pb = 10.3474 %[0m ) 7071 ( 116309 -> 8.4 % )
full optimization:  ( 2s elapsed / 3m 43s left ) [14:38:51]
[34m5.5611 pb[0m +- ( [31m0.434842 pb = 7.81935 %[0m ) 9999 ( 140179 -> 12.2 % )
full optimization:  ( 4s elapsed / 3m 42s left ) [14:38:53]
[34m5.88187 pb[0m +- ( [31m0.517532 pb = 8.79877 %[0m ) 14140 ( 162072 -> 18.9 % )
full optimization:  ( 5s elapsed / 3m 34s left ) [14:38:54]
[34m5.48822 pb[0m +- ( [31m0.410413 pb = 7.47807 %[0m ) 19996 ( 181045 -> 30.8 % )
full optimization:  ( 7s elapsed / 3m 12s left ) [14:38:56]
[34m5.30179 pb[0m +- ( [31m0.341345 pb = 6.4383 %[0m ) 28278 ( 211439 -> 27.2 % )
full optimization:  ( 10s elapsed / 3m 11s left ) [14:38:59]
[34m5.11076 pb[0m +- ( [31m0.263214 pb = 5.15019 %[0m ) 39991 ( 249114 -> 31 % )
full optimization:  ( 13s elapsed / 2m 51s left ) [14:39:02]
[34m5.0409 pb[0m +- ( [31m0.22321 pb = 4.42798 %[0m ) 56555 ( 298774 -> 33.3 % )
full optimization:  ( 18s elapsed / 2m 36s left ) [14:39:07]
Mapping error in Vegas for CDBG_T_16_123_SC23
0: 2.6515e-09<->2.65083e-09 (6.74446e-13)
1: 0.0870892<->0.0870892 (0)
[34m4.89266 pb[0m +- ( [31m0.16908 pb = 3.4558 %[0m ) 79980 ( 368262 -> 33.7 % )
full optimization:  ( 25s elapsed / 2m 26s left ) [14:39:14]
Mapping error in Vegas for CDBG_T_16_123_SC23
0: 1.47896e-08<->1.47936e-08 (4.09601e-12)
1: 0.298337<->0.298337 (0)
Mapping error in Vegas for CDBG_T_16_123_SC23
0: 5.37498e-09<->5.37642e-09 (1.44447e-12)
1: 0.705477<->0.705477 (2.22045e-16)
Mapping error in Vegas for CDBG_T_16_123_SC23
0: 1.09886e-08<->1.09839e-08 (4.62782e-12)
1: 0.798533<->0.798533 (0)
Mapping error in Vegas for CDBG_T_16_123_SC23
0: 1.93029e-08<->1.93068e-08 (3.93231e-12)
1: 0.312901<->0.312901 (0)
Mapping error in Vegas for CDBG_T_16_123_SC23
0: 7.39677e-09<->7.39513e-09 (1.64495e-12)
1: 0.407672<->0.407672 (0)
[34m4.90895 pb[0m +- ( [31m0.122089 pb = 2.48707 %[0m ) 113108 ( 482947 -> 28.8 % )
full optimization:  ( 39s elapsed / 2m 26s left ) [14:39:28]
Mapping error in Vegas for CDBG_T_16_123_SC23
0: 2.2153e-08<->2.2148e-08 (5.01345e-12)
1: 0.292542<->0.292542 (0)
Mapping error in Vegas for CDBG_T_16_123_SC23
0: 1.34682e-08<->1.34648e-08 (3.35393e-12)
1: 0.968878<->0.968878 (0)
Mapping error in Vegas for CDBG_T_16_123_SC23
0: 7.77159e-10<->7.81654e-10 (4.49506e-12)
1: 0.440682<->0.440682 (5.55112e-17)
Mapping error in Vegas for CDBG_T_16_123_SC23
0: 4.5981e-09<->4.60156e-09 (3.46419e-12)
1: 0.66091<->0.66091 (1.11022e-16)
Mapping error in Vegas for CDBG_T_16_123_SC23
0: 2.95377e-09<->2.95669e-09 (2.91629e-12)
1: 0.309801<->0.309801 (5.55112e-17)
Mapping error in Vegas for CDBG_T_16_123_SC23
0: 1.21813e-09<->1.21666e-09 (1.46802e-12)
1: 0.113928<->0.113928 (1.38778e-17)
Mapping error in Vegas for CDBG_T_16_123_SC23
0: 2.06348e-08<->2.06391e-08 (4.27043e-12)
1: 0.999037<->0.999037 (0)
Mapping error in Vegas for CDBG_T_16_123_SC23
0: 9.20349e-10<->9.20992e-10 (6.42917e-13)
1: 0.105569<->0.105569 (4.16334e-17)
Mapping error in Vegas for CDBG_T_16_123_SC23
0: 5.96996e-09<->5.97116e-09 (1.19992e-12)
1: 0.592925<->0.592925 (0)
Mapping error in Vegas for CDBG_T_16_123_SC23
0: 9.38862e-10<->9.34586e-10 (4.2756e-12)
1: 0.794361<->0.794361 (1.11022e-16)
Mapping error in Vegas for CDBG_T_16_123_SC23
0: 1.25815e-08<->1.25846e-08 (3.15774e-12)
1: 0.812017<->0.812017 (1.11022e-16)
Mapping error in Vegas for CDBG_T_16_123_SC23
0: 2.90747e-09<->2.90911e-09 (1.64568e-12)
1: 0.985593<->0.985593 (0)
Mapping error in Vegas for CDBG_T_16_123_SC23
0: 7.31162e-09<->7.30676e-09 (4.85966e-12)
1: 0.535621<->0.535621 (0)
Mapping error in Vegas for CDBG_T_16_123_SC23
0: 3.64796e-09<->3.64659e-09 (1.37407e-12)
1: 0.677296<->0.677296 (0)
Mapping error in Vegas for CDBG_T_16_123_SC23
0: 1.38401e-08<->1.38353e-08 (4.80914e-12)
1: 0.262454<->0.262454 (5.55112e-17)
Mapping error in Vegas for CDBG_T_16_123_SC23
0: 1.27748e-09<->1.27444e-09 (3.04213e-12)
1: 0.374015<->0.374015 (5.55112e-17)
Mapping error in Vegas for CDBG_T_16_123_SC23
0: 6.55532e-11<->6.45714e-11 (9.81884e-13)
1: 0.352033<->0.352033 (0)
Mapping error in Vegas for CDBG_T_16_123_SC23
0: 3.66266e-09<->3.66358e-09 (9.16864e-13)
1: 0.368196<->0.368196 (0)
Mapping error in Vegas for CDBG_T_16_123_SC23
0: 9.87552e-09<->9.87263e-09 (2.89628e-12)
1: 0.108221<->0.108221 (2.77556e-17)
Mapping error in Vegas for CDBG_T_16_123_SC23
0: 3.45464e-09<->3.45967e-09 (5.02531e-12)
1: 0.26058<->0.26058 (1.11022e-16)
Mapping error in Vegas for CDBG_T_16_123_SC23
0: 5.7654e-09<->5.76385e-09 (1.54853e-12)
1: 0.180595<->0.180595 (0)
Mapping error in Vegas for CDBG_T_16_123_SC23
0: 1.15856e-08<->1.15889e-08 (3.23586e-12)
1: 0.0929653<->0.0929653 (1.38778e-17)
Mapping error in Vegas for CDBG_T_16_123_SC23
0: 1.84207e-08<->1.84164e-08 (4.26281e-12)
1: 0.440943<->0.440943 (0)
Mapping error in Vegas for CDBG_T_16_123_SC23
0: 1.20342e-08<->1.20307e-08 (3.53876e-12)
1: 0.511261<->0.511261 (0)
Mapping error in Vegas for CDBG_T_16_123_SC23
0: 6.71537e-09<->6.71883e-09 (3.45919e-12)
1: 0.083513<->0.083513 (0)
Mapping error in Vegas for CDBG_T_16_123_SC23
0: 6.06788e-09<->6.06971e-09 (1.83668e-12)
1: 0.105352<->0.105352 (1.38778e-17)
[34m5.13624 pb[0m +- ( [31m0.118271 pb = 2.30267 %[0m ) 159958 ( 660622 -> 26.3 % )
integration time:   ( 53s elapsed / 2m 5s left ) [14:39:42]
[1m2_3__P__j__b__bb__j[0m : [34m[1m5.13624 pb[0m +- ( [31m0.118271 pb = 2.30267 %[0m ) [1m exp. eff: [31m0.0102513 %[0m
  reduce max for 2_3__P__j__b__bb__j to 1 ( eps = 0.001 -> exp. eff 0.000102513 ) 
Return_Value::PrintStatistics(): Statistics {
  Generated events: 0
}
Blob_List: Momentum Fail Statistics {
}
Decay_Channel: Kinematics max fail statistics {
}
WARNING: You are using an unsupported development branch.
------------------------------------------------------------------------
[1mPlease cite the publications listed in '[31mReferences.tex[0m[1m'.[0m
  Extract the bibtex list by running 'get_bibtex References.tex'
  or email the file to 'slaclib2@slac.stanford.edu', subject 'generate'.
------------------------------------------------------------------------
WARNING: Some settings that have been defined in the input
files and/or the command line have not been used. For more
details, see the Settings Report.
Time: 5m 7s on Wed Jan 31 14:39:42 2024
 (User: 5m 4s, System: 0s, Children User: 0s, Children System: 0s)
Welcome to Sherpa, Vithyaban Narendran on pplxwn021.physics.ox.ac.uk. Initialization of framework underway.
The local time is Wed Jan 31 14:39:42 2024.
Run_Parameter::Init(): Setting memory limit to 1007.01 GB.
Random::SetSeed(): Seed set to 1234
-----------------------------------------------------------------------------
-----------    Event generation run with SHERPA started .......   -----------
-----------------------------------------------------------------------------
................................................ |       +                   
................................................ ||  |       +  +            
...................................        ....  | |         /   +           
................. ................   _,_ |  ....  ||         +|  +  +        
...............................  __.'  ,\|  ...  ||    /    +|          +    
.............................. (  \    \   ...  | |  |   + + \         +   
.............................  (    \   -/  .... ||       +    |          +  
........ ...................  <S   /()))))~~~~~~~~##     +     /\    +       
............................ (!H   (~~)))))~~~~~~#/     +  +    |  +         
................ ........... (!E   (~~~)))))     /|/    +         +          
............................ (!R   (~~~)))))   |||   + +            +        
..... ...................... (!P    (~~~~)))   /|  + +          +            
............................ (!A>    (~~~~~~~~~##        + +        +        
............................. ~~(!    '~~~~~~~ \       +     + +      +      
...............................  `~~~QQQQQDb //   |         + + +        +   
........................ ..........   IDDDDP||     \  + + + + +             +
....................................  IDDDI||       \                      + 
.................................... IHD HD||         \ + +  + + + + +      +
...................................  IHD ##|            :-) + +\          +  
......... ............... ......... IHI ## /      /   +  + + + +\       +    
................................... IHI/ /       /      + + + +        +     
................................... ## | | /    / + +      + + /      +      
....................... /TT\ .....  ##/ ///  / + + + + + + +/       +        
......................./TTT/T\ ... /TT\/\\\ / + + + + + + +/   \         +   
....................../TTT/TTTT\...|TT/T\\\/   +    ++  + /              
-----------------------------------------------------------------------------

     SHERPA version 3.0.0beta1 (Dhaulagiri)
                                                                             
     Authors:        Enrico Bothmann, Stefan Hoeche, Frank Krauss,           
                     Silvan Kuttimalai, Marek Schoenherr, Holger Schulz,     
                     Steffen Schumann, Frank Siegert, Korinna Zapp           
     Former Authors: Timo Fischer, Tanju Gleisberg, Hendrik Hoeth,           
                     Ralf Kuhn, Thomas Laubrich, Andreas Schaelicke,         
                     Jan Winter                                              
                                                                             
     This program uses a lot of genuine and original research work           
     by other people. Users are encouraged to refer to                       
     the various original publications.                                      
                                                                             
     Users are kindly asked to refer to the documentation                    
     published under JHEP 02(2009)007                                        
                                                                             
     Please visit also our homepage                                          
                                                                             
       http://sherpa.hepforge.org                                            
                                                                             
     for news, bugreports, updates and new releases.                         
                                                                             
-----------------------------------------------------------------------------
WARNING: You are using an unsupported development branch.
Git branch photon-pdf-fitting, revision cbce34ae4e06c58e8cfd6012e9ecf6e43a03c86e.
Hadron_Init::Init(): Initializing kf table for hadrons.
Beam_Spectra_Handler: type = Collider Setup
    for e+ (on = 1, p = (27.5,0,0,27.5))
    and P+ (on = 1, p = (820,0,0,-819.999)).
ISR handling:
    PDFs for hard scattering:              None + NNPDF31_nnlo_as_0118_proton
    PDFs for multiple parton interactions: None + PDF4LHC21_40_pdfas
Remnant_Handlers:
    hard process: P: Intact + P+: Hadron
Standard_Model::FixEWParameters() {
  Input scheme: Gmu
                Gmu scheme, input: GF, m_W, m_Z, m_h, widths
  Ren. scheme:  Gmu
                
  Parameters:   sin^2(\theta_W) = 0.222928 - 0.00110708 i
                vev             = 246.218
}
Running_AlphaQED::PrintSummary() {
  Setting \alpha according to EW scheme
  1/\alpha(0)   = 137.036
  1/\alpha(def) = 132.168
}
[1mOne_Running_AlphaS::One_Running_AlphaS(): [0m[31mOverriding \alpha_s information from PDF. Make sure you know what you are doing![0m
One_Running_AlphaS::PrintSummary() {
  Setting \alpha_s according to PDF
  perturbative order 1
  \alpha_s(M_Z) = 0.1188
}
[1mOne_Running_AlphaS::One_Running_AlphaS(): [0m[31mOverriding \alpha_s information from PDF. Make sure you know what you are doing![0m
One_Running_AlphaS::PrintSummary() {
  Setting \alpha_s according to PDF
  perturbative order 1
  \alpha_s(M_Z) = 0.1188
}
List of Particle Data 
     IDName     kfc            Mass           Width   Stable  Massive   Active          Yukawa
          d       1            0.01               0        1        0        1               0
          u       2           0.005               0        1        0        1               0
          s       3             0.2               0        1        0        1               0
          c       4            1.42               0        1        1        1            1.42
          b       5            4.92               0        1        1        1            4.92
          t       6          173.21             1.5        0        1        1          173.21
         e-      11        0.000511               0        1        0        1               0
         ve      12               0               0        1        0        1               0
        mu-      13           0.105               0        1        0        1               0
        vmu      14               0               0        1        0        1               0
       tau-      15           1.777     2.26735e-12        0        0        1               0
       vtau      16               0               0        1        0        1               0
          G      21               0               0        1        0        1               0
          P      22               0               0        1        0        1               0
          Z      23         91.1876          2.4952        0        1        1         91.1876
         W+      24          80.385           2.085        0        1        1          80.385
         h0      25             125         0.00407        0        1        1             125
     string      95               0               0        1        0        1               0
    cluster      96               0               0        1        0        1               0
  Instanton     999               0               0        0        0        1               0
List of Particle Containers 
     IDName     kfc     Constituents
          l      90     {e-,e+,mu-,mu+,tau-,tau+}
          v      91     {ve,veb,vmu,vmub,vtau,vtaub}
          f      92     {d,db,u,ub,s,sb,e-,e+,mu-,mu+,tau-,tau+,ve,veb,vmu,vmub,vtau,vtaub}
          j      93     {d,db,u,ub,s,sb,G}
          Q      94     {d,db,u,ub,s,sb}
        ewj      98     {d,db,u,ub,s,sb,G,P}
Shower_Handler initialised.

+-----------------------------------------+
|   X   X   X XXXX  XXX  XXX  XXX         |
|  X X  XX XX X    X      X  X     X   X  |
| X   X X X X XXX  X XXX  X  X    XXX XXX |
| XXXXX X   X X    X   X  X  X     X   X  |
| X   X X   X XXXX  XXX  XXX  XXX         |
+-----------------------------------------+
| please cite: JHEP 0202:044,2002         |
+-----------------------------------------+
Matrix_Element_Handler::Matrix_Element_Handler(): Set pilot run mode to 0.
ME_Generator_Base::SetPSMasses(): Massive PS flavours for Comix: (e-,e+,mu-,mu+,tau-,tau+)
+----------------------------------+
|                                  |
|      [31mCCC[0m  [32mOOO[0m  [34mM[0m   [34mM[0m I [33mX[0m   [33mX[0m     |
|     [31mC[0m    [32mO[0m   [32mO[0m [34mMM[0m [34mMM[0m I  [33mX[0m [33mX[0m      |
|     [31mC[0m    [32mO[0m   [32mO[0m [34mM[0m [34mM[0m [34mM[0m I   [33mX[0m       |
|     [31mC[0m    [32mO[0m   [32mO[0m [34mM[0m   [34mM[0m I  [33mX[0m [33mX[0m      |
|      [31mCCC[0m  [32mOOO[0m  [34mM[0m   [34mM[0m I [33mX[0m   [33mX[0m     |
|                                  |
+==================================+
|  Color dressed  Matrix Elements  |
|     http://comix.freacafe.de     |
|   please cite  JHEP12(2008)039   |
+----------------------------------+
ME_Generator_Base::SetPSMasses(): Massive PS flavours for Amegic: (e-,e+,mu-,mu+,tau-,tau+)
Matrix_Element_Handler::BuildProcesses(): 2 ME generators, 1 process blocks.
Matrix_Element_Handler::BuildProcesses(): Setting up processes ........................................ done ( 59 MB, 0s / 0s ).
Matrix_Element_Handler::InitializeProcesses(): Performing tests ........................................ done ( 59 MB, 0s / 0s ).
Matrix_Element_Handler::InitializeProcesses(): Initializing scales done ( 60 MB, 0s / 0s ).
Initialized the Matrix_Element_Handler for the hard processes.
Initialized the Beam_Remnant_Handler.
MI_Handler::MI_Handler(id = 2, name = None, type = 0)
Underlying event/multiple interactions handler:
    MI[2]: on = 0 (type = 0, None)
Soft-collision handlers:
Hadron_Init::Init(): Initializing kf table for hadrons.
Initialized the Fragmentation_Handler.
Initialized the Hadron_Decay_Handler, Decay model = HADRONS++
Initialized the Soft_Photon_Handler.
WARNING in Variations::CheckConsistencyWithBeamSpectra: 
   The internal reweighting is only tested
   for hadronic beams of (anti-)protons.
   Will continue and hope for the best.
Initialized the Reweighting.
Beam_Channels::CheckForStructuresFromME for 0: (none)
ISR_Channels::CheckForStructuresFromME for 0: (none)
Read in channels from directory: Results/Comix/MC_2_2__P__j__j__j
Process_Group::CalculateTotalXSec(): Calculate xs for '2_2__P__j__j__j' (Comix)
[1m2_2__P__j__j__j[0m : [34m[1m487.269 pb[0m +- ( [31m1.06841 pb = 0.219265 %[0m ) [1m exp. eff: [31m3.30383 %[0m
  reduce max for 2_2__P__j__j__j to 1 ( eps = 0.001 -> exp. eff 0.0330383 ) 
Read in channels from directory: Results/Comix/MC_2_2__P__j__c__cb
Process_Group::CalculateTotalXSec(): Calculate xs for '2_2__P__j__c__cb' (Comix)
[1m2_2__P__j__c__cb[0m : [34m[1m142.023 pb[0m +- ( [31m0.383778 pb = 0.270222 %[0m ) [1m exp. eff: [31m2.17102 %[0m
  reduce max for 2_2__P__j__c__cb to 1 ( eps = 0.001 -> exp. eff 0.0217102 ) 
Read in channels from directory: Results/Comix/MC_2_2__P__j__b__bb
Process_Group::CalculateTotalXSec(): Calculate xs for '2_2__P__j__b__bb' (Comix)
[1m2_2__P__j__b__bb[0m : [34m[1m34.0077 pb[0m +- ( [31m0.0804663 pb = 0.236612 %[0m ) [1m exp. eff: [31m6.803 %[0m
  reduce max for 2_2__P__j__b__bb to 1 ( eps = 0.001 -> exp. eff 0.06803 ) 
Beam_Channels::CheckForStructuresFromME for 0: (none)
ISR_Channels::CheckForStructuresFromME for 0: (none)
Read in channels from directory: Results/Comix/MC_2_3__P__j__j__j__j
Process_Group::CalculateTotalXSec(): Calculate xs for '2_3__P__j__j__j__j' (Comix)
[1m2_3__P__j__j__j__j[0m : [34m[1m206.198 pb[0m +- ( [31m39.6169 pb = 19.213 %[0m ) [1m exp. eff: [31m0.0031 %[0m
  reduce max for 2_3__P__j__j__j__j to 1 ( eps = 0.001 -> exp. eff 3.1e-05 ) 
Read in channels from directory: Results/Comix/MC_2_3__P__j__c__cb__j
Process_Group::CalculateTotalXSec(): Calculate xs for '2_3__P__j__c__cb__j' (Comix)
[1m2_3__P__j__c__cb__j[0m : [34m[1m22.8517 pb[0m +- ( [31m0.230093 pb = 1.00689 %[0m ) [1m exp. eff: [31m0.01718 %[0m
  reduce max for 2_3__P__j__c__cb__j to 1 ( eps = 0.001 -> exp. eff 0.0001718 ) 
Read in channels from directory: Results/Comix/MC_2_3__P__j__b__bb__j
Process_Group::CalculateTotalXSec(): Calculate xs for '2_3__P__j__b__bb__j' (Comix)
[1m2_3__P__j__b__bb__j[0m : [34m[1m5.13624 pb[0m +- ( [31m0.118271 pb = 2.30267 %[0m ) [1m exp. eff: [31m0.0102513 %[0m
  reduce max for 2_3__P__j__b__bb__j to 1 ( eps = 0.001 -> exp. eff 0.000102513 ) 
----------------------------------------------------------
-- SHERPA generates events with the following structure --
----------------------------------------------------------
Event generation   : Weighted
Perturbative       : Signal_Processes
Perturbative       : Minimum_Bias: None
Perturbative       : Hard_Decays
Perturbative       : Jet_Evolution:CSS
Perturbative       : Lepton_FS_QED_Corrections:Photons
Perturbative       : Multiple_Interactions: None
Hadronization      : Beam_Remnants:Parametrised
Hadronization      : Hadronization:Ahadic
Hadronization      : Hadron_Decays
Userhook           : 
Analysis           : Rivet
---------------------------------------------------------
Rivet.AnalysisHandler: INFO  Using named weights
Rivet.AnalysisHandler: WARN  Analysis 'ZEUS_2012_I1116258' is unvalidated: be careful, it may be broken!
#ooooooooooooooooooooooooooooooooooooooooooooooooooooooooooooooooooo
#                    SISCone   version 3.0.5                       o
#              http://projects.hepforge.org/siscone                o
#                                                                  o
# This is SISCone: the Seedless Infrared Safe Cone Jet Algorithm   o
# SISCone was written by Gavin Salam and Gregory Soyez             o
# It is released under the terms of the GNU General Public License o
#                                                                  o
# A description of the algorithm is available in the publication   o
# JHEP 05 (2007) 086 [arXiv:0704.0292 (hep-ph)].                   o
# Please cite it if you use SISCone.                               o
#ooooooooooooooooooooooooooooooooooooooooooooooooooooooooooooooooooo

  Event 1 ( 1s elapsed / 10d 1h 39m 58s left ) -> ETA: Sat Feb 10 16:19  
  XS = 4.27589 pb +- ( 4.27589 pb = 100 % )  [1A  Event 2 ( 1s elapsed / 5d 1h 31m 38s left ) -> ETA: Mon Feb 05 16:11  
  XS = 11.3325 pb +- ( 7.05656 pb = 62 % )  [1A  Event 3 ( 1s elapsed / 3d 9h 28m 51s left ) -> ETA: Sun Feb 04 00:08  
  XS = -351.815 pb +- ( 363.171 pb = -103 % )  [1A  Event 4 ( 1s elapsed / 2d 13h 6m 38s left ) -> ETA: Sat Feb 03 03:46  
  XS = -263.767 pb +- ( 271.476 pb = -102 % )  [1A  Event 5 ( 1s elapsed / 2d 1h 9m 58s left ) -> ETA: Fri Feb 02 15:49  
  XS = -211.013 pb +- ( 216.8 pb = -102 % )  [1A  Event 6 ( 1s elapsed / 1d 17h 12m 11s left ) -> ETA: Fri Feb 02 07:51  
  XS = -84.9832 pb +- ( 217.298 pb = -255 % )  [1A  Event 7 ( 1s elapsed / 1d 11h 30m 55s left ) -> ETA: Fri Feb 02 02:10  
  XS = -72.0841 pb +- ( 184.103 pb = -255 % )  [1A  Event 8 ( 1s elapsed / 1d 7h 4m 33s left ) -> ETA: Thu Feb 01 21:44  
  XS = -63.004 pb +- ( 159.696 pb = -253 % )  [1A  Event 9 ( 1s elapsed / 1d 3h 46m 38s left ) -> ETA: Thu Feb 01 18:26  
  XS = -55.2034 pb +- ( 141.055 pb = -255 % )  [1A  Event 10 ( 1s elapsed / 1d 1h 8m 18s left ) -> ETA: Thu Feb 01 15:48  
  XS = -42.7565 pb +- ( 114.438 pb = -267 % )  [1A  Event 20 ( 1s elapsed / 12h 54m 58s left ) -> ETA: Thu Feb 01 03:34  
  XS = 2711.07 pb +- ( 2702.25 pb = 99 % )  [1A  Event 30 ( 1s elapsed / 8h 53m 18s left ) -> ETA: Wed Jan 31 23:33  
  XS = 1750.94 pb +- ( 1733.37 pb = 98 % )  [1A  Event 40 ( 1s elapsed / 6h 52m 28s left ) -> ETA: Wed Jan 31 21:32  
  XS = 1281.05 pb +- ( 1258.42 pb = 98 % )  [1A  Event 50 ( 2s elapsed / 5h 38m 17s left ) -> ETA: Wed Jan 31 20:18  
  XS = 1029.96 pb +- ( 1009.52 pb = 98 % )  [1A  Event 60 ( 2s elapsed / 4h 47m 27s left ) -> ETA: Wed Jan 31 19:27  
  XS = 1155.29 pb +- ( 872.87 pb = 75 % )  [1A  Event 70 ( 2s elapsed / 4h 12m 20s left ) -> ETA: Wed Jan 31 18:52  
  XS = 1017.78 pb +- ( 753.124 pb = 73 % )  [1A  Event 80 ( 2s elapsed / 3h 46m left ) -> ETA: Wed Jan 31 18:25  
  XS = 920.961 pb +- ( 658.334 pb = 71 % )  [1A  Event 90 ( 2s elapsed / 3h 28m 17s left ) -> ETA: Wed Jan 31 18:08  
  XS = 819.256 pb +- ( 581.062 pb = 70 % )  [1A  Event 100 ( 2s elapsed / 3h 12m 27s left ) -> ETA: Wed Jan 31 17:52  
  XS = 949.748 pb +- ( 551.684 pb = 58 % )  [1A  Event 200 ( 2s elapsed / 1h 58m 17s left ) -> ETA: Wed Jan 31 16:38  
  XS = 817.729 pb +- ( 333.826 pb = 40 % )  [1A  Event 300 ( 3s elapsed / 1h 32m 10s left ) -> ETA: Wed Jan 31 16:11  
  XS = 869.772 pb +- ( 255.805 pb = 29 % )  [1A  Event 400 ( 4s elapsed / 1h 23m 28s left ) -> ETA: Wed Jan 31 16:03  
  XS = 927.31 pb +- ( 224.828 pb = 24 % )  [1A  Event 500 ( 4s elapsed / 1h 13m 25s left ) -> ETA: Wed Jan 31 15:53  
  XS = 854.402 pb +- ( 184.238 pb = 21 % )  [1A  Event 600 ( 4s elapsed / 1h 5m 3s left ) -> ETA: Wed Jan 31 15:44  
  XS = 951.731 pb +- ( 185.479 pb = 19 % )  [1A  Event 700 ( 4s elapsed / 59m 19s left ) -> ETA: Wed Jan 31 15:39  
  XS = 878.448 pb +- ( 160.458 pb = 18 % )  [1A  Event 800 ( 5s elapsed / 55m left ) -> ETA: Wed Jan 31 15:34  
  XS = 912.973 pb +- ( 151.189 pb = 16 % )  [1A  Event 900 ( 5s elapsed / 51m 51s left ) -> ETA: Wed Jan 31 15:31  
  XS = 889.927 pb +- ( 137.594 pb = 15 % )  [1A  Event 1000 ( 5s elapsed / 49m 14s left ) -> ETA: Wed Jan 31 15:29  
  XS = 881.418 pb +- ( 128.43 pb = 14 % )  [1A  Event 2000 ( 9s elapsed / 37m 45s left ) -> ETA: Wed Jan 31 15:17  
  XS = 887.093 pb +- ( 100.986 pb = 11 % )  [1A  Event 3000 ( 12s elapsed / 33m 46s left ) -> ETA: Wed Jan 31 15:13  
  XS = 857.029 pb +- ( 82.6989 pb = 9 % )  [1A  Event 4000 ( 15s elapsed / 32m 18s left ) -> ETA: Wed Jan 31 15:12  
  XS = 882.595 pb +- ( 73.7603 pb = 8 % )  [1A  Event 5000 ( 19s elapsed / 32m 21s left ) -> ETA: Wed Jan 31 15:12  
  XS = 901.451 pb +- ( 66.2286 pb = 7 % )  [1A  Event 6000 ( 23s elapsed / 32m 46s left ) -> ETA: Wed Jan 31 15:12  
  XS = 847.423 pb +- ( 57.2279 pb = 6 % )  [1A  Event 7000 ( 27s elapsed / 32m 37s left ) -> ETA: Wed Jan 31 15:12  
  XS = 825.489 pb +- ( 51.7676 pb = 6 % )  [1A  Event 8000 ( 31s elapsed / 32m 3s left ) -> ETA: Wed Jan 31 15:12  
  XS = 836.611 pb +- ( 47.9775 pb = 5 % )  [1A  Event 9000 ( 35s elapsed / 32m 10s left ) -> ETA: Wed Jan 31 15:12  
  XS = 850.301 pb +- ( 45.8782 pb = 5 % )  [1A  Event 10000 ( 39s elapsed / 32m 16s left ) -> ETA: Wed Jan 31 15:12  
  XS = 845.503 pb +- ( 44.3793 pb = 5 % )  [1A  Event 20000 ( 1m 19s elapsed / 31m 56s left ) -> ETA: Wed Jan 31 15:13  
  XS = 824.468 pb +- ( 32.1102 pb = 3 % )  [1A  Event 30000 ( 1m 54s elapsed / 29m 57s left ) -> ETA: Wed Jan 31 15:11  
  XS = 807.735 pb +- ( 25.1631 pb = 3 % )  [1A  Event 40000 ( 2m 29s elapsed / 28m 34s left ) -> ETA: Wed Jan 31 15:10  
  XS = 797.045 pb +- ( 21.2522 pb = 2 % )  [1A  Event 50000 ( 3m 4s elapsed / 27m 36s left ) -> ETA: Wed Jan 31 15:10  
  XS = 802.115 pb +- ( 18.8319 pb = 2 % )  [1A  Event 60000 ( 3m 36s elapsed / 26m 25s left ) -> ETA: Wed Jan 31 15:09  
  XS = 799.832 pb +- ( 17.2827 pb = 2 % )  [1A  Event 70000 ( 4m 15s elapsed / 26m 9s left ) -> ETA: Wed Jan 31 15:10  
  XS = 802.17 pb +- ( 15.8953 pb = 1 % )  [1A  Event 80000 ( 4m 58s elapsed / 26m 6s left ) -> ETA: Wed Jan 31 15:10  
  XS = 819.26 pb +- ( 16.4783 pb = 2 % )  [1A  Event 90000 ( 5m 33s elapsed / 25m 20s left ) -> ETA: Wed Jan 31 15:10  
  XS = 813.867 pb +- ( 15.6662 pb = 1 % )  [1A  Event 100000 ( 6m 6s elapsed / 24m 27s left ) -> ETA: Wed Jan 31 15:10  
  XS = 818.648 pb +- ( 15.1336 pb = 1 % )  [1A  Event 200000 ( 11m 57s elapsed / 17m 56s left ) -> ETA: Wed Jan 31 15:09  
  XS = 829.64 pb +- ( 33.6211 pb = 4 % )  [1A  Event 300000 ( 17m 47s elapsed / 11m 51s left ) -> ETA: Wed Jan 31 15:09  
  XS = 806.008 pb +- ( 22.8413 pb = 2 % )  [1A  Event 400000 ( 23m 27s elapsed / 5m 51s left ) -> ETA: Wed Jan 31 15:09  
  XS = 793.37 pb +- ( 17.4413 pb = 2 % )  [1A  Event 500000 ( 1794 s total ) = 2.40791e+07 evts/day                    
In Event_Handler::Finish : Summarizing the run may take some time.
[31mRivet_Interface::Finish([32mZEUS2012_direct_TestPDF_7[31m)[0m[31m{[0m
[31m}[0m
--------------------------------------------------------------------------
Nominal or variation name     XS [pb]      RelDev  AbsErr [pb]      RelErr
--------------------------------------------------------------------------
[1mNominal                  [0m[34m[1m     794.389[0m[33m         0 %[31m      14.3436       1.8 %[0m
--------------------------------------------------------------------------
Return_Value::PrintStatistics(): Statistics {
  Generated events: 500000
  New events {
    From "Jet_Evolution:CSS": 13786 (519767) -> 2.6 %
    From "Signal_Processes": 24 (513810) -> 0 %
  }
  Retried phases {
    From "Hadron_Decay_Handler::RejectExclusiveChannelsFromFragmentation": 2252 (0) -> 2252.
  }
  Retried methods {
    From "Decay_Channel::GenerateKinematics": 438 (15723740) -> 0 %
  }
}
Blob_List: Momentum Fail Statistics {
}
Decay_Channel: Kinematics max fail statistics {
  B --> Db D+ K pi+b  maximal fail by 1.86348.
}
WARNING: You are using an unsupported development branch.
------------------------------------------------------------------------
[1mPlease cite the publications listed in '[31mReferences.tex[0m[1m'.[0m
  Extract the bibtex list by running 'get_bibtex References.tex'
  or email the file to 'slaclib2@slac.stanford.edu', subject 'generate'.
------------------------------------------------------------------------
Gluon_Splitter::~Gluon_Splitter with 18235 kinematic fails.

The MCnet usage guidelines apply to Rivet: see http://www.montecarlonet.org/GUIDELINES
Please acknowledge Rivet in results made using it, and cite https://arxiv.org/abs/1912.05451
Time: 29m 56s on Wed Jan 31 15:09:39 2024
 (User: 29m 40s, System: 0s, Children User: 0s, Children System: 0s)
