Welcome to Sherpa, Vithyaban Narendran on pplxwn024.physics.ox.ac.uk. Initialization of framework underway.
The local time is Wed Jan 31 02:14:44 2024.
Run_Parameter::Init(): Setting memory limit to 1007.01 GB.
Random::SetSeed(): Seed set to 1234
-----------------------------------------------------------------------------
-----------    Event generation run with SHERPA started .......   -----------
-----------------------------------------------------------------------------
................................................ |       +                   
................................................ ||  |       +  +            
...................................        ....  | |         /   +           
................. ................   _,_ |  ....  ||         +|  +  +        
...............................  __.'  ,\|  ...  ||    /    +|          +    
.............................. (  \    \   ...  | |  |   + + \         +   
.............................  (    \   -/  .... ||       +    |          +  
........ ...................  <S   /()))))~~~~~~~~##     +     /\    +       
............................ (!H   (~~)))))~~~~~~#/     +  +    |  +         
................ ........... (!E   (~~~)))))     /|/    +         +          
............................ (!R   (~~~)))))   |||   + +            +        
..... ...................... (!P    (~~~~)))   /|  + +          +            
............................ (!A>    (~~~~~~~~~##        + +        +        
............................. ~~(!    '~~~~~~~ \       +     + +      +      
...............................  `~~~QQQQQDb //   |         + + +        +   
........................ ..........   IDDDDP||     \  + + + + +             +
....................................  IDDDI||       \                      + 
.................................... IHD HD||         \ + +  + + + + +      +
...................................  IHD ##|            :-) + +\          +  
......... ............... ......... IHI ## /      /   +  + + + +\       +    
................................... IHI/ /       /      + + + +        +     
................................... ## | | /    / + +      + + /      +      
....................... /TT\ .....  ##/ ///  / + + + + + + +/       +        
......................./TTT/T\ ... /TT\/\\\ / + + + + + + +/   \         +   
....................../TTT/TTTT\...|TT/T\\\/   +    ++  + /              
-----------------------------------------------------------------------------

     SHERPA version 3.0.0beta1 (Dhaulagiri)
                                                                             
     Authors:        Enrico Bothmann, Stefan Hoeche, Frank Krauss,           
                     Silvan Kuttimalai, Marek Schoenherr, Holger Schulz,     
                     Steffen Schumann, Frank Siegert, Korinna Zapp           
     Former Authors: Timo Fischer, Tanju Gleisberg, Hendrik Hoeth,           
                     Ralf Kuhn, Thomas Laubrich, Andreas Schaelicke,         
                     Jan Winter                                              
                                                                             
     This program uses a lot of genuine and original research work           
     by other people. Users are encouraged to refer to                       
     the various original publications.                                      
                                                                             
     Users are kindly asked to refer to the documentation                    
     published under JHEP 02(2009)007                                        
                                                                             
     Please visit also our homepage                                          
                                                                             
       http://sherpa.hepforge.org                                            
                                                                             
     for news, bugreports, updates and new releases.                         
                                                                             
-----------------------------------------------------------------------------
WARNING: You are using an unsupported development branch.
Git branch photon-pdf-fitting, revision cbce34ae4e06c58e8cfd6012e9ecf6e43a03c86e.
Hadron_Init::Init(): Initializing kf table for hadrons.
Beam_Spectra_Handler: type = Collider Setup
    for e+ (on = 1, p = (27.6,0,0,27.6))
    and P+ (on = 1, p = (820,0,0,-819.999)).
ISR handling:
    PDFs for hard scattering:              None + NNPDF31_nnlo_as_0118_proton
    PDFs for multiple parton interactions: None + PDF4LHC21_40_pdfas
Remnant_Handlers:
    hard process: P: Intact + P+: Hadron
Standard_Model::FixEWParameters() {
  Input scheme: Gmu
                Gmu scheme, input: GF, m_W, m_Z, m_h, widths
  Ren. scheme:  Gmu
                
  Parameters:   sin^2(\theta_W) = 0.222928 - 0.00110708 i
                vev             = 246.218
}
Running_AlphaQED::PrintSummary() {
  Setting \alpha according to EW scheme
  1/\alpha(0)   = 137.036
  1/\alpha(def) = 132.168
}
[1mOne_Running_AlphaS::One_Running_AlphaS(): [0m[31mOverriding \alpha_s information from PDF. Make sure you know what you are doing![0m
One_Running_AlphaS::PrintSummary() {
  Setting \alpha_s according to PDF
  perturbative order 1
  \alpha_s(M_Z) = 0.1188
}
[1mOne_Running_AlphaS::One_Running_AlphaS(): [0m[31mOverriding \alpha_s information from PDF. Make sure you know what you are doing![0m
One_Running_AlphaS::PrintSummary() {
  Setting \alpha_s according to PDF
  perturbative order 1
  \alpha_s(M_Z) = 0.1188
}
List of Particle Data 
     IDName     kfc            Mass           Width   Stable  Massive   Active          Yukawa
          d       1            0.01               0        1        0        1               0
          u       2           0.005               0        1        0        1               0
          s       3             0.2               0        1        0        1               0
          c       4            1.42               0        1        1        1            1.42
          b       5            4.92               0        1        1        1            4.92
          t       6          173.21             1.5        0        1        1          173.21
         e-      11        0.000511               0        1        0        1               0
         ve      12               0               0        1        0        1               0
        mu-      13           0.105               0        1        0        1               0
        vmu      14               0               0        1        0        1               0
       tau-      15           1.777     2.26735e-12        0        0        1               0
       vtau      16               0               0        1        0        1               0
          G      21               0               0        1        0        1               0
          P      22               0               0        1        0        1               0
          Z      23         91.1876          2.4952        0        1        1         91.1876
         W+      24          80.385           2.085        0        1        1          80.385
         h0      25             125         0.00407        0        1        1             125
     string      95               0               0        1        0        1               0
    cluster      96               0               0        1        0        1               0
  Instanton     999               0               0        0        0        1               0
List of Particle Containers 
     IDName     kfc     Constituents
          l      90     {e-,e+,mu-,mu+,tau-,tau+}
          v      91     {ve,veb,vmu,vmub,vtau,vtaub}
          f      92     {d,db,u,ub,s,sb,e-,e+,mu-,mu+,tau-,tau+,ve,veb,vmu,vmub,vtau,vtaub}
          j      93     {d,db,u,ub,s,sb,G}
          Q      94     {d,db,u,ub,s,sb}
        ewj      98     {d,db,u,ub,s,sb,G,P}
Shower_Handler initialised.

+-----------------------------------------+
|   X   X   X XXXX  XXX  XXX  XXX         |
|  X X  XX XX X    X      X  X     X   X  |
| X   X X X X XXX  X XXX  X  X    XXX XXX |
| XXXXX X   X X    X   X  X  X     X   X  |
| X   X X   X XXXX  XXX  XXX  XXX         |
+-----------------------------------------+
| please cite: JHEP 0202:044,2002         |
+-----------------------------------------+
Matrix_Element_Handler::Matrix_Element_Handler(): Set pilot run mode to 0.
ME_Generator_Base::SetPSMasses(): Massive PS flavours for Comix: (e-,e+,mu-,mu+,tau-,tau+)
+----------------------------------+
|                                  |
|      [31mCCC[0m  [32mOOO[0m  [34mM[0m   [34mM[0m I [33mX[0m   [33mX[0m     |
|     [31mC[0m    [32mO[0m   [32mO[0m [34mMM[0m [34mMM[0m I  [33mX[0m [33mX[0m      |
|     [31mC[0m    [32mO[0m   [32mO[0m [34mM[0m [34mM[0m [34mM[0m I   [33mX[0m       |
|     [31mC[0m    [32mO[0m   [32mO[0m [34mM[0m   [34mM[0m I  [33mX[0m [33mX[0m      |
|      [31mCCC[0m  [32mOOO[0m  [34mM[0m   [34mM[0m I [33mX[0m   [33mX[0m     |
|                                  |
+==================================+
|  Color dressed  Matrix Elements  |
|     http://comix.freacafe.de     |
|   please cite  JHEP12(2008)039   |
+----------------------------------+
ME_Generator_Base::SetPSMasses(): Massive PS flavours for Amegic: (e-,e+,mu-,mu+,tau-,tau+)
Matrix_Element_Handler::BuildProcesses(): 2 ME generators, 1 process blocks.
Matrix_Element_Handler::BuildProcesses(): Setting up processes ........................................ done ( 61 MB, 0s / 0s ).
Matrix_Element_Handler::InitializeProcesses(): Performing tests ........................................ done ( 62 MB, 0s / 0s ).
Matrix_Element_Handler::InitializeProcesses(): Initializing scales done ( 62 MB, 0s / 0s ).
Initialized the Matrix_Element_Handler for the hard processes.
Initialized the Beam_Remnant_Handler.
[1m[31mNormal exit[0m[1m thrown[0m:
[31mInitialization complete.[0m
WARNING: You are using an unsupported development branch.
------------------------------------------------------------------------
[1mPlease cite the publications listed in '[31mReferences.tex[0m[1m'.[0m
  Extract the bibtex list by running 'get_bibtex References.tex'
  or email the file to 'slaclib2@slac.stanford.edu', subject 'generate'.
------------------------------------------------------------------------
[1mTerminator_Object_Handler::Exit: [0m[34mExiting Sherpa with code [0m[1m([31m0[0m[1m)[0m[?25h
Thanks for using LHAPDF 6.5.4. Please make sure to cite the paper:
  Eur.Phys.J. C75 (2015) 3, 132  (http://arxiv.org/abs/1412.7420)
Welcome to Sherpa, Vithyaban Narendran on pplxwn024.physics.ox.ac.uk. Initialization of framework underway.
The local time is Wed Jan 31 02:14:44 2024.
Run_Parameter::Init(): Setting memory limit to 1007.01 GB.
Random::SetSeed(): Seed set to 1234
-----------------------------------------------------------------------------
-----------    Event generation run with SHERPA started .......   -----------
-----------------------------------------------------------------------------
................................................ |       +                   
................................................ ||  |       +  +            
...................................        ....  | |         /   +           
................. ................   _,_ |  ....  ||         +|  +  +        
...............................  __.'  ,\|  ...  ||    /    +|          +    
.............................. (  \    \   ...  | |  |   + + \         +   
.............................  (    \   -/  .... ||       +    |          +  
........ ...................  <S   /()))))~~~~~~~~##     +     /\    +       
............................ (!H   (~~)))))~~~~~~#/     +  +    |  +         
................ ........... (!E   (~~~)))))     /|/    +         +          
............................ (!R   (~~~)))))   |||   + +            +        
..... ...................... (!P    (~~~~)))   /|  + +          +            
............................ (!A>    (~~~~~~~~~##        + +        +        
............................. ~~(!    '~~~~~~~ \       +     + +      +      
...............................  `~~~QQQQQDb //   |         + + +        +   
........................ ..........   IDDDDP||     \  + + + + +             +
....................................  IDDDI||       \                      + 
.................................... IHD HD||         \ + +  + + + + +      +
...................................  IHD ##|            :-) + +\          +  
......... ............... ......... IHI ## /      /   +  + + + +\       +    
................................... IHI/ /       /      + + + +        +     
................................... ## | | /    / + +      + + /      +      
....................... /TT\ .....  ##/ ///  / + + + + + + +/       +        
......................./TTT/T\ ... /TT\/\\\ / + + + + + + +/   \         +   
....................../TTT/TTTT\...|TT/T\\\/   +    ++  + /              
-----------------------------------------------------------------------------

     SHERPA version 3.0.0beta1 (Dhaulagiri)
                                                                             
     Authors:        Enrico Bothmann, Stefan Hoeche, Frank Krauss,           
                     Silvan Kuttimalai, Marek Schoenherr, Holger Schulz,     
                     Steffen Schumann, Frank Siegert, Korinna Zapp           
     Former Authors: Timo Fischer, Tanju Gleisberg, Hendrik Hoeth,           
                     Ralf Kuhn, Thomas Laubrich, Andreas Schaelicke,         
                     Jan Winter                                              
                                                                             
     This program uses a lot of genuine and original research work           
     by other people. Users are encouraged to refer to                       
     the various original publications.                                      
                                                                             
     Users are kindly asked to refer to the documentation                    
     published under JHEP 02(2009)007                                        
                                                                             
     Please visit also our homepage                                          
                                                                             
       http://sherpa.hepforge.org                                            
                                                                             
     for news, bugreports, updates and new releases.                         
                                                                             
-----------------------------------------------------------------------------
WARNING: You are using an unsupported development branch.
Git branch photon-pdf-fitting, revision cbce34ae4e06c58e8cfd6012e9ecf6e43a03c86e.
Hadron_Init::Init(): Initializing kf table for hadrons.
Beam_Spectra_Handler: type = Collider Setup
    for e+ (on = 1, p = (27.6,0,0,27.6))
    and P+ (on = 1, p = (820,0,0,-819.999)).
ISR handling:
    PDFs for hard scattering:              None + NNPDF31_nnlo_as_0118_proton
    PDFs for multiple parton interactions: None + PDF4LHC21_40_pdfas
Remnant_Handlers:
    hard process: P: Intact + P+: Hadron
Standard_Model::FixEWParameters() {
  Input scheme: Gmu
                Gmu scheme, input: GF, m_W, m_Z, m_h, widths
  Ren. scheme:  Gmu
                
  Parameters:   sin^2(\theta_W) = 0.222928 - 0.00110708 i
                vev             = 246.218
}
Running_AlphaQED::PrintSummary() {
  Setting \alpha according to EW scheme
  1/\alpha(0)   = 137.036
  1/\alpha(def) = 132.168
}
[1mOne_Running_AlphaS::One_Running_AlphaS(): [0m[31mOverriding \alpha_s information from PDF. Make sure you know what you are doing![0m
One_Running_AlphaS::PrintSummary() {
  Setting \alpha_s according to PDF
  perturbative order 1
  \alpha_s(M_Z) = 0.1188
}
[1mOne_Running_AlphaS::One_Running_AlphaS(): [0m[31mOverriding \alpha_s information from PDF. Make sure you know what you are doing![0m
One_Running_AlphaS::PrintSummary() {
  Setting \alpha_s according to PDF
  perturbative order 1
  \alpha_s(M_Z) = 0.1188
}
List of Particle Data 
     IDName     kfc            Mass           Width   Stable  Massive   Active          Yukawa
          d       1            0.01               0        1        0        1               0
          u       2           0.005               0        1        0        1               0
          s       3             0.2               0        1        0        1               0
          c       4            1.42               0        1        1        1            1.42
          b       5            4.92               0        1        1        1            4.92
          t       6          173.21             1.5        0        1        1          173.21
         e-      11        0.000511               0        1        0        1               0
         ve      12               0               0        1        0        1               0
        mu-      13           0.105               0        1        0        1               0
        vmu      14               0               0        1        0        1               0
       tau-      15           1.777     2.26735e-12        0        0        1               0
       vtau      16               0               0        1        0        1               0
          G      21               0               0        1        0        1               0
          P      22               0               0        1        0        1               0
          Z      23         91.1876          2.4952        0        1        1         91.1876
         W+      24          80.385           2.085        0        1        1          80.385
         h0      25             125         0.00407        0        1        1             125
     string      95               0               0        1        0        1               0
    cluster      96               0               0        1        0        1               0
  Instanton     999               0               0        0        0        1               0
List of Particle Containers 
     IDName     kfc     Constituents
          l      90     {e-,e+,mu-,mu+,tau-,tau+}
          v      91     {ve,veb,vmu,vmub,vtau,vtaub}
          f      92     {d,db,u,ub,s,sb,e-,e+,mu-,mu+,tau-,tau+,ve,veb,vmu,vmub,vtau,vtaub}
          j      93     {d,db,u,ub,s,sb,G}
          Q      94     {d,db,u,ub,s,sb}
        ewj      98     {d,db,u,ub,s,sb,G,P}
Shower_Handler initialised.

+-----------------------------------------+
|   X   X   X XXXX  XXX  XXX  XXX         |
|  X X  XX XX X    X      X  X     X   X  |
| X   X X X X XXX  X XXX  X  X    XXX XXX |
| XXXXX X   X X    X   X  X  X     X   X  |
| X   X X   X XXXX  XXX  XXX  XXX         |
+-----------------------------------------+
| please cite: JHEP 0202:044,2002         |
+-----------------------------------------+
Matrix_Element_Handler::Matrix_Element_Handler(): Set pilot run mode to 0.
ME_Generator_Base::SetPSMasses(): Massive PS flavours for Comix: (e-,e+,mu-,mu+,tau-,tau+)
+----------------------------------+
|                                  |
|      [31mCCC[0m  [32mOOO[0m  [34mM[0m   [34mM[0m I [33mX[0m   [33mX[0m     |
|     [31mC[0m    [32mO[0m   [32mO[0m [34mMM[0m [34mMM[0m I  [33mX[0m [33mX[0m      |
|     [31mC[0m    [32mO[0m   [32mO[0m [34mM[0m [34mM[0m [34mM[0m I   [33mX[0m       |
|     [31mC[0m    [32mO[0m   [32mO[0m [34mM[0m   [34mM[0m I  [33mX[0m [33mX[0m      |
|      [31mCCC[0m  [32mOOO[0m  [34mM[0m   [34mM[0m I [33mX[0m   [33mX[0m     |
|                                  |
+==================================+
|  Color dressed  Matrix Elements  |
|     http://comix.freacafe.de     |
|   please cite  JHEP12(2008)039   |
+----------------------------------+
ME_Generator_Base::SetPSMasses(): Massive PS flavours for Amegic: (e-,e+,mu-,mu+,tau-,tau+)
Matrix_Element_Handler::BuildProcesses(): 2 ME generators, 1 process blocks.
Matrix_Element_Handler::BuildProcesses(): Setting up processes ........................................ done ( 59 MB, 0s / 0s ).
Matrix_Element_Handler::InitializeProcesses(): Performing tests ........................................ done ( 59 MB, 0s / 0s ).
Matrix_Element_Handler::InitializeProcesses(): Initializing scales done ( 60 MB, 0s / 0s ).
Initialized the Matrix_Element_Handler for the hard processes.
Initialized the Beam_Remnant_Handler.
Beam_Channels::CheckForStructuresFromME for 0: (none)
ISR_Channels::CheckForStructuresFromME for 0: (none)
Process_Group::CalculateTotalXSec(): Calculate xs for '2_2__P__j__j__j' (Comix)
Integration parameters: n_{min} = 5000, N_{opt} = 10, N_{max} = 1, exponent = 0.5
Starting the calculation at 02:14:45. Lean back and enjoy ... .
[34m676.482 pb[0m +- ( [31m18.9807 pb = 2.8058 %[0m ) 5000 ( 10464 -> 47.7 % )
full optimization:  ( 0s elapsed / 40s left ) [02:14:45]
[34m616.09 pb[0m +- ( [31m24.4351 pb = 3.96615 %[0m ) 7071 ( 14471 -> 51.6 % )
full optimization:  ( 0s elapsed / 41s left ) [02:14:45]
[34m633.792 pb[0m +- ( [31m13.1832 pb = 2.08005 %[0m ) 9999 ( 19203 -> 61.8 % )
full optimization:  ( 0s elapsed / 40s left ) [02:14:46]
[34m642.573 pb[0m +- ( [31m8.41456 pb = 1.30951 %[0m ) 14140 ( 26055 -> 60.4 % )
full optimization:  ( 1s elapsed / 39s left ) [02:14:46]
[34m644.015 pb[0m +- ( [31m5.79134 pb = 0.899255 %[0m ) 19996 ( 36538 -> 55.8 % )
full optimization:  ( 1s elapsed / 36s left ) [02:14:46]
[34m644.564 pb[0m +- ( [31m4.23325 pb = 0.656761 %[0m ) 28278 ( 52404 -> 52.1 % )
full optimization:  ( 1s elapsed / 34s left ) [02:14:47]
[34m648.056 pb[0m +- ( [31m3.25186 pb = 0.501786 %[0m ) 39991 ( 75922 -> 49.8 % )
full optimization:  ( 2s elapsed / 32s left ) [02:14:47]
[34m651.866 pb[0m +- ( [31m2.58718 pb = 0.396889 %[0m ) 56555 ( 111230 -> 46.9 % )
full optimization:  ( 3s elapsed / 30s left ) [02:14:48]
[34m653.066 pb[0m +- ( [31m2.0941 pb = 0.320656 %[0m ) 79980 ( 163692 -> 44.6 % )
full optimization:  ( 4s elapsed / 28s left ) [02:14:50]
[34m652.357 pb[0m +- ( [31m1.71816 pb = 0.263378 %[0m ) 113108 ( 240253 -> 43.2 % )
full optimization:  ( 6s elapsed / 26s left ) [02:14:52]
[34m652.57 pb[0m +- ( [31m1.42666 pb = 0.218622 %[0m ) 159958 ( 353676 -> 41.3 % )
integration time:   ( 10s elapsed / 26s left ) [02:14:56]
[1m2_2__P__j__j__j[0m : [34m[1m652.57 pb[0m +- ( [31m1.42666 pb = 0.218622 %[0m ) [1m exp. eff: [31m3.03769 %[0m
  reduce max for 2_2__P__j__j__j to 1 ( eps = 0.001 -> exp. eff 0.0303769 ) 
Process_Group::CalculateTotalXSec(): Calculate xs for '2_2__P__j__c__cb' (Comix)
Integration parameters: n_{min} = 5000, N_{opt} = 10, N_{max} = 1, exponent = 0.5
Starting the calculation at 02:14:56. Lean back and enjoy ... .
[34m193.88 pb[0m +- ( [31m6.45201 pb = 3.32783 %[0m ) 5000 ( 32425 -> 15.4 % )
full optimization:  ( 0s elapsed / 18s left ) [02:14:56]
[34m188.89 pb[0m +- ( [31m7.89445 pb = 4.1794 %[0m ) 7071 ( 45752 -> 15.5 % )
full optimization:  ( 0s elapsed / 18s left ) [02:14:56]
[34m188.331 pb[0m +- ( [31m5.23813 pb = 2.78134 %[0m ) 9999 ( 53680 -> 36.9 % )
full optimization:  ( 0s elapsed / 16s left ) [02:14:56]
[34m190.685 pb[0m +- ( [31m3.77332 pb = 1.97882 %[0m ) 14140 ( 62932 -> 44.7 % )
full optimization:  ( 0s elapsed / 15s left ) [02:14:56]
[34m193.061 pb[0m +- ( [31m2.73783 pb = 1.41812 %[0m ) 19996 ( 76142 -> 44.3 % )
full optimization:  ( 0s elapsed / 13s left ) [02:14:56]
[34m194.411 pb[0m +- ( [31m2.01585 pb = 1.0369 %[0m ) 28278 ( 94687 -> 44.6 % )
full optimization:  ( 0s elapsed / 13s left ) [02:14:56]
[34m195.001 pb[0m +- ( [31m1.49023 pb = 0.764216 %[0m ) 39991 ( 122239 -> 42.5 % )
full optimization:  ( 0s elapsed / 12s left ) [02:14:57]
[34m195.831 pb[0m +- ( [31m1.11677 pb = 0.570273 %[0m ) 56555 ( 163448 -> 40.1 % )
full optimization:  ( 1s elapsed / 11s left ) [02:14:57]
[34m197.18 pb[0m +- ( [31m0.854518 pb = 0.433369 %[0m ) 79980 ( 224492 -> 38.3 % )
full optimization:  ( 1s elapsed / 11s left ) [02:14:58]
[34m196.957 pb[0m +- ( [31m0.663581 pb = 0.336917 %[0m ) 113108 ( 317190 -> 35.7 % )
full optimization:  ( 2s elapsed / 11s left ) [02:14:58]
[34m197.604 pb[0m +- ( [31m0.528075 pb = 0.26724 %[0m ) 159958 ( 454633 -> 34 % )
integration time:   ( 4s elapsed / 11s left ) [02:15:00]
[1m2_2__P__j__c__cb[0m : [34m[1m197.604 pb[0m +- ( [31m0.528075 pb = 0.26724 %[0m ) [1m exp. eff: [31m3.0454 %[0m
  reduce max for 2_2__P__j__c__cb to 1 ( eps = 0.001 -> exp. eff 0.030454 ) 
Process_Group::CalculateTotalXSec(): Calculate xs for '2_2__P__j__b__bb' (Comix)
Integration parameters: n_{min} = 5000, N_{opt} = 10, N_{max} = 1, exponent = 0.5
Starting the calculation at 02:15:00. Lean back and enjoy ... .
[34m48.173 pb[0m +- ( [31m1.38553 pb = 2.87615 %[0m ) 5000 ( 19766 -> 25.2 % )
full optimization:  ( 0s elapsed / 21s left ) [02:15:00]
[34m45.5779 pb[0m +- ( [31m1.6425 pb = 3.60371 %[0m ) 7071 ( 27670 -> 26.2 % )
full optimization:  ( 0s elapsed / 21s left ) [02:15:01]
[34m46.2323 pb[0m +- ( [31m0.986085 pb = 2.13289 %[0m ) 9999 ( 34732 -> 41.4 % )
full optimization:  ( 0s elapsed / 20s left ) [02:15:01]
[34m46.6827 pb[0m +- ( [31m0.674712 pb = 1.44531 %[0m ) 14140 ( 43420 -> 47.6 % )
full optimization:  ( 0s elapsed / 20s left ) [02:15:01]
[34m46.905 pb[0m +- ( [31m0.486352 pb = 1.03689 %[0m ) 19996 ( 55363 -> 49 % )
full optimization:  ( 0s elapsed / 19s left ) [02:15:01]
[34m46.6161 pb[0m +- ( [31m0.358946 pb = 0.770004 %[0m ) 28278 ( 72769 -> 47.5 % )
full optimization:  ( 0s elapsed / 17s left ) [02:15:01]
[34m46.6015 pb[0m +- ( [31m0.272101 pb = 0.583889 %[0m ) 39991 ( 98248 -> 45.9 % )
full optimization:  ( 1s elapsed / 14s left ) [02:15:01]
[34m46.5618 pb[0m +- ( [31m0.211104 pb = 0.453385 %[0m ) 56555 ( 135613 -> 44.3 % )
full optimization:  ( 1s elapsed / 13s left ) [02:15:02]
[34m46.5336 pb[0m +- ( [31m0.167325 pb = 0.359579 %[0m ) 79980 ( 189536 -> 43.4 % )
full optimization:  ( 1s elapsed / 12s left ) [02:15:02]
[34m46.7386 pb[0m +- ( [31m0.135365 pb = 0.289621 %[0m ) 113108 ( 266913 -> 42.8 % )
full optimization:  ( 3s elapsed / 13s left ) [02:15:04]
[34m46.7515 pb[0m +- ( [31m0.11042 pb = 0.236186 %[0m ) 159958 ( 378241 -> 42 % )
integration time:   ( 5s elapsed / 12s left ) [02:15:05]
[1m2_2__P__j__b__bb[0m : [34m[1m46.7515 pb[0m +- ( [31m0.11042 pb = 0.236186 %[0m ) [1m exp. eff: [31m2.88565 %[0m
  reduce max for 2_2__P__j__b__bb to 1 ( eps = 0.001 -> exp. eff 0.0288565 ) 
Beam_Channels::CheckForStructuresFromME for 0: (none)
ISR_Channels::CheckForStructuresFromME for 0: (none)
Process_Group::CalculateTotalXSec(): Calculate xs for '2_3__P__j__j__j__j' (Comix)
Integration parameters: n_{min} = 5000, N_{opt} = 10, N_{max} = 1, exponent = 0.5
Starting the calculation at 02:15:05. Lean back and enjoy ... .
[34m139.062 pb[0m +- ( [31m22.0553 pb = 15.8601 %[0m ) 5000 ( 20982 -> 23.8 % )
full optimization:  ( 3s elapsed / 6m 29s left ) [02:15:09]
[34m122.51 pb[0m +- ( [31m28.5368 pb = 23.2935 %[0m ) 7071 ( 29072 -> 25.5 % )
full optimization:  ( 5s elapsed / 6m 29s left ) [02:15:11]
[34m170.806 pb[0m +- ( [31m32.3055 pb = 18.9136 %[0m ) 9999 ( 37000 -> 36.9 % )
full optimization:  ( 7s elapsed / 6m 32s left ) [02:15:13]
[34m158.117 pb[0m +- ( [31m19.4766 pb = 12.3178 %[0m ) 14140 ( 48360 -> 36.4 % )
full optimization:  ( 10s elapsed / 6m 44s left ) [02:15:16]
[34m197.866 pb[0m +- ( [31m34.203 pb = 17.286 %[0m ) 19996 ( 61649 -> 44 % )
full optimization:  ( 16s elapsed / 7m 4s left ) [02:15:22]
[34m188.471 pb[0m +- ( [31m25.2261 pb = 13.3846 %[0m ) 28278 ( 76569 -> 55.5 % )
full optimization:  ( 25s elapsed / 7m 28s left ) [02:15:30]
[34m297.45 pb[0m +- ( [31m108.043 pb = 36.3231 %[0m ) 39991 ( 99221 -> 51.7 % )
full optimization:  ( 36s elapsed / 7m 27s left ) [02:15:42]
[34m274.021 pb[0m +- ( [31m81.2208 pb = 29.6404 %[0m ) 56555 ( 125112 -> 63.9 % )
full optimization:  ( 52s elapsed / 7m 27s left ) [02:15:58]
[34m265.68 pb[0m +- ( [31m59.2198 pb = 22.2899 %[0m ) 79980 ( 164152 -> 60 % )
full optimization:  ( 1m 14s elapsed / 7m 4s left ) [02:16:20]
Mapping error in Vegas for CDBG_T_8_124_SC24
0: 3.67956e-09<->3.68397e-09 (4.41233e-12)
1: 0.52978<->0.52978 (0)
[34m264.304 pb[0m +- ( [31m42.4326 pb = 16.0545 %[0m ) 113108 ( 221557 -> 57.7 % )
full optimization:  ( 1m 52s elapsed / 6m 58s left ) [02:16:58]
Mapping error in Vegas for CDBG_T_8_124_SC24
0: 4.32808e-09<->4.32968e-09 (1.60733e-12)
1: 0.693513<->0.693513 (0)
Mapping error in Vegas for CDBG_T_8_124_SC24
0: 7.19717e-09<->7.19461e-09 (2.5568e-12)
1: 0.623686<->0.623686 (0)
Mapping error in Vegas for CDBG_T_8_124_SC24
0: 8.54104e-09<->8.54382e-09 (2.77712e-12)
1: 0.107131<->0.107131 (0)
Mapping error in Vegas for CDBG_T_8_124_SC24
0: 4.4091e-09<->4.40445e-09 (4.65276e-12)
1: 0.0226352<->0.0226352 (3.46945e-18)
Mapping error in Vegas for CDBG_T_8_124_SC24
0: 1.53451e-09<->1.53612e-09 (1.60717e-12)
1: 0.535979<->0.535979 (0)
Mapping error in Vegas for CDBG_T_16_123_SC23
0: 4.60239e-09<->4.60496e-09 (2.56654e-12)
1: 0.273275<->0.273275 (1.11022e-16)
Mapping error in Vegas for CDBG_T_8_124_SC24
0: 1.2772e-09<->1.27444e-09 (2.765e-12)
1: 0.762627<->0.762627 (0)
Mapping error in Vegas for CDBG_T_8_124_SC24
0: 2.06245e-09<->2.06629e-09 (3.83331e-12)
1: 0.160203<->0.160203 (0)
Mapping error in Vegas for CDBG_T_8_124_SC24
0: 1.8434e-08<->1.843e-08 (4.00681e-12)
1: 0.185214<->0.185214 (2.77556e-17)
[34m271.019 pb[0m +- ( [31m30.6583 pb = 11.3122 %[0m ) 159958 ( 305338 -> 55.9 % )
integration time:   ( 2m 38s elapsed / 6m 12s left ) [02:17:44]
[1m2_3__P__j__j__j__j[0m : [34m[1m271.019 pb[0m +- ( [31m30.6583 pb = 11.3122 %[0m ) [1m exp. eff: [31m0.0134425 %[0m
  reduce max for 2_3__P__j__j__j__j to 1 ( eps = 0.001 -> exp. eff 0.000134425 ) 
Process_Group::CalculateTotalXSec(): Calculate xs for '2_3__P__j__c__cb__j' (Comix)
Integration parameters: n_{min} = 5000, N_{opt} = 10, N_{max} = 1, exponent = 0.5
Starting the calculation at 02:17:44. Lean back and enjoy ... .
[34m41.1574 pb[0m +- ( [31m4.35769 pb = 10.5879 %[0m ) 5000 ( 122985 -> 4 % )
full optimization:  ( 2s elapsed / 5m 4s left ) [02:17:47]
[34m37.6483 pb[0m +- ( [31m5.40854 pb = 14.366 %[0m ) 7071 ( 155476 -> 6.3 % )
full optimization:  ( 3s elapsed / 4m 50s left ) [02:17:48]
[34m35.7055 pb[0m +- ( [31m3.39159 pb = 9.4988 %[0m ) 9999 ( 176978 -> 13.6 % )
full optimization:  ( 4s elapsed / 4m 14s left ) [02:17:49]
[34m34.67 pb[0m +- ( [31m2.5415 pb = 7.33054 %[0m ) 14140 ( 195610 -> 22.2 % )
full optimization:  ( 6s elapsed / 4m 11s left ) [02:17:51]
[34m34.1412 pb[0m +- ( [31m1.89614 pb = 5.55382 %[0m ) 19996 ( 221021 -> 23 % )
full optimization:  ( 9s elapsed / 3m 54s left ) [02:17:53]
[34m33.9287 pb[0m +- ( [31m1.40415 pb = 4.13853 %[0m ) 28278 ( 256798 -> 23.1 % )
full optimization:  ( 11s elapsed / 3m 30s left ) [02:17:56]
[34m33.5251 pb[0m +- ( [31m1.03608 pb = 3.09046 %[0m ) 39991 ( 312795 -> 20.9 % )
full optimization:  ( 16s elapsed / 3m 20s left ) [02:18:00]
[34m32.9958 pb[0m +- ( [31m0.8127 pb = 2.46304 %[0m ) 56555 ( 394979 -> 20.1 % )
full optimization:  ( 22s elapsed / 3m 9s left ) [02:18:07]
Mapping error in Vegas for CDBG_T_16_123_SC23
0: 4.2248e-10<->4.21413e-10 (1.06674e-12)
1: 0.159364<->0.159364 (5.55112e-17)
[34m31.5897 pb[0m +- ( [31m0.585617 pb = 1.85382 %[0m ) 79980 ( 509233 -> 20.5 % )
full optimization:  ( 32s elapsed / 3m 2s left ) [02:18:16]
[34m30.7117 pb[0m +- ( [31m0.419107 pb = 1.36465 %[0m ) 113108 ( 675791 -> 19.8 % )
full optimization:  ( 45s elapsed / 2m 48s left ) [02:18:29]
Mapping error in Vegas for CDBG_T_16_123_SC23
0: 3.58295e-09<->3.58201e-09 (9.34776e-13)
1: 0.171082<->0.171082 (2.77556e-17)
Mapping error in Vegas for CDBG_T_16_123_SC23
0: 1.73684e-08<->1.73731e-08 (4.70655e-12)
1: 0.401514<->0.401514 (0)
[34m30.7266 pb[0m +- ( [31m0.301811 pb = 0.982246 %[0m ) 159958 ( 916137 -> 19.4 % )
integration time:   ( 1m 3s elapsed / 2m 28s left ) [02:18:48]
[1m2_3__P__j__c__cb__j[0m : [34m[1m30.7266 pb[0m +- ( [31m0.301811 pb = 0.982246 %[0m ) [1m exp. eff: [31m0.0307443 %[0m
  reduce max for 2_3__P__j__c__cb__j to 1 ( eps = 0.001 -> exp. eff 0.000307443 ) 
Process_Group::CalculateTotalXSec(): Calculate xs for '2_3__P__j__b__bb__j' (Comix)
Integration parameters: n_{min} = 5000, N_{opt} = 10, N_{max} = 1, exponent = 0.5
Starting the calculation at 02:18:48. Lean back and enjoy ... .
[34m8.07936 pb[0m +- ( [31m0.709525 pb = 8.78195 %[0m ) 5000 ( 91061 -> 5.4 % )
full optimization:  ( 2s elapsed / 3m 32s left ) [02:18:50]
[34m6.15702 pb[0m +- ( [31m0.462953 pb = 7.5191 %[0m ) 7071 ( 113914 -> 9 % )
full optimization:  ( 2s elapsed / 3m 23s left ) [02:18:50]
[34m6.55603 pb[0m +- ( [31m0.293001 pb = 4.46919 %[0m ) 9999 ( 134504 -> 14.2 % )
full optimization:  ( 3s elapsed / 3m 10s left ) [02:18:51]
[34m6.62486 pb[0m +- ( [31m0.207964 pb = 3.13915 %[0m ) 14140 ( 156739 -> 18.6 % )
full optimization:  ( 4s elapsed / 3m left ) [02:18:52]
[34m6.7436 pb[0m +- ( [31m0.157204 pb = 2.33116 %[0m ) 19996 ( 184555 -> 21 % )
full optimization:  ( 6s elapsed / 2m 50s left ) [02:18:54]
[34m7.11325 pb[0m +- ( [31m0.158248 pb = 2.22469 %[0m ) 28278 ( 220609 -> 22.9 % )
full optimization:  ( 10s elapsed / 2m 59s left ) [02:18:58]
[34m7.18093 pb[0m +- ( [31m0.163659 pb = 2.27908 %[0m ) 39991 ( 270158 -> 23.6 % )
full optimization:  ( 13s elapsed / 2m 49s left ) [02:19:01]
[34m7.0429 pb[0m +- ( [31m0.131295 pb = 1.86422 %[0m ) 56555 ( 326119 -> 29.5 % )
full optimization:  ( 19s elapsed / 2m 48s left ) [02:19:07]
Mapping error in Vegas for CDBG_T_16_123_SC23
0: 7.52549e-09<->7.52767e-09 (2.18123e-12)
1: 0.461321<->0.461321 (5.55112e-17)
Mapping error in Vegas for CDBG_T_16_123_SC23
0: 1.15982e-08<->1.16025e-08 (4.28789e-12)
1: 0.264341<->0.264341 (0)
[34m7.50568 pb[0m +- ( [31m0.239312 pb = 3.18842 %[0m ) 79980 ( 414427 -> 26.5 % )
full optimization:  ( 28s elapsed / 2m 39s left ) [02:19:16]
Mapping error in Vegas for CDBG_T_16_123_SC23
0: 2.09393e-08<->2.09347e-08 (4.55861e-12)
1: 0.312386<->0.312386 (5.55112e-17)
Mapping error in Vegas for CDBG_T_16_123_SC23
0: 7.06457e-10<->7.06887e-10 (4.30435e-13)
1: 0.797011<->0.797011 (0)
Mapping error in Vegas for CDBG_T_16_123_SC23
0: 5.15181e-09<->5.15552e-09 (3.70583e-12)
1: 0.45572<->0.45572 (5.55112e-17)
[34m7.34559 pb[0m +- ( [31m0.188805 pb = 2.57031 %[0m ) 113108 ( 507320 -> 35.6 % )
full optimization:  ( 38s elapsed / 2m 22s left ) [02:19:26]
Mapping error in Vegas for CDBG_T_16_123_SC23
0: 4.06274e-09<->4.0612e-09 (1.53363e-12)
1: 0.755964<->0.755964 (1.11022e-16)
Mapping error in Vegas for CDBG_T_16_123_SC23
0: 3.52602e-10<->3.53443e-10 (8.41118e-13)
1: 0.863383<->0.863383 (0)
Mapping error in Vegas for CDBG_T_16_123_SC23
0: 2.57719e-09<->2.57606e-09 (1.12841e-12)
1: 0.593968<->0.593968 (0)
Mapping error in Vegas for CDBG_T_16_123_SC23
0: 6.96297e-09<->6.96692e-09 (3.95014e-12)
1: 0.879421<->0.879421 (0)
Mapping error in Vegas for CDBG_T_16_123_SC23
0: 4.73545e-09<->4.7341e-09 (1.34855e-12)
1: 0.228194<->0.228194 (5.55112e-17)
Mapping error in Vegas for CDBG_T_16_123_SC23
0: 5.91516e-09<->5.91678e-09 (1.62329e-12)
1: 0.870896<->0.870896 (0)
Mapping error in Vegas for CDBG_T_16_123_SC23
0: 1.14944e-08<->1.14903e-08 (4.0712e-12)
1: 0.918885<->0.918885 (1.11022e-16)
Mapping error in Vegas for CDBG_T_16_123_SC23
0: 1.44616e-08<->1.44572e-08 (4.44503e-12)
1: 0.589124<->0.589124 (0)
Mapping error in Vegas for CDBG_T_16_123_SC23
0: 3.90384e-09<->3.90827e-09 (4.42783e-12)
1: 0.270549<->0.270549 (5.55112e-17)
Mapping error in Vegas for CDBG_T_16_123_SC23
0: 2.92455e-09<->2.9261e-09 (1.55012e-12)
1: 0.955029<->0.955029 (1.11022e-16)
[34m7.52022 pb[0m +- ( [31m0.156509 pb = 2.08118 %[0m ) 159958 ( 665988 -> 29.5 % )
integration time:   ( 53s elapsed / 2m 5s left ) [02:19:41]
[1m2_3__P__j__b__bb__j[0m : [34m[1m7.52022 pb[0m +- ( [31m0.156509 pb = 2.08118 %[0m ) [1m exp. eff: [31m0.011375 %[0m
  reduce max for 2_3__P__j__b__bb__j to 1 ( eps = 0.001 -> exp. eff 0.00011375 ) 
Return_Value::PrintStatistics(): Statistics {
  Generated events: 0
}
Blob_List: Momentum Fail Statistics {
}
Decay_Channel: Kinematics max fail statistics {
}
WARNING: You are using an unsupported development branch.
------------------------------------------------------------------------
[1mPlease cite the publications listed in '[31mReferences.tex[0m[1m'.[0m
  Extract the bibtex list by running 'get_bibtex References.tex'
  or email the file to 'slaclib2@slac.stanford.edu', subject 'generate'.
------------------------------------------------------------------------
WARNING: Some settings that have been defined in the input
files and/or the command line have not been used. For more
details, see the Settings Report.
Time: 4m 56s on Wed Jan 31 02:19:41 2024
 (User: 4m 53s, System: 0s, Children User: 0s, Children System: 0s)
Welcome to Sherpa, Vithyaban Narendran on pplxwn024.physics.ox.ac.uk. Initialization of framework underway.
The local time is Wed Jan 31 02:19:41 2024.
Run_Parameter::Init(): Setting memory limit to 1007.01 GB.
Random::SetSeed(): Seed set to 1234
-----------------------------------------------------------------------------
-----------    Event generation run with SHERPA started .......   -----------
-----------------------------------------------------------------------------
................................................ |       +                   
................................................ ||  |       +  +            
...................................        ....  | |         /   +           
................. ................   _,_ |  ....  ||         +|  +  +        
...............................  __.'  ,\|  ...  ||    /    +|          +    
.............................. (  \    \   ...  | |  |   + + \         +   
.............................  (    \   -/  .... ||       +    |          +  
........ ...................  <S   /()))))~~~~~~~~##     +     /\    +       
............................ (!H   (~~)))))~~~~~~#/     +  +    |  +         
................ ........... (!E   (~~~)))))     /|/    +         +          
............................ (!R   (~~~)))))   |||   + +            +        
..... ...................... (!P    (~~~~)))   /|  + +          +            
............................ (!A>    (~~~~~~~~~##        + +        +        
............................. ~~(!    '~~~~~~~ \       +     + +      +      
...............................  `~~~QQQQQDb //   |         + + +        +   
........................ ..........   IDDDDP||     \  + + + + +             +
....................................  IDDDI||       \                      + 
.................................... IHD HD||         \ + +  + + + + +      +
...................................  IHD ##|            :-) + +\          +  
......... ............... ......... IHI ## /      /   +  + + + +\       +    
................................... IHI/ /       /      + + + +        +     
................................... ## | | /    / + +      + + /      +      
....................... /TT\ .....  ##/ ///  / + + + + + + +/       +        
......................./TTT/T\ ... /TT\/\\\ / + + + + + + +/   \         +   
....................../TTT/TTTT\...|TT/T\\\/   +    ++  + /              
-----------------------------------------------------------------------------

     SHERPA version 3.0.0beta1 (Dhaulagiri)
                                                                             
     Authors:        Enrico Bothmann, Stefan Hoeche, Frank Krauss,           
                     Silvan Kuttimalai, Marek Schoenherr, Holger Schulz,     
                     Steffen Schumann, Frank Siegert, Korinna Zapp           
     Former Authors: Timo Fischer, Tanju Gleisberg, Hendrik Hoeth,           
                     Ralf Kuhn, Thomas Laubrich, Andreas Schaelicke,         
                     Jan Winter                                              
                                                                             
     This program uses a lot of genuine and original research work           
     by other people. Users are encouraged to refer to                       
     the various original publications.                                      
                                                                             
     Users are kindly asked to refer to the documentation                    
     published under JHEP 02(2009)007                                        
                                                                             
     Please visit also our homepage                                          
                                                                             
       http://sherpa.hepforge.org                                            
                                                                             
     for news, bugreports, updates and new releases.                         
                                                                             
-----------------------------------------------------------------------------
WARNING: You are using an unsupported development branch.
Git branch photon-pdf-fitting, revision cbce34ae4e06c58e8cfd6012e9ecf6e43a03c86e.
Hadron_Init::Init(): Initializing kf table for hadrons.
Beam_Spectra_Handler: type = Collider Setup
    for e+ (on = 1, p = (27.6,0,0,27.6))
    and P+ (on = 1, p = (820,0,0,-819.999)).
ISR handling:
    PDFs for hard scattering:              None + NNPDF31_nnlo_as_0118_proton
    PDFs for multiple parton interactions: None + PDF4LHC21_40_pdfas
Remnant_Handlers:
    hard process: P: Intact + P+: Hadron
Standard_Model::FixEWParameters() {
  Input scheme: Gmu
                Gmu scheme, input: GF, m_W, m_Z, m_h, widths
  Ren. scheme:  Gmu
                
  Parameters:   sin^2(\theta_W) = 0.222928 - 0.00110708 i
                vev             = 246.218
}
Running_AlphaQED::PrintSummary() {
  Setting \alpha according to EW scheme
  1/\alpha(0)   = 137.036
  1/\alpha(def) = 132.168
}
[1mOne_Running_AlphaS::One_Running_AlphaS(): [0m[31mOverriding \alpha_s information from PDF. Make sure you know what you are doing![0m
One_Running_AlphaS::PrintSummary() {
  Setting \alpha_s according to PDF
  perturbative order 1
  \alpha_s(M_Z) = 0.1188
}
[1mOne_Running_AlphaS::One_Running_AlphaS(): [0m[31mOverriding \alpha_s information from PDF. Make sure you know what you are doing![0m
One_Running_AlphaS::PrintSummary() {
  Setting \alpha_s according to PDF
  perturbative order 1
  \alpha_s(M_Z) = 0.1188
}
List of Particle Data 
     IDName     kfc            Mass           Width   Stable  Massive   Active          Yukawa
          d       1            0.01               0        1        0        1               0
          u       2           0.005               0        1        0        1               0
          s       3             0.2               0        1        0        1               0
          c       4            1.42               0        1        1        1            1.42
          b       5            4.92               0        1        1        1            4.92
          t       6          173.21             1.5        0        1        1          173.21
         e-      11        0.000511               0        1        0        1               0
         ve      12               0               0        1        0        1               0
        mu-      13           0.105               0        1        0        1               0
        vmu      14               0               0        1        0        1               0
       tau-      15           1.777     2.26735e-12        0        0        1               0
       vtau      16               0               0        1        0        1               0
          G      21               0               0        1        0        1               0
          P      22               0               0        1        0        1               0
          Z      23         91.1876          2.4952        0        1        1         91.1876
         W+      24          80.385           2.085        0        1        1          80.385
         h0      25             125         0.00407        0        1        1             125
     string      95               0               0        1        0        1               0
    cluster      96               0               0        1        0        1               0
  Instanton     999               0               0        0        0        1               0
List of Particle Containers 
     IDName     kfc     Constituents
          l      90     {e-,e+,mu-,mu+,tau-,tau+}
          v      91     {ve,veb,vmu,vmub,vtau,vtaub}
          f      92     {d,db,u,ub,s,sb,e-,e+,mu-,mu+,tau-,tau+,ve,veb,vmu,vmub,vtau,vtaub}
          j      93     {d,db,u,ub,s,sb,G}
          Q      94     {d,db,u,ub,s,sb}
        ewj      98     {d,db,u,ub,s,sb,G,P}
Shower_Handler initialised.

+-----------------------------------------+
|   X   X   X XXXX  XXX  XXX  XXX         |
|  X X  XX XX X    X      X  X     X   X  |
| X   X X X X XXX  X XXX  X  X    XXX XXX |
| XXXXX X   X X    X   X  X  X     X   X  |
| X   X X   X XXXX  XXX  XXX  XXX         |
+-----------------------------------------+
| please cite: JHEP 0202:044,2002         |
+-----------------------------------------+
Matrix_Element_Handler::Matrix_Element_Handler(): Set pilot run mode to 0.
ME_Generator_Base::SetPSMasses(): Massive PS flavours for Comix: (e-,e+,mu-,mu+,tau-,tau+)
+----------------------------------+
|                                  |
|      [31mCCC[0m  [32mOOO[0m  [34mM[0m   [34mM[0m I [33mX[0m   [33mX[0m     |
|     [31mC[0m    [32mO[0m   [32mO[0m [34mMM[0m [34mMM[0m I  [33mX[0m [33mX[0m      |
|     [31mC[0m    [32mO[0m   [32mO[0m [34mM[0m [34mM[0m [34mM[0m I   [33mX[0m       |
|     [31mC[0m    [32mO[0m   [32mO[0m [34mM[0m   [34mM[0m I  [33mX[0m [33mX[0m      |
|      [31mCCC[0m  [32mOOO[0m  [34mM[0m   [34mM[0m I [33mX[0m   [33mX[0m     |
|                                  |
+==================================+
|  Color dressed  Matrix Elements  |
|     http://comix.freacafe.de     |
|   please cite  JHEP12(2008)039   |
+----------------------------------+
ME_Generator_Base::SetPSMasses(): Massive PS flavours for Amegic: (e-,e+,mu-,mu+,tau-,tau+)
Matrix_Element_Handler::BuildProcesses(): 2 ME generators, 1 process blocks.
Matrix_Element_Handler::BuildProcesses(): Setting up processes ........................................ done ( 59 MB, 0s / 0s ).
Matrix_Element_Handler::InitializeProcesses(): Performing tests ........................................ done ( 59 MB, 0s / 0s ).
Matrix_Element_Handler::InitializeProcesses(): Initializing scales done ( 59 MB, 0s / 0s ).
Initialized the Matrix_Element_Handler for the hard processes.
Initialized the Beam_Remnant_Handler.
MI_Handler::MI_Handler(id = 2, name = None, type = 0)
Underlying event/multiple interactions handler:
    MI[2]: on = 0 (type = 0, None)
Soft-collision handlers:
Hadron_Init::Init(): Initializing kf table for hadrons.
Initialized the Fragmentation_Handler.
Initialized the Hadron_Decay_Handler, Decay model = HADRONS++
Initialized the Soft_Photon_Handler.
WARNING in Variations::CheckConsistencyWithBeamSpectra: 
   The internal reweighting is only tested
   for hadronic beams of (anti-)protons.
   Will continue and hope for the best.
Initialized the Reweighting.
Beam_Channels::CheckForStructuresFromME for 0: (none)
ISR_Channels::CheckForStructuresFromME for 0: (none)
Read in channels from directory: Results/Comix/MC_2_2__P__j__j__j
Process_Group::CalculateTotalXSec(): Calculate xs for '2_2__P__j__j__j' (Comix)
[1m2_2__P__j__j__j[0m : [34m[1m652.57 pb[0m +- ( [31m1.42666 pb = 0.218622 %[0m ) [1m exp. eff: [31m3.03769 %[0m
  reduce max for 2_2__P__j__j__j to 1 ( eps = 0.001 -> exp. eff 0.0303769 ) 
Read in channels from directory: Results/Comix/MC_2_2__P__j__c__cb
Process_Group::CalculateTotalXSec(): Calculate xs for '2_2__P__j__c__cb' (Comix)
[1m2_2__P__j__c__cb[0m : [34m[1m197.604 pb[0m +- ( [31m0.528075 pb = 0.26724 %[0m ) [1m exp. eff: [31m3.0454 %[0m
  reduce max for 2_2__P__j__c__cb to 1 ( eps = 0.001 -> exp. eff 0.030454 ) 
Read in channels from directory: Results/Comix/MC_2_2__P__j__b__bb
Process_Group::CalculateTotalXSec(): Calculate xs for '2_2__P__j__b__bb' (Comix)
[1m2_2__P__j__b__bb[0m : [34m[1m46.7515 pb[0m +- ( [31m0.11042 pb = 0.236186 %[0m ) [1m exp. eff: [31m2.88565 %[0m
  reduce max for 2_2__P__j__b__bb to 1 ( eps = 0.001 -> exp. eff 0.0288565 ) 
Beam_Channels::CheckForStructuresFromME for 0: (none)
ISR_Channels::CheckForStructuresFromME for 0: (none)
Read in channels from directory: Results/Comix/MC_2_3__P__j__j__j__j
Process_Group::CalculateTotalXSec(): Calculate xs for '2_3__P__j__j__j__j' (Comix)
[1m2_3__P__j__j__j__j[0m : [34m[1m271.019 pb[0m +- ( [31m30.6583 pb = 11.3122 %[0m ) [1m exp. eff: [31m0.0134425 %[0m
  reduce max for 2_3__P__j__j__j__j to 1 ( eps = 0.001 -> exp. eff 0.000134425 ) 
Read in channels from directory: Results/Comix/MC_2_3__P__j__c__cb__j
Process_Group::CalculateTotalXSec(): Calculate xs for '2_3__P__j__c__cb__j' (Comix)
[1m2_3__P__j__c__cb__j[0m : [34m[1m30.7266 pb[0m +- ( [31m0.301811 pb = 0.982246 %[0m ) [1m exp. eff: [31m0.0307443 %[0m
  reduce max for 2_3__P__j__c__cb__j to 1 ( eps = 0.001 -> exp. eff 0.000307443 ) 
Read in channels from directory: Results/Comix/MC_2_3__P__j__b__bb__j
Process_Group::CalculateTotalXSec(): Calculate xs for '2_3__P__j__b__bb__j' (Comix)
[1m2_3__P__j__b__bb__j[0m : [34m[1m7.52022 pb[0m +- ( [31m0.156509 pb = 2.08118 %[0m ) [1m exp. eff: [31m0.011375 %[0m
  reduce max for 2_3__P__j__b__bb__j to 1 ( eps = 0.001 -> exp. eff 0.00011375 ) 
----------------------------------------------------------
-- SHERPA generates events with the following structure --
----------------------------------------------------------
Event generation   : Weighted
Perturbative       : Signal_Processes
Perturbative       : Minimum_Bias: None
Perturbative       : Hard_Decays
Perturbative       : Jet_Evolution:CSS
Perturbative       : Lepton_FS_QED_Corrections:Photons
Perturbative       : Multiple_Interactions: None
Hadronization      : Beam_Remnants:Parametrised
Hadronization      : Hadronization:Ahadic
Hadronization      : Hadron_Decays
Userhook           : 
Analysis           : Rivet
---------------------------------------------------------
Rivet.AnalysisHandler: INFO  Using named weights
Rivet.AnalysisHandler: WARN  Analysis 'H1_2002_I581409' is unvalidated: be careful, it may be broken!
  Event 1 ( 0s elapsed / 5d 14h 43m 19s left ) -> ETA: Mon Feb 05 17:03  
  XS = 23.5279 pb +- ( 23.5279 pb = 100 % )  [1A  Event 2 ( 0s elapsed / 2d 19h 21m 39s left ) -> ETA: Fri Feb 02 21:41  
  XS = 249.073 pb +- ( 241.294 pb = 96 % )  [1A  Event 3 ( 0s elapsed / 1d 20h 54m 25s left ) -> ETA: Thu Feb 01 23:14  
  XS = 111.393 pb +- ( 107.703 pb = 96 % )  [1A  Event 4 ( 0s elapsed / 1d 10h 1m 39s left ) -> ETA: Thu Feb 01 12:21  
  XS = 100.253 pb +- ( 96.974 pb = 96 % )  [1A  Event 5 ( 0s elapsed / 1d 3h 13m 19s left ) -> ETA: Thu Feb 01 05:33  
  XS = 73.2337 pb +- ( 69.2303 pb = 94 % )  [1A  Event 6 ( 0s elapsed / 22h 41m 5s left ) -> ETA: Thu Feb 01 01:00  
  XS = 68.6785 pb +- ( 64.6107 pb = 94 % )  [1A  Event 7 ( 0s elapsed / 19h 26m 39s left ) -> ETA: Wed Jan 31 21:46  
  XS = 1504.78 pb +- ( 1445.18 pb = 96 % )  [1A  Event 8 ( 0s elapsed / 17h 11m 14s left ) -> ETA: Wed Jan 31 19:30  
  XS = 1619.21 pb +- ( 1265.52 pb = 78 % )  [1A  Event 9 ( 0s elapsed / 15h 16m 39s left ) -> ETA: Wed Jan 31 17:36  
  XS = 1360.18 pb +- ( 1065.72 pb = 78 % )  [1A  Event 10 ( 0s elapsed / 13h 44m 59s left ) -> ETA: Wed Jan 31 16:04  
  XS = 1604.32 pb +- ( 1052.61 pb = 65 % )  [1A  Event 20 ( 1s elapsed / 7h 48s left ) -> ETA: Wed Jan 31 09:20  
  XS = 1058.02 pb +- ( 689.863 pb = 65 % )  [1A  Event 30 ( 1s elapsed / 4h 48m 52s left ) -> ETA: Wed Jan 31 07:08  
  XS = 767.608 pb +- ( 469.671 pb = 61 % )  [1A  Event 40 ( 1s elapsed / 3h 47m 3s left ) -> ETA: Wed Jan 31 06:06  
  XS = 594.437 pb +- ( 310.062 pb = 52 % )  [1A  Event 50 ( 1s elapsed / 3h 14m 58s left ) -> ETA: Wed Jan 31 05:34  
  XS = 557.947 pb +- ( 250.121 pb = 44 % )  [1A  Event 60 ( 1s elapsed / 2h 49m 25s left ) -> ETA: Wed Jan 31 05:09  
  XS = 1130.59 pb +- ( 591.866 pb = 52 % )  [1A  Event 70 ( 1s elapsed / 2h 28m 47s left ) -> ETA: Wed Jan 31 04:48  
  XS = 1049.78 pb +- ( 496.926 pb = 47 % )  [1A  Event 80 ( 1s elapsed / 2h 23m 43s left ) -> ETA: Wed Jan 31 04:43  
  XS = 1011.53 pb +- ( 442.225 pb = 43 % )  [1A  Event 90 ( 1s elapsed / 2h 11m 27s left ) -> ETA: Wed Jan 31 04:31  
  XS = 930.354 pb +- ( 395.529 pb = 42 % )  [1A  Event 100 ( 1s elapsed / 2h 4m 8s left ) -> ETA: Wed Jan 31 04:23  
  XS = 901.619 pb +- ( 356.868 pb = 39 % )  [1A  Event 200 ( 1s elapsed / 1h 22m 3s left ) -> ETA: Wed Jan 31 03:41  
  XS = 901.95 pb +- ( 215.605 pb = 23 % )  [1A  Event 300 ( 2s elapsed / 1h 8m left ) -> ETA: Wed Jan 31 03:27  
  XS = 1002.72 pb +- ( 208.116 pb = 20 % )  [1A  Event 400 ( 2s elapsed / 1h 1m 12s left ) -> ETA: Wed Jan 31 03:20  
  XS = 876.018 pb +- ( 165.156 pb = 18 % )  [1A  Event 500 ( 3s elapsed / 55m 36s left ) -> ETA: Wed Jan 31 03:15  
  XS = 1018.79 pb +- ( 155.219 pb = 15 % )  [1A  Event 600 ( 3s elapsed / 51m 36s left ) -> ETA: Wed Jan 31 03:11  
  XS = 1036.78 pb +- ( 138.312 pb = 13 % )  [1A  Event 700 ( 4s elapsed / 47m 54s left ) -> ETA: Wed Jan 31 03:07  
  XS = 996.308 pb +- ( 125.452 pb = 12 % )  [1A  Event 800 ( 4s elapsed / 45m 14s left ) -> ETA: Wed Jan 31 03:05  
  XS = 1074.25 pb +- ( 118.612 pb = 11 % )  [1A  Event 900 ( 4s elapsed / 42m 42s left ) -> ETA: Wed Jan 31 03:02  
  XS = 1066.46 pb +- ( 109.652 pb = 10 % )  [1A  Event 1000 ( 4s elapsed / 41m left ) -> ETA: Wed Jan 31 03:00  
  XS = 1106.81 pb +- ( 112.842 pb = 10 % )  [1A  Event 2000 ( 10s elapsed / 41m 37s left ) -> ETA: Wed Jan 31 03:01  
  XS = 1133.29 pb +- ( 77.4261 pb = 6 % )  [1A  Event 3000 ( 13s elapsed / 36m 6s left ) -> ETA: Wed Jan 31 02:56  
  XS = 1067.62 pb +- ( 64.0132 pb = 5 % )  [1A  Event 4000 ( 16s elapsed / 33m 52s left ) -> ETA: Wed Jan 31 02:53  
  XS = 1054.05 pb +- ( 53.995 pb = 5 % )  [1A  Event 5000 ( 22s elapsed / 37m 14s left ) -> ETA: Wed Jan 31 02:57  
  XS = 1063.56 pb +- ( 48.1323 pb = 4 % )  [1A  Event 6000 ( 26s elapsed / 36m 39s left ) -> ETA: Wed Jan 31 02:56  
  XS = 1053.68 pb +- ( 44.0074 pb = 4 % )  [1A  Event 7000 ( 31s elapsed / 36m 39s left ) -> ETA: Wed Jan 31 02:56  
  XS = 1035.49 pb +- ( 39.7602 pb = 3 % )  [1A  Event 8000 ( 34s elapsed / 35m 20s left ) -> ETA: Wed Jan 31 02:55  
  XS = 1060.13 pb +- ( 39.2718 pb = 3 % )  [1A  Event 9000 ( 39s elapsed / 35m 36s left ) -> ETA: Wed Jan 31 02:55  
  XS = 1073.7 pb +- ( 36.9147 pb = 3 % )  [1A  Event 10000 ( 43s elapsed / 35m 30s left ) -> ETA: Wed Jan 31 02:55  
  XS = 1073.82 pb +- ( 34.9521 pb = 3 % )  [1A  Event 20000 ( 1m 21s elapsed / 32m 44s left ) -> ETA: Wed Jan 31 02:53  
  XS = 1071.08 pb +- ( 26.0218 pb = 2 % )  [1A  Event 30000 ( 2m 15s elapsed / 35m 28s left ) -> ETA: Wed Jan 31 02:57  
  XS = 1084.11 pb +- ( 22.6247 pb = 2 % )  [1A  Event 40000 ( 3m 5s elapsed / 35m 28s left ) -> ETA: Wed Jan 31 02:58  
  XS = 1068.99 pb +- ( 19.2463 pb = 1 % )  [1A  Event 50000 ( 3m 43s elapsed / 33m 35s left ) -> ETA: Wed Jan 31 02:57  
  XS = 1077.04 pb +- ( 17.772 pb = 1 % )  [1A[34mDecay_Handler_Base::TreatInitialBlob[0m:([32m"Initial particle Delta(1232)- not onshell: sqrt|p^2|=1.232 vs. m=1.232"[0m)
  Event 60000 ( 4m 26s elapsed / 32m 30s left ) -> ETA: Wed Jan 31 02:56  
  XS = 1077.29 pb +- ( 15.8788 pb = 1 % )  [1ABlob_List::FourMomentumConservation throws four momentum error for Soft Collision             : (-3.12639e-12,-2.22045e-16,8.88178e-16,2.8848e-12) (1)
Blob_List::FourMomentumConservation throws four momentum error for Fragmentation              : (1.04876e-11,1.63602e-12,-1.42608e-13,-1.18483e-11) (1)
Blob_List::FourMomentumConservation throws four momentum error for Hadron Decay               : (-0.254535,-0.00333689,-0.00895141,0.25435) (1)
Blob_List::FourMomentumConservation throws four momentum error for Hadron Decay               : (3.42126e-12,-2.97956e-14,1.12133e-13,-3.41416e-12) (2)
Blob_List::FourMomentumConservation throws four momentum error for Hadron Decay               : (6.95039e-09,9.91991e-11,2.48022e-10,-6.94521e-09) (3)
Blob_List::FourMomentumConservation throws four momentum error for Hadron Decay               : (1.70674e-09,-2.45763e-11,-6.55844e-11,-1.7053e-09) (4)
Blob_List::FourMomentumConservation throws four momentum error for Hadron Decay               : (9.53432e-09,1.35914e-10,3.40009e-10,-9.52728e-09) (5)
Event_Handler::GenerateStandardPerturbativeEvent(): Four momentum not conserved. Rejecting event.
  Event 70000 ( 5m 13s elapsed / 32m 3s left ) -> ETA: Wed Jan 31 02:56  
  XS = 1085.14 pb +- ( 14.6733 pb = 1 % )  [1A  Event 80000 ( 6m 11s elapsed / 32m 31s left ) -> ETA: Wed Jan 31 02:58  
  XS = 1078.63 pb +- ( 13.6946 pb = 1 % )  [1A  Event 90000 ( 7m 12s elapsed / 32m 50s left ) -> ETA: Wed Jan 31 02:59  
  XS = 1083.78 pb +- ( 13.057 pb = 1 % )  [1A  Event 100000 ( 7m 47s elapsed / 31m 10s left ) -> ETA: Wed Jan 31 02:58  
  XS = 1077.42 pb +- ( 12.2493 pb = 1 % )  [1A[34mDecay_Handler_Base::TreatInitialBlob[0m:([32m"Initial particle Delta(1232)-b not onshell: sqrt|p^2|=1.232 vs. m=1.232"[0m)
  Event 200000 ( 16m 24s elapsed / 24m 37s left ) -> ETA: Wed Jan 31 03:00  
  XS = 1080.06 pb +- ( 8.91377 pb = 0 % )  [1A[34mDecay_Handler_Base::TreatInitialBlob[0m:([32m"Initial particle Delta(1232)++ not onshell: sqrt|p^2|=1.232 vs. m=1.232"[0m)
  Event 300000 ( 24m 4s elapsed / 16m 2s left ) -> ETA: Wed Jan 31 02:59  
  XS = 1141.75 pb +- ( 37.2483 pb = 3 % )  [1A  Event 400000 ( 32m 27s elapsed / 8m 6s left ) -> ETA: Wed Jan 31 03:00  
  XS = 1183.61 pb +- ( 53.519 pb = 4 % )  [1A  Event 500000 ( 2418 s total ) = 1.78705e+07 evts/day                    
In Event_Handler::Finish : Summarizing the run may take some time.
[31mRivet_Interface::Finish([32mH1_direct_5[31m)[0m[31m{[0m
[31m}[0m
--------------------------------------------------------------------------
Nominal or variation name     XS [pb]      RelDev  AbsErr [pb]      RelErr
--------------------------------------------------------------------------
[1mNominal                  [0m[34m[1m     1164.96[0m[33m         0 %[31m      42.9527      3.68 %[0m
--------------------------------------------------------------------------
Return_Value::PrintStatistics(): Statistics {
  Generated events: 500000
  New events {
    From "Jet_Evolution:CSS": 54699 (569125) -> 9.6 %
    From "Signal_Processes": 26 (554726) -> 0 %
  }
  Retried events {
    From "Hadron_Decays": 3 (514429) -> 0 %
  }
  Retried phases {
    From "Hadron_Decay_Handler::RejectExclusiveChannelsFromFragmentation": 5562 (0) -> 5562.
  }
  Retried methods {
    From "Decay_Channel::GenerateKinematics": 836 (16876692) -> 0 %
  }
}
Blob_List: Momentum Fail Statistics {
  Soft Collision             : 1 fails
  Fragmentation              : 1 fails
  Hadron Decay               : 5 fails
}
Decay_Channel: Kinematics max fail statistics {
  B --> D D*(2010)+b K+ pi  maximal fail by 2.76746.
  B --> D*(2010)+ D*(2010)+b K pi  maximal fail by 6.24845.
  B(s) --> f(0)(980) J/psi(1S)  maximal fail by 2.71442.
  B+ --> D Db K+ pi  maximal fail by 1.35069.
  B+ --> D*(2007) D*(2010)+b K+ pi+  maximal fail by 2.1658.
  B+ --> D*(2010)+ D*(2010)+b K pi+  maximal fail by 3.67091.
  B+ --> Db D*(2010)+ K pi  maximal fail by 1.44292.
}
WARNING: You are using an unsupported development branch.
------------------------------------------------------------------------
[1mPlease cite the publications listed in '[31mReferences.tex[0m[1m'.[0m
  Extract the bibtex list by running 'get_bibtex References.tex'
  or email the file to 'slaclib2@slac.stanford.edu', subject 'generate'.
------------------------------------------------------------------------
Gluon_Splitter::~Gluon_Splitter with 24063 kinematic fails.
Decay_Handler_Base::~Decay_Handler_Base with 3 particles not on their mass shell.

The MCnet usage guidelines apply to Rivet: see http://www.montecarlonet.org/GUIDELINES
Please acknowledge Rivet in results made using it, and cite https://arxiv.org/abs/1912.05451
Time: 40m 20s on Wed Jan 31 03:00:01 2024
 (User: 40m, System: 0s, Children User: 0s, Children System: 0s)
